simulation/qsim/MI-CircuitosDigitais-Problema-3.msim.vcd
$comment
	File created using the following command:
		vcd file MI-CircuitosDigitais-Problema-3.msim.vcd -direction
$end
$date
	Sat Feb 17 22:59:55 2024
$end
$version
	ModelSim Version 10.5b
$end
$timescale
	1ps
$end

$scope module pbl_vlg_vec_tst $end
$var reg 1 ! ch $end
$var reg 1 " clock_50mhz $end
$var reg 1 # cq $end
$var reg 1 $ op_c_deboucing $end
$var reg 1 % op_deboucing $end
$var reg 1 & pg $end
$var reg 1 ' start_stop $end
$var wire 1 ( Nac_7segmentos [3] $end
$var wire 1 ) Nac_7segmentos [2] $end
$var wire 1 * Nac_7segmentos [1] $end
$var wire 1 + Nac_7segmentos [0] $end
$var wire 1 , Nal $end
$var wire 1 - Nout_7seg [7] $end
$var wire 1 . Nout_7seg [6] $end
$var wire 1 / Nout_7seg [5] $end
$var wire 1 0 Nout_7seg [4] $end
$var wire 1 1 Nout_7seg [3] $end
$var wire 1 2 Nout_7seg [2] $end
$var wire 1 3 Nout_7seg [1] $end
$var wire 1 4 Nout_7seg [0] $end
$var wire 1 5 al $end
$var wire 1 6 ev $end
$var wire 1 7 m $end
$var wire 1 8 mef_estado [1] $end
$var wire 1 9 mef_estado [0] $end
$var wire 1 : test_buffer_principal [4] $end
$var wire 1 ; test_buffer_principal [3] $end
$var wire 1 < test_buffer_principal [2] $end
$var wire 1 = test_buffer_principal [1] $end
$var wire 1 > test_buffer_principal [0] $end
$var wire 1 ? test_buffer_secundario [6] $end
$var wire 1 @ test_buffer_secundario [5] $end
$var wire 1 A test_buffer_secundario [4] $end
$var wire 1 B test_buffer_secundario [3] $end
$var wire 1 C test_buffer_secundario [2] $end
$var wire 1 D test_buffer_secundario [1] $end
$var wire 1 E test_buffer_secundario [0] $end
$var wire 1 F test_buffer_secundario_2 [4] $end
$var wire 1 G test_buffer_secundario_2 [3] $end
$var wire 1 H test_buffer_secundario_2 [2] $end
$var wire 1 I test_buffer_secundario_2 [1] $end
$var wire 1 J test_buffer_secundario_2 [0] $end
$var wire 1 K test_buffer_secundario_controle_min_rolhas [4] $end
$var wire 1 L test_buffer_secundario_controle_min_rolhas [3] $end
$var wire 1 M test_buffer_secundario_controle_min_rolhas [2] $end
$var wire 1 N test_buffer_secundario_controle_min_rolhas [1] $end
$var wire 1 O test_buffer_secundario_controle_min_rolhas [0] $end
$var wire 1 P test_buffer_secundario_controle_operador [6] $end
$var wire 1 Q test_buffer_secundario_controle_operador [5] $end
$var wire 1 R test_buffer_secundario_controle_operador [4] $end
$var wire 1 S test_buffer_secundario_controle_operador [3] $end
$var wire 1 T test_buffer_secundario_controle_operador [2] $end
$var wire 1 U test_buffer_secundario_controle_operador [1] $end
$var wire 1 V test_buffer_secundario_controle_operador [0] $end
$var wire 1 W ve $end

$scope module i1 $end
$var wire 1 X gnd $end
$var wire 1 Y vcc $end
$var wire 1 Z unknown $end
$var tri1 1 [ devclrn $end
$var tri1 1 \ devpor $end
$var tri1 1 ] devoe $end
$var wire 1 ^ registrador_2|ff_6|q~4_cout $end
$var wire 1 _ pg~combout $end
$var wire 1 ` clock_50mhz~combout $end
$var wire 1 a divisor_f|ff_1|q~regout $end
$var wire 1 b divisor_f|ff_2|q~regout $end
$var wire 1 c divisor_f|ff_3|q~regout $end
$var wire 1 d cq~combout $end
$var wire 1 e ch~combout $end
$var wire 1 f mef_1|jk_2|q~0_combout $end
$var wire 1 g start_stop~combout $end
$var wire 1 h estado_vedacao~combout $end
$var wire 1 i comb_85|gate_7|S~0_combout $end
$var wire 1 j contador_2_buffer_secundario_controle_rolhas|ff_1|q_bar~regout $end
$var wire 1 k contador_2_buffer_secundario_controle_rolhas|ff_2|q_bar~regout $end
$var wire 1 l contador_2_buffer_secundario_controle_rolhas|ff_3|q_bar~0_combout $end
$var wire 1 m contador_2_buffer_secundario_controle_rolhas|ff_3|q_bar~regout $end
$var wire 1 n contador_2_buffer_secundario_controle_rolhas|ff_2|q_bar~1_combout $end
$var wire 1 o contador_2_buffer_secundario_controle_rolhas|ff_4|q_bar~regout $end
$var wire 1 p WideAnd1~0_combout $end
$var wire 1 q contador_2_buffer_secundario_controle_rolhas|ff_5|q~regout $end
$var wire 1 r WideAnd1~combout $end
$var wire 1 s op_c_deboucing~combout $end
$var wire 1 t contador_entrada_rolhas|ff_1|q~regout $end
$var wire 1 u contador_entrada_rolhas|ff_2|q~regout $end
$var wire 1 v contador_entrada_rolhas|ff_3|q~regout $end
$var wire 1 w contador_entrada_rolhas|ff_4|q~regout $end
$var wire 1 x contador_entrada_rolhas|gate_3|S~combout $end
$var wire 1 y contador_entrada_rolhas|ff_5|q~regout $end
$var wire 1 z contador_entrada_rolhas|ff_6|q~regout $end
$var wire 1 { contador_1_buffer_secundario|ff_1|q~regout $end
$var wire 1 | enable_buffer_secundario~combout $end
$var wire 1 } contador_1_buffer_secundario|ff_1|q_bar~regout $end
$var wire 1 ~ contador_1_buffer_secundario|gate_3|S~0_combout $end
$var wire 1 !! contador_1_buffer_secundario|ff_2|q~regout $end
$var wire 1 "! contador_1_buffer_secundario|ff_2|q_bar~regout $end
$var wire 1 #! contador_1_buffer_secundario|gate_4|S~combout $end
$var wire 1 $! contador_1_buffer_secundario|ff_3|q~0_combout $end
$var wire 1 %! contador_1_buffer_secundario|ff_3|q~regout $end
$var wire 1 &! contador_1_buffer_secundario|ff_3|q_bar~regout $end
$var wire 1 '! contador_1_buffer_secundario|gate_8|S~combout $end
$var wire 1 (! contador_1_buffer_secundario|gate_10|S~0_combout $end
$var wire 1 )! contador_1_buffer_secundario|ff_4|q~0_combout $end
$var wire 1 *! contador_1_buffer_secundario|ff_4|q~regout $end
$var wire 1 +! contador_1_buffer_secundario|ff_4|q_bar~regout $end
$var wire 1 ,! contador_1_buffer_secundario|ff_5|q~0_combout $end
$var wire 1 -! contador_1_buffer_secundario|ff_5|q_bar~regout $end
$var wire 1 .! contador_1_buffer_secundario|gate_17|S~0_combout $end
$var wire 1 /! contador_1_buffer_secundario|ff_6|q~5_combout $end
$var wire 1 0! contador_1_buffer_secundario|ff_6|q~regout $end
$var wire 1 1! registrador_1|ff_2|q~regout $end
$var wire 1 2! registrador_1|ff_4|q~regout $end
$var wire 1 3! registrador_1|ff_5|q~regout $end
$var wire 1 4! comb_50|somador_subtrator_1|gate_8|WideAnd0 $end
$var wire 1 5! registrador_1|ff_6|q~regout $end
$var wire 1 6! registrador_2|ff_6|q~4COUT0_9 $end
$var wire 1 7! registrador_2|ff_6|q~4COUT1_10 $end
$var wire 1 8! registrador_2|ff_6|q~1 $end
$var wire 1 9! registrador_2|ff_6|q~1COUT1_11 $end
$var wire 1 :! registrador_2|ff_5|q~1 $end
$var wire 1 ;! registrador_2|ff_5|q~1COUT1_3 $end
$var wire 1 <! registrador_2|ff_4|q~1 $end
$var wire 1 =! registrador_1|ff_3|q~regout $end
$var wire 1 >! registrador_2|ff_3|q~1 $end
$var wire 1 ?! registrador_2|ff_3|q~1COUT1_3 $end
$var wire 1 @! registrador_2|ff_2|q~regout $end
$var wire 1 A! contador_1_buffer_secundario|ff_6|q_bar~regout $end
$var wire 1 B! contador_1_buffer_secundario|gate_15|S~0_combout $end
$var wire 1 C! contador_1_buffer_secundario|gate_19|S~combout $end
$var wire 1 D! contador_1_buffer_secundario|ff_7|q~regout $end
$var wire 1 E! registrador_1|ff_1|q~regout $end
$var wire 1 F! contador_entrada_rolhas|ff_7|q~regout $end
$var wire 1 G! registrador_2|ff_2|q~1 $end
$var wire 1 H! registrador_2|ff_2|q~1COUT1_3 $end
$var wire 1 I! registrador_2|ff_1|q~regout $end
$var wire 1 J! registrador_2|ff_5|q~regout $end
$var wire 1 K! registrador_2|ff_3|q~regout $end
$var wire 1 L! registrador_2|ff_4|q~regout $end
$var wire 1 M! load_aux[1]~0_combout $end
$var wire 1 N! op_deboucing~combout $end
$var wire 1 O! load_aux[1]~1_combout $end
$var wire 1 P! pulsador_2|ff_1|q~regout $end
$var wire 1 Q! pulsador_2|ff_1|nq~regout $end
$var wire 1 R! pulsador_2|Pulse~combout $end
$var wire 1 S! comb_86|gate_7|S~2_combout $end
$var wire 1 T! ff_2|q~regout $end
$var wire 1 U! comb_86|jk_1|q~regout $end
$var wire 1 V! registrador_1|ff_7|q~regout $end
$var wire 1 W! registrador_2|ff_7|q~regout $end
$var wire 1 X! contador_3_buffer_secundario_controle_operador|gate_33|comb~0_combout $end
$var wire 1 Y! contador_3_buffer_secundario_controle_operador|ff_1|q~0_combout $end
$var wire 1 Z! contador_3_buffer_secundario_controle_operador|ff_1|q_bar~regout $end
$var wire 1 [! contador_3_buffer_secundario_controle_operador|ff_2|q_bar~0_combout $end
$var wire 1 \! registrador_2|ff_6|q~regout $end
$var wire 1 ]! contador_3_buffer_secundario_controle_operador|gate_32|comb~0_combout $end
$var wire 1 ^! contador_3_buffer_secundario_controle_operador|ff_2|q~0_combout $end
$var wire 1 _! contador_3_buffer_secundario_controle_operador|ff_2|q_bar~regout $end
$var wire 1 `! contador_3_buffer_secundario_controle_operador|ff_3|q_bar~0_combout $end
$var wire 1 a! contador_3_buffer_secundario_controle_operador|gate_31|comb~0_combout $end
$var wire 1 b! contador_3_buffer_secundario_controle_operador|ff_3|q~0_combout $end
$var wire 1 c! contador_3_buffer_secundario_controle_operador|ff_3|q_bar~regout $end
$var wire 1 d! contador_3_buffer_secundario_controle_operador|ff_4|q_bar~0_combout $end
$var wire 1 e! contador_3_buffer_secundario_controle_operador|gate_30|comb~0_combout $end
$var wire 1 f! contador_3_buffer_secundario_controle_operador|ff_4|q~0_combout $end
$var wire 1 g! contador_3_buffer_secundario_controle_operador|ff_4|q_bar~regout $end
$var wire 1 h! contador_3_buffer_secundario_controle_operador|gate_29|comb~0_combout $end
$var wire 1 i! contador_3_buffer_secundario_controle_operador|ff_5|q~0_combout $end
$var wire 1 j! contador_3_buffer_secundario_controle_operador|ff_5|q_bar~regout $end
$var wire 1 k! contador_3_buffer_secundario_controle_operador|ff_6|q_bar~2_combout $end
$var wire 1 l! contador_3_buffer_secundario_controle_operador|gate_28|comb~0_combout $end
$var wire 1 m! contador_3_buffer_secundario_controle_operador|ff_6|q~0_combout $end
$var wire 1 n! contador_3_buffer_secundario_controle_operador|ff_6|q_bar~regout $end
$var wire 1 o! WideAnd2~0_combout $end
$var wire 1 p! contador_3_buffer_secundario_controle_operador|gate_27|comb~0_combout $end
$var wire 1 q! comb_86|gate_7|S~1_combout $end
$var wire 1 r! contador_3_buffer_secundario_controle_operador|ff_7|q~regout $end
$var wire 1 s! WideAnd2~1_combout $end
$var wire 1 t! WideAnd2~combout $end
$var wire 1 u! comb_86|jk_2|q~regout $end
$var wire 1 v! comb_86|gate_7|S~0_combout $end
$var wire 1 w! contador_1_buffer_secundario|ff_5|q~regout $end
$var wire 1 x! contador_4_buffer_principal|ff_2|q~2_combout $end
$var wire 1 y! contador_4_buffer_principal|ff_2|q~regout $end
$var wire 1 z! contador_4_buffer_principal|ff_2|q_bar~regout $end
$var wire 1 {! contador_4_buffer_principal|ff_3|q_bar~regout $end
$var wire 1 |! contador_4_buffer_principal|ff_4|q~1_combout $end
$var wire 1 }! contador_4_buffer_principal|ff_4|q~0_combout $end
$var wire 1 ~! contador_4_buffer_principal|ff_4|q~2_combout $end
$var wire 1 !" contador_4_buffer_principal|ff_4|q~regout $end
$var wire 1 "" contador_4_buffer_principal|ff_4|q_bar~regout $end
$var wire 1 #" contador_4_buffer_principal|ff_5|q~0_combout $end
$var wire 1 $" contador_4_buffer_principal|ff_5|q~regout $end
$var wire 1 %" WideAnd0~0_combout $end
$var wire 1 &" WideAnd0~1_combout $end
$var wire 1 '" WideAnd0~2 $end
$var wire 1 (" pulsador_1|ff_1|q~regout $end
$var wire 1 )" pulsador_1|ff_1|nq~regout $end
$var wire 1 *" pulsador_1|Pulse~combout $end
$var wire 1 +" comb_85|gate_7|S~1_combout $end
$var wire 1 ," ff_1|q~regout $end
$var wire 1 -" comb_85|jk_1|q~regout $end
$var wire 1 ." comb_85|jk_2|q~regout $end
$var wire 1 /" WideAnd3~combout $end
$var wire 1 0" contador_4_buffer_principal|ff_1|q_bar~regout $end
$var wire 1 1" contador_4_buffer_principal|ff_3|q~0_combout $end
$var wire 1 2" contador_4_buffer_principal|ff_3|q~1_combout $end
$var wire 1 3" contador_4_buffer_principal|ff_3|q~2_combout $end
$var wire 1 4" contador_4_buffer_principal|ff_3|q~regout $end
$var wire 1 5" m_aus_rolhas|gate_1|WideOr0~combout $end
$var wire 1 6" mef_1|jk_2|q~1_combout $end
$var wire 1 7" mef_1|jk_2|q~regout $end
$var wire 1 8" mef_1|jk_1|q~regout $end
$var wire 1 9" mef_1|gate_10|WideAnd0~combout $end
$var wire 1 :" contador_duzias|ff_1|q~regout $end
$var wire 1 ;" contador_duzias|ff_2|q~regout $end
$var wire 1 <" contador_duzias|ff_3|q~regout $end
$var wire 1 =" contador_duzias|ff_4|q~regout $end
$var wire 1 >" reset_1|gate_1|S~combout $end
$var wire 1 ?" mef_1|gate_11|WideAnd0~combout $end
$var wire 1 @" mef_1|gate_9|WideAnd0~combout $end
$var wire 1 A" mef_1|gate_8|S~0_combout $end
$var wire 1 B" mef_1|gate_8|S~1_combout $end
$var wire 1 C" gate_2|S~combout $end
$var wire 1 D" contador_dezenas_duzias|ff_1|q~regout $end
$var wire 1 E" contador_dezenas_duzias|ff_2|q~regout $end
$var wire 1 F" contador_dezenas_duzias|ff_3|q~regout $end
$var wire 1 G" contador_dezenas_duzias|ff_4|q~regout $end
$var wire 1 H" mux_38|gate_5|WideOr0~1_combout $end
$var wire 1 I" contador_display|ff_1|q~regout $end
$var wire 1 J" contador_display|ff_2|q~regout $end
$var wire 1 K" mux_38|gate_3|WideAnd0~0_combout $end
$var wire 1 L" mux_38|gate_3|WideAnd0~1_combout $end
$var wire 1 M" mux_38|gate_4|WideAnd0~4_combout $end
$var wire 1 N" mux_38|gate_4|WideAnd0~0_combout $end
$var wire 1 O" mux_38|gate_4|WideAnd0~5_combout $end
$var wire 1 P" mux_38|gate_4|WideAnd0~2_combout $end
$var wire 1 Q" mux_38|gate_4|WideAnd0~3_combout $end
$var wire 1 R" mux_38|gate_4|WideAnd0~6_combout $end
$var wire 1 S" mux_38|gate_3|WideAnd0~2_combout $end
$var wire 1 T" mux_38|gate_5|WideOr0~0_combout $end
$var wire 1 U" mux_38|gate_5|WideOr0~2_combout $end
$var wire 1 V" mux_37|gate_4|WideAnd0~4_combout $end
$var wire 1 W" mux_37|gate_4|WideAnd0~3_combout $end
$var wire 1 X" mux_37|gate_4|WideAnd0~5_combout $end
$var wire 1 Y" demux_1|gate_3|WideAnd0~0_combout $end
$var wire 1 Z" mux_37|gate_4|WideAnd0~1_combout $end
$var wire 1 [" mux_37|gate_4|WideAnd0~0_combout $end
$var wire 1 \" mux_37|gate_4|WideAnd0~2_combout $end
$var wire 1 ]" mux_37|gate_5|WideOr0~0_combout $end
$var wire 1 ^" mux_37|gate_5|WideOr0~1_combout $end
$var wire 1 _" mux_37|gate_5|WideOr0~2_combout $end
$var wire 1 `" codificador_garrafas_2|gate_1|S~0_combout $end
$var wire 1 a" mux_39|gate_3|WideAnd0~1_combout $end
$var wire 1 b" mux_38|gate_4|WideAnd0~1_combout $end
$var wire 1 c" mux_39|gate_3|WideAnd0~0_combout $end
$var wire 1 d" mux_39|gate_3|WideAnd0~3_combout $end
$var wire 1 e" mux_39|gate_3|WideAnd0~2_combout $end
$var wire 1 f" mux_36|gate_4|WideAnd0~7_combout $end
$var wire 1 g" mux_39|gate_3|WideAnd0~4_combout $end
$var wire 1 h" mux_39|gate_5|WideOr0~0_combout $end
$var wire 1 i" mux_39|gate_5|WideOr0~1_combout $end
$var wire 1 j" mux_36|gate_4|WideAnd0~3_combout $end
$var wire 1 k" mux_36|gate_4|WideAnd0~4_combout $end
$var wire 1 l" mux_36|gate_4|WideAnd0~11_combout $end
$var wire 1 m" mux_36|gate_5|WideOr0~1_combout $end
$var wire 1 n" mux_36|gate_4|WideAnd0~8_combout $end
$var wire 1 o" mux_36|gate_4|WideAnd0~9_combout $end
$var wire 1 p" mux_36|gate_4|WideAnd0~10_combout $end
$var wire 1 q" mux_36|gate_5|WideOr0~2_combout $end
$var wire 1 r" mux_36|gate_5|WideOr0~0_combout $end
$var wire 1 s" mux_36|gate_5|WideOr0~3_combout $end
$var wire 1 t" bcd_1|gate_23|WideOr0~combout $end
$var wire 1 u" bcd_1|gate_19|WideOr0~0_combout $end
$var wire 1 v" bcd_1|gate_15|S~0_combout $end
$var wire 1 w" bcd_1|gate_12|WideOr0~0_combout $end
$var wire 1 x" bcd_1|gate_7|WideOr0~combout $end
$var wire 1 y" bcd_1|gate_6|WideOr0~combout $end
$var wire 1 z" bcd_1|gate_3|WideOr0~combout $end
$var wire 1 {" demux_1|gate_3|WideAnd0~1_combout $end
$var wire 1 |" demux_1|gate_3|WideAnd0~2_combout $end
$var wire 1 }" demux_1|gate_1|WideAnd0~combout $end
$upscope $end
$upscope $end
$enddefinitions $end
#0
$dumpvars
1!
1"
0#
1$
1%
1&
0'
1+
1*
1)
0(
1,
04
13
02
01
00
0/
0.
0-
05
16
07
09
08
0>
0=
0<
0;
0:
0E
0D
0C
0B
0A
0@
0?
0J
0I
0H
0G
0F
0O
0N
0M
0L
0K
0V
0U
0T
0S
0R
0Q
0P
0W
0X
1Y
xZ
1[
1\
1]
0^
1_
1`
0a
0b
0c
0d
1e
0f
0g
0h
0i
0j
0k
1l
0m
0n
0o
1p
0q
0r
1s
0t
0u
0v
0w
0x
0y
0z
0{
0|
0}
1~
0!!
0"!
0#!
0$!
0%!
0&!
1'!
0(!
0)!
0*!
0+!
0,!
0-!
0.!
0/!
00!
01!
02!
03!
04!
05!
06!
07!
18!
19!
0:!
0;!
1<!
0=!
0>!
0?!
0@!
0A!
1B!
1C!
0D!
0E!
0F!
1G!
1H!
0I!
0J!
0K!
0L!
0M!
1N!
1O!
0P!
0Q!
0R!
0S!
0T!
0U!
0V!
0W!
0X!
0Y!
0Z!
1[!
0\!
0]!
0^!
0_!
1`!
0a!
0b!
0c!
0d!
0e!
0f!
0g!
0h!
0i!
0j!
1k!
0l!
0m!
0n!
1o!
0p!
0q!
0r!
1s!
0t!
0u!
0v!
0w!
0x!
0y!
0z!
0{!
0|!
0}!
0~!
0!"
0""
0#"
0$"
1%"
0&"
0'"
0("
0)"
0*"
0+"
0,"
0-"
0."
0/"
00"
01"
02"
03"
04"
05"
16"
07"
08"
09"
0:"
0;"
0<"
0="
0>"
0?"
0@"
1A"
1B"
0C"
0D"
0E"
0F"
0G"
0H"
0I"
0J"
0K"
0L"
1M"
0N"
0O"
0P"
0Q"
0R"
0S"
0T"
0U"
0V"
0W"
0X"
0Y"
1Z"
0["
0\"
0]"
0^"
0_"
0`"
0a"
0b"
0c"
0d"
0e"
1f"
0g"
0h"
0i"
0j"
0k"
0l"
0m"
0n"
0o"
0p"
0q"
0r"
0s"
0t"
1u"
1v"
1w"
1x"
1y"
1z"
0{"
0|"
0}"
$end
#10000
0"
0$
0`
0s
1a
#20000
1"
1$
1`
1s
1t
#30000
0"
0$
0`
0s
0a
1b
#40000
1"
1$
1`
1s
1u
0t
#50000
0"
0$
0`
0s
1a
#60000
1"
1$
1`
1s
1t
#70000
0"
0$
0`
0s
0a
0b
1c
1)"
1Q!
#80000
1"
1$
1`
1s
1v
0u
0t
#90000
0"
0$
0`
0s
1a
#100000
1"
1$
1`
1s
1t
#110000
0"
0$
0`
0s
0a
1b
#120000
1"
1$
1`
1s
1u
0t
#130000
0"
0$
0`
0s
1a
#140000
1"
1$
1`
1s
1t
#150000
0"
0$
0`
0s
0a
0b
0c
1I"
1}"
1|"
1(
0)
#160000
1"
1$
1`
1s
1w
0v
0u
0t
#170000
0"
0$
0`
0s
1a
#180000
1"
1$
1`
1s
1t
#190000
0"
0$
0`
0s
0a
1b
#200000
1"
1$
1`
1s
1u
0t
#210000
0"
0$
0`
0s
1a
#220000
1"
1$
1`
1s
1t
#230000
0"
0$
0`
0s
0a
0b
1c
#240000
1"
1$
1`
1s
1v
0u
0t
#250000
0"
0$
0`
0s
1a
#260000
1"
1$
1`
1s
1t
#270000
0"
0$
0`
0s
0a
1b
#280000
1"
1$
1`
1s
1u
0t
#290000
0"
0$
0`
0s
1a
#300000
1"
1$
1`
1s
1t
1x
#310000
0"
0$
0`
0s
0a
0b
0c
1J"
0I"
0|"
1{"
0*
1)
#320000
1"
1$
1`
1s
1y
0w
0v
0u
0t
1>!
0x
#330000
0"
0$
0`
0s
1a
#340000
1"
1$
1`
1s
1t
#350000
0"
0$
0`
0s
0a
1b
#360000
1"
1$
1`
1s
1u
0t
#370000
0"
0$
0`
0s
1a
#380000
1"
1$
1`
1s
1t
#390000
0"
0$
0`
0s
0a
0b
1c
#400000
1"
1`
#410000
0"
0`
1a
#420000
1"
1`
#430000
0"
0`
0a
1b
#440000
1"
1`
#450000
0"
0`
1a
#460000
1"
1`
#470000
0"
0`
0a
0b
0c
1I"
0{"
1h"
1Y"
0+
1*
#480000
1$
1"
1s
1`
1v
0u
0t
#490000
0"
0`
1a
#500000
1"
1`
#510000
0"
0`
0a
1b
#520000
1"
1`
#530000
0"
0`
1a
#540000
1"
1`
#550000
0"
0`
0a
0b
1c
#560000
0$
1"
0s
1`
#570000
0"
0`
1a
#580000
1"
1`
#590000
0"
0`
0a
1b
#600000
1"
1`
#610000
0"
0`
1a
#620000
1"
1`
#630000
0"
0`
0a
0b
0c
0J"
0I"
0}"
0h"
0Y"
1i"
0i"
0z"
0w"
0v"
0u"
0(
1+
1z"
1w"
1v"
1u"
12
11
10
1-
02
01
00
0-
#640000
0%
1"
0N!
1`
0O!
1R!
1T!
1K!
1J!
0'!
1$!
0~
1M!
0B!
1/!
1,!
1)!
0C!
#650000
0"
0`
1a
#660000
1"
1`
#670000
0"
0`
0a
1b
#680000
1"
1`
#690000
0"
0`
1a
#700000
1"
1`
#710000
0"
0`
0a
0b
1c
1P!
#720000
1%
1"
1N!
1`
1O!
0R!
#730000
0"
0`
1a
#740000
1"
1`
#750000
0"
0`
0a
1b
#760000
1"
1`
#770000
0"
0`
1a
#780000
1"
1`
#790000
0"
0`
0a
0b
0c
1I"
1u!
1}"
1|"
1q!
1p!
1l!
1i!
1e!
1b!
1]!
1X!
1(
0)
1j!
1c!
0o!
0s!
0`!
1R
1T
#800000
1"
1`
#810000
0"
0`
1a
#820000
1"
1`
#830000
0"
0`
0a
1b
#840000
1"
1`
#850000
0"
0`
1a
#860000
1"
1`
#870000
0"
0`
0a
0b
1c
0Q!
0P!
#880000
1"
1`
#890000
0"
0`
1a
#900000
1"
1`
#910000
0"
0`
0a
1b
#920000
1"
1`
#930000
0"
0`
1a
#940000
1"
1`
#950000
0"
0`
0a
0b
0c
1J"
0I"
0u!
1U!
0|"
1{"
1v!
0q!
0p!
0l!
0i!
0e!
0b!
0]!
0[!
0X!
1`!
1|
0*
1)
#960000
1"
1`
#970000
0"
0`
1a
#980000
1"
1`
#990000
0"
0`
0a
1b
#1000000
1"
1`
#1010000
0"
0`
1a
#1020000
1"
1`
#1030000
0"
0`
0a
0b
1c
1Q!
#1040000
1"
1`
#1050000
0"
0`
1a
#1060000
1"
1`
#1070000
0"
0`
0a
1b
#1080000
1"
1`
#1090000
0"
0`
1a
#1100000
1"
1`
#1110000
0"
0`
0a
0b
0c
1I"
0c!
1_!
1Z!
1}
1{
0{"
1h"
1Y"
1s!
1~
0T
1U
1V
1J
1E
1i"
0+
1*
0z"
0w"
0v"
0u"
12
11
10
1-
#1120000
1"
1`
#1130000
0"
0`
1a
#1140000
1"
1`
#1150000
0"
0`
0a
1b
#1160000
1"
1`
#1170000
0"
0`
1a
#1180000
1"
1`
#1190000
0"
0`
0a
0b
1c
#1200000
1"
1`
#1210000
0"
0`
1a
#1220000
1"
1`
#1230000
0"
0`
0a
1b
#1240000
1"
1`
#1250000
0"
0`
1a
#1260000
1"
1`
#1270000
0"
0`
0a
0b
0c
0J"
0I"
0Z!
1"!
1!!
0}
0{
0}"
0h"
0Y"
1[!
1Q"
0M"
0~
0V
1I
1D
0J
0E
0i"
1R"
0(
1+
1z"
1w"
1v"
1u"
02
01
00
0-
#1280000
1"
1`
#1290000
0"
0`
1a
#1300000
1"
1`
#1310000
0"
0`
0a
1b
#1320000
1"
1`
#1330000
0"
0`
1a
#1340000
1"
1`
#1350000
0"
0`
0a
0b
1c
#1360000
1"
1`
#1370000
0"
0`
1a
#1380000
1"
1`
#1390000
0"
0`
0a
1b
#1400000
1"
1`
#1410000
0"
0`
1a
#1420000
1"
1`
#1430000
0"
0`
0a
0b
0c
1I"
0_!
1Z!
1}
1{
1}"
1|"
1T"
1~
1#!
0U
1V
1J
1E
0$!
1(
0)
#1440000
1"
1`
#1450000
0"
0`
1a
#1460000
1"
1`
#1470000
0"
0`
0a
1b
#1480000
1"
1`
#1490000
0"
0`
1a
#1500000
1"
1`
#1510000
0"
0`
0a
0b
1c
#1520000
1"
1`
#1530000
0"
0`
1a
#1540000
1"
1`
#1550000
0"
0`
0a
1b
#1560000
1"
1`
#1570000
0"
0`
1a
#1580000
1"
1`
#1590000
0"
0`
0a
0b
0c
1J"
0I"
0Z!
1&!
1%!
0"!
0!!
0}
0{
0|"
1{"
1U"
0T"
1d!
0`!
0[!
1b"
1\"
1&"
0Q"
1M"
0#!
0~
0V
1H
1C
0I
0D
0J
0E
0x"
0u"
1t"
0U"
0R"
1$!
0*
1)
1x"
1u"
0t"
03
12
1/
13
02
0/
#1600000
1"
1`
#1610000
0"
0`
1a
#1620000
1"
1`
#1630000
0"
0`
0a
1b
#1640000
1"
1`
#1650000
0"
0`
1a
#1660000
1"
1`
#1670000
0"
0`
0a
0b
1c
#1680000
1"
1`
#1690000
0"
0`
1a
#1700000
1"
1`
#1710000
0"
0`
0a
1b
#1720000
1"
1`
#1730000
0"
0`
1a
#1740000
1"
1`
#1750000
0"
0`
0a
0b
0c
1I"
0j!
1g!
1c!
1_!
1Z!
1}
1{
0{"
1h"
1Y"
0s!
0d!
1~
0R
1S
1T
1U
1V
1J
1E
1i"
1_"
0+
1*
0y"
0v"
1t"
03
11
1.
#1760000
1"
1`
#1770000
0"
0`
1a
#1780000
1"
1`
#1790000
0"
0`
0a
1b
#1800000
1"
1`
#1810000
0"
0`
1a
#1820000
1"
1`
#1830000
0"
0`
0a
0b
1c
#1840000
1"
1`
#1850000
0"
0`
1a
#1860000
1"
1`
#1870000
0"
0`
0a
1b
#1880000
1"
1`
#1890000
0"
0`
1a
#1900000
1"
1`
#1910000
0"
0`
0a
0b
0c
0J"
0I"
0Z!
1"!
1!!
0}
0{
0}"
0h"
0Y"
1[!
1Q"
0M"
0~
0V
1I
1D
0J
0E
0i"
0_"
1R"
0(
1+
1y"
1v"
0t"
13
01
0.
#1920000
1"
1`
#1930000
0"
0`
1a
#1940000
1"
1`
#1950000
0"
0`
0a
1b
#1960000
1"
1`
#1970000
0"
0`
1a
#1980000
1"
1`
#1990000
0"
0`
0a
0b
1c
#2000000
1"
1`
#2010000
0"
0`
1a
#2020000
1"
1`
#2030000
0"
0`
0a
1b
#2040000
1"
1`
#2050000
0"
0`
1a
#2060000
1"
1`
#2070000
0"
0`
0a
0b
0c
1I"
0_!
1Z!
1}
1{
1}"
1|"
1T"
1~
1(!
1#!
0U
1V
1J
1E
0)!
0$!
1(
0)
#2080000
1"
1`
#2090000
0"
0`
1a
#2100000
1"
1`
#2110000
0"
0`
0a
1b
#2120000
1"
1`
#2130000
0"
0`
1a
#2140000
1"
1`
#2150000
0"
0`
0a
0b
1c
#2160000
1"
1`
#2170000
0"
0`
1a
#2180000
1"
1`
#2190000
0"
0`
0a
1b
#2200000
1"
1`
#2210000
0"
0`
1a
#2220000
1"
1`
#2230000
0"
0`
0a
0b
0c
1J"
0I"
0Z!
1+!
1*!
0&!
0%!
0"!
0!!
0}
0{
0|"
1{"
1U"
0T"
1`!
0[!
0,!
1j"
0f"
1c"
0Z"
0Q"
0b"
0\"
0(!
0#!
0~
0V
1G
1B
0H
0C
0I
0D
0J
0E
0x"
0u"
1t"
0U"
1l"
0R"
1,!
1)!
1$!
0*
1)
1x"
1u"
0t"
1q"
03
12
1/
13
02
0/
#2240000
1"
1`
#2250000
0"
0`
1a
#2260000
1"
1`
#2270000
0"
0`
0a
1b
#2280000
1"
1`
#2290000
0"
0`
1a
#2300000
1"
1`
#2310000
0"
0`
0a
0b
1c
#2320000
1"
1`
#2330000
0"
0`
1a
#2340000
1"
1`
#2350000
0"
0`
0a
1b
#2360000
1"
1`
#2370000
0"
0`
1a
#2380000
1"
1`
#2390000
0"
0`
0a
0b
0c
1I"
0c!
1_!
1Z!
1}
1{
0{"
1s"
1h"
1Y"
1s!
1~
0T
1U
1V
1J
1E
1t"
1i"
0+
1*
0v"
03
11
#2400000
1"
1`
#2410000
0"
0`
1a
#2420000
1"
1`
#2430000
0"
0`
0a
1b
#2440000
1"
1`
#2450000
0"
0`
1a
#2460000
1"
1`
#2470000
0"
0`
0a
0b
1c
#2480000
1"
1`
#2490000
0"
0`
1a
#2500000
1"
1`
#2510000
0"
0`
0a
1b
#2520000
1"
1`
#2530000
0"
0`
1a
#2540000
1"
1`
#2550000
0"
0`
0a
0b
0c
0J"
0I"
0Z!
1"!
1!!
0}
0{
0}"
0q"
0h"
0Y"
0s"
1[!
0l"
0c"
1a"
1Z"
1M"
0~
0V
1I
1D
0J
0E
0i"
0z"
0w"
0u"
0t"
1e"
0(
1+
1z"
1w"
1v"
1u"
1g"
13
12
10
1-
02
01
00
0-
#2560000
1"
1`
#2570000
0"
0`
1a
