simulation/qsim/MI-CircuitosDigitais-Problema-3.msim.vcd
$comment
	File created using the following command:
		vcd file MI-CircuitosDigitais-Problema-3.msim.vcd -direction
$end
$date
	Sat Feb 10 14:14:52 2024
$end
$version
	ModelSim Version 10.5b
$end
$timescale
	1ps
$end

$scope module modulo_contador_sync_7_bits_ascendente_descendente_vlg_vec_tst $end
$var reg 1 ! clk $end
$var reg 1 " clr $end
$var reg 1 # enable $end
$var reg 1 $ prst $end
$var reg 1 % up_down $end
$var wire 1 & q [6] $end
$var wire 1 ' q [5] $end
$var wire 1 ( q [4] $end
$var wire 1 ) q [3] $end
$var wire 1 * q [2] $end
$var wire 1 + q [1] $end
$var wire 1 , q [0] $end

$scope module i1 $end
$var wire 1 - gnd $end
$var wire 1 . vcc $end
$var wire 1 / unknown $end
$var tri1 1 0 devclrn $end
$var tri1 1 1 devpor $end
$var tri1 1 2 devoe $end
$var wire 1 3 clk~combout $end
$var wire 1 4 clr~combout $end
$var wire 1 5 enable~combout $end
$var wire 1 6 ff_1|q~0_combout $end
$var wire 1 7 prst~combout $end
$var wire 1 8 ff_1|q~1_combout $end
$var wire 1 9 ff_1|q~regout $end
$var wire 1 : ff_2|q~1_combout $end
$var wire 1 ; ff_1|q_bar~0_combout $end
$var wire 1 < ff_1|q_bar~regout $end
$var wire 1 = up_down~combout $end
$var wire 1 > ff_2|q~0_combout $end
$var wire 1 ? ff_2|q~regout $end
$var wire 1 @ ff_3|q~2_combout $end
$var wire 1 A ff_2|q_bar~0_combout $end
$var wire 1 B ff_2|q_bar~regout $end
$var wire 1 C ff_2|q~2_combout $end
$var wire 1 D ff_3|q~0_combout $end
$var wire 1 E ff_3|q~1_combout $end
$var wire 1 F ff_3|q~regout $end
$var wire 1 G ff_4|q~2_combout $end
$var wire 1 H ff_3|q_bar~0_combout $end
$var wire 1 I ff_3|q_bar~regout $end
$var wire 1 J ff_4|q~0_combout $end
$var wire 1 K ff_4|q~1_combout $end
$var wire 1 L ff_4|q~regout $end
$var wire 1 M ff_5|q~2_combout $end
$var wire 1 N ff_4|q_bar~0_combout $end
$var wire 1 O ff_4|q_bar~regout $end
$var wire 1 P ff_5|q~0_combout $end
$var wire 1 Q ff_5|q~1_combout $end
$var wire 1 R ff_5|q~regout $end
$var wire 1 S ff_6|q~2_combout $end
$var wire 1 T ff_5|q_bar~0_combout $end
$var wire 1 U ff_5|q_bar~regout $end
$var wire 1 V ff_6|q~0_combout $end
$var wire 1 W ff_6|q~1_combout $end
$var wire 1 X ff_6|q~regout $end
$var wire 1 Y ff_6|q_bar~0_combout $end
$var wire 1 Z ff_6|q_bar~regout $end
$var wire 1 [ ff_7|q~2_combout $end
$var wire 1 \ ff_7|q~0_combout $end
$var wire 1 ] ff_7|q~regout $end
$upscope $end
$upscope $end
$enddefinitions $end
#0
$dumpvars
0!
0"
1#
0$
0%
0,
0+
0*
0)
0(
0'
0&
0-
1.
x/
10
11
12
03
04
15
16
07
08
09
1:
1;
0<
0=
1>
0?
1@
1A
0B
1C
0D
1E
0F
1G
1H
0I
1J
1K
0L
1M
1N
0O
0P
1Q
0R
1S
1T
0U
1V
1W
0X
1Y
0Z
1[
0\
0]
$end
#10000
1!
13
#20000
0!
03
1]
1Z
1X
1U
1R
1O
1L
1I
1F
1B
1?
1<
19
0V
0Q
0J
0E
0C
0>
1&
1'
1(
1)
1*
1+
1,
0W
0K
#30000
1!
13
#40000
0!
03
0<
09
1C
1>
0,
#50000
1!
13
#60000
0!
03
0B
0?
1<
19
1E
0C
0>
0+
1,
0E
#70000
1!
13
#80000
0!
03
0<
09
1C
1>
0,
1E
#90000
1!
13
#100000
0!
03
0I
0F
1B
1?
1<
19
0E
0C
0>
0*
1+
1,
#110000
1!
13
#120000
0!
03
0<
09
1C
1>
0,
#130000
1!
13
#140000
0!
03
0B
0?
1<
19
1E
0C
0>
0+
1,
0E
#150000
1!
13
#160000
0!
03
0<
09
1J
1C
1>
0,
1K
1E
#170000
1!
13
#180000
0!
03
0O
0L
1I
1F
1B
1?
1<
19
1Q
0J
0E
0C
0>
0)
1*
1+
1,
0Q
0K
#190000
1!
13
#200000
0!
03
0<
09
1C
1>
0,
#210000
1!
13
#220000
0!
03
0B
0?
1<
19
1E
0C
0>
0+
1,
0E
#230000
1!
13
#240000
0!
03
0<
09
1C
1>
0,
1E
#250000
1!
13
#260000
0!
03
0I
0F
1B
1?
1<
19
0E
0C
0>
0*
1+
1,
#270000
1!
13
#280000
0!
03
0<
09
1C
1>
0,
#290000
1!
13
#300000
0!
03
0B
0?
1<
19
1E
0C
0>
0+
1,
0E
#310000
1!
13
#320000
0!
03
0<
09
1J
1C
1>
0,
1Q
1K
1E
#330000
1!
13
#340000
0!
03
0U
0R
1O
1L
1I
1F
1B
1?
1<
19
0Q
0J
0E
0C
0>
0(
1)
1*
1+
1,
0K
#350000
1!
13
#360000
0!
03
0<
09
1C
1>
0,
#370000
1!
13
#380000
0!
03
0B
0?
1<
19
1E
0C
0>
0+
1,
0E
#390000
1!
13
#400000
0!
03
0<
09
1C
1>
0,
1E
#410000
1!
13
#420000
0!
03
0I
0F
1B
1?
1<
19
0E
0C
0>
0*
1+
1,
#430000
1!
13
#440000
0!
03
0<
09
1C
1>
0,
#450000
1!
13
#460000
0!
03
0B
0?
1<
19
1E
0C
0>
0+
1,
0E
#470000
1!
13
#480000
0!
03
0<
09
1J
1C
1>
0,
1K
1E
#490000
1!
13
#500000
0!
03
0O
0L
1I
1F
1B
1?
1<
19
1V
1Q
0J
0E
0C
0>
0)
1*
1+
1,
1W
0V
0Q
0K
0W
#510000
1!
13
#520000
0!
03
0<
09
1C
1>
0,
#530000
1!
13
#540000
0!
03
0B
0?
1<
19
1E
0C
0>
0+
1,
0E
#550000
1!
13
#560000
0!
03
0<
09
1C
1>
0,
1E
#570000
1!
13
#580000
0!
03
0I
0F
1B
1?
1<
19
0E
0C
0>
0*
1+
1,
#590000
1!
13
#600000
0!
03
0<
09
1C
1>
0,
#610000
1!
13
#620000
0!
03
0B
0?
1<
19
1E
0C
0>
0+
1,
0E
#630000
1!
13
#640000
0!
03
0<
09
1J
1C
1>
0,
1V
1Q
1K
1E
1W
#650000
1!
13
#660000
0!
03
0Z
0X
1U
1R
1O
1L
1I
1F
1B
1?
1<
19
0V
0Q
0J
0E
0C
0>
0'
1(
1)
1*
1+
1,
0W
0K
#670000
1!
13
#680000
0!
03
0<
09
1C
1>
0,
#690000
1!
13
#700000
0!
03
0B
0?
1<
19
1E
0C
0>
0+
1,
0E
#710000
1!
13
#720000
0!
03
0<
09
1C
1>
0,
1E
#730000
1!
13
#740000
0!
03
0I
0F
1B
1?
1<
19
0E
0C
0>
0*
1+
1,
#750000
1!
13
#760000
0!
03
0<
09
1C
1>
0,
#770000
1!
13
#780000
0!
03
0B
0?
1<
19
1E
0C
0>
0+
1,
0E
#790000
1!
13
#800000
0!
03
0<
09
1J
1C
1>
0,
1K
1E
#810000
1!
13
#820000
0!
03
0O
0L
1I
1F
1B
1?
1<
19
1Q
0J
0E
0C
0>
0)
1*
1+
1,
0Q
0K
#830000
1!
13
#840000
0!
03
0<
09
1C
1>
0,
#850000
1!
13
#860000
0!
03
0B
0?
1<
19
1E
0C
0>
0+
1,
0E
#870000
1!
13
#880000
0!
03
0<
09
1C
1>
0,
1E
#890000
1!
13
#900000
0!
03
0I
0F
1B
1?
1<
19
0E
0C
0>
0*
1+
1,
#910000
1!
13
#920000
0!
03
0<
09
1C
1>
0,
#930000
1!
13
#940000
0!
03
0B
0?
1<
19
1E
0C
0>
0+
1,
0E
#950000
1!
13
#960000
0!
03
0<
09
1J
1C
1>
0,
1Q
1K
1E
#970000
1!
13
#980000
0!
03
0U
0R
1O
1L
1I
1F
1B
1?
1<
19
0Q
0J
0E
0C
0>
0(
1)
1*
1+
1,
0K
#990000
1!
13
