simulation/qsim/MI-CircuitosDigitais-Problema-3.msim.vcd
$comment
	File created using the following command:
		vcd file MI-CircuitosDigitais-Problema-3.msim.vcd -direction
$end
$date
	Sat Feb 17 20:35:52 2024
$end
$version
	ModelSim Version 10.5b
$end
$timescale
	1ps
$end

$scope module pbl_vlg_vec_tst $end
$var reg 1 ! ch $end
$var reg 1 " clock_50mhz $end
$var reg 1 # cq $end
$var reg 1 $ hh_load $end
$var reg 1 % op_c_deboucing $end
$var reg 1 & op_deboucing $end
$var reg 1 ' pg $end
$var reg 1 ( start_stop $end
$var wire 1 ) Nac_7segmentos [3] $end
$var wire 1 * Nac_7segmentos [2] $end
$var wire 1 + Nac_7segmentos [1] $end
$var wire 1 , Nac_7segmentos [0] $end
$var wire 1 - Nal $end
$var wire 1 . Nout_7seg [7] $end
$var wire 1 / Nout_7seg [6] $end
$var wire 1 0 Nout_7seg [5] $end
$var wire 1 1 Nout_7seg [4] $end
$var wire 1 2 Nout_7seg [3] $end
$var wire 1 3 Nout_7seg [2] $end
$var wire 1 4 Nout_7seg [1] $end
$var wire 1 5 Nout_7seg [0] $end
$var wire 1 6 al $end
$var wire 1 7 ev $end
$var wire 1 8 m $end
$var wire 1 9 mef_estado [1] $end
$var wire 1 : mef_estado [0] $end
$var wire 1 ; test_Ncontador_mef_controle_state_operador $end
$var wire 1 < test_buffer_principal [4] $end
$var wire 1 = test_buffer_principal [3] $end
$var wire 1 > test_buffer_principal [2] $end
$var wire 1 ? test_buffer_principal [1] $end
$var wire 1 @ test_buffer_principal [0] $end
$var wire 1 A test_buffer_secundario [6] $end
$var wire 1 B test_buffer_secundario [5] $end
$var wire 1 C test_buffer_secundario [4] $end
$var wire 1 D test_buffer_secundario [3] $end
$var wire 1 E test_buffer_secundario [2] $end
$var wire 1 F test_buffer_secundario [1] $end
$var wire 1 G test_buffer_secundario [0] $end
$var wire 1 H test_buffer_secundario_controle_min_rolhas [4] $end
$var wire 1 I test_buffer_secundario_controle_min_rolhas [3] $end
$var wire 1 J test_buffer_secundario_controle_min_rolhas [2] $end
$var wire 1 K test_buffer_secundario_controle_min_rolhas [1] $end
$var wire 1 L test_buffer_secundario_controle_min_rolhas [0] $end
$var wire 1 M test_buffer_secundario_controle_operador [6] $end
$var wire 1 N test_buffer_secundario_controle_operador [5] $end
$var wire 1 O test_buffer_secundario_controle_operador [4] $end
$var wire 1 P test_buffer_secundario_controle_operador [3] $end
$var wire 1 Q test_buffer_secundario_controle_operador [2] $end
$var wire 1 R test_buffer_secundario_controle_operador [1] $end
$var wire 1 S test_buffer_secundario_controle_operador [0] $end
$var wire 1 T test_contador_mef_controle_state_operador $end
$var wire 1 U test_controle_reset_aux_operador $end
$var wire 1 V test_load_reg $end
$var wire 1 W test_load_reg_1 $end
$var wire 1 X test_reset_ff_operador $end
$var wire 1 Y ve $end

$scope module i1 $end
$var wire 1 Z gnd $end
$var wire 1 [ vcc $end
$var wire 1 \ unknown $end
$var tri1 1 ] devclrn $end
$var tri1 1 ^ devpor $end
$var tri1 1 _ devoe $end
$var wire 1 ` registrador_2|ff_6|q~4_cout $end
$var wire 1 a clock_50mhz~combout $end
$var wire 1 b divisor_f|ff_1|q~regout $end
$var wire 1 c divisor_f|ff_2|q~regout $end
$var wire 1 d divisor_f|ff_3|q~regout $end
$var wire 1 e ch~combout $end
$var wire 1 f pg~combout $end
$var wire 1 g start_stop~combout $end
$var wire 1 h mef_1|jk_2|q~0_combout $end
$var wire 1 i mef_1|jk_2|q~regout $end
$var wire 1 j mef_1|jk_1|q~regout $end
$var wire 1 k mef_1|gate_11|WideAnd0~combout $end
$var wire 1 l mef_1|gate_9|WideAnd0~combout $end
$var wire 1 m mef_1|gate_8|S~0_combout $end
$var wire 1 n WideAnd3~0_combout $end
$var wire 1 o op_c_deboucing~combout $end
$var wire 1 p contador_entrada_rolhas|ff_1|q~regout $end
$var wire 1 q contador_entrada_rolhas|ff_2|q~regout $end
$var wire 1 r contador_entrada_rolhas|ff_3|q~regout $end
$var wire 1 s contador_entrada_rolhas|ff_4|q~regout $end
$var wire 1 t contador_entrada_rolhas|gate_3|S~combout $end
$var wire 1 u contador_entrada_rolhas|ff_5|q~regout $end
$var wire 1 v contador_entrada_rolhas|ff_6|q~regout $end
$var wire 1 w registrador_1|ff_2|q~regout $end
$var wire 1 x registrador_1|ff_4|q~regout $end
$var wire 1 y registrador_1|ff_5|q~regout $end
$var wire 1 z comb_50|somador_subtrator_1|gate_8|WideAnd0 $end
$var wire 1 { registrador_1|ff_6|q~regout $end
$var wire 1 | registrador_2|ff_6|q~4COUT0_9 $end
$var wire 1 } registrador_2|ff_6|q~4COUT1_10 $end
$var wire 1 ~ registrador_2|ff_6|q~1 $end
$var wire 1 !! registrador_2|ff_6|q~1COUT1_11 $end
$var wire 1 "! registrador_2|ff_5|q~1 $end
$var wire 1 #! registrador_2|ff_5|q~1COUT1_3 $end
$var wire 1 $! registrador_2|ff_4|q~1 $end
$var wire 1 %! comb_86|gate_6|S~0_combout $end
$var wire 1 &! ff_2|q~regout $end
$var wire 1 '! contador_1_buffer_secundario|ff_4|q~0_combout $end
$var wire 1 (! contador_1_buffer_secundario|ff_4|q_bar~regout $end
$var wire 1 )! contador_1_buffer_secundario|ff_5|q~0_combout $end
$var wire 1 *! contador_1_buffer_secundario|ff_5|q~1_combout $end
$var wire 1 +! contador_1_buffer_secundario|ff_5|q~regout $end
$var wire 1 ,! registrador_1|ff_3|q~regout $end
$var wire 1 -! registrador_2|ff_3|q~1 $end
$var wire 1 .! registrador_2|ff_3|q~1COUT1_3 $end
$var wire 1 /! registrador_2|ff_2|q~regout $end
$var wire 1 0! op_deboucing~combout $end
$var wire 1 1! contador_entrada_rolhas|ff_7|q~regout $end
$var wire 1 2! contador_1_buffer_secundario|ff_7|q~2_combout $end
$var wire 1 3! contador_1_buffer_secundario|ff_6|q_bar~regout $end
$var wire 1 4! contador_1_buffer_secundario|ff_5|q_bar~regout $end
$var wire 1 5! contador_1_buffer_secundario|ff_7|q~0_combout $end
$var wire 1 6! contador_1_buffer_secundario|ff_7|q~3_combout $end
$var wire 1 7! contador_1_buffer_secundario|ff_7|q~regout $end
$var wire 1 8! registrador_1|ff_1|q~regout $end
$var wire 1 9! registrador_2|ff_2|q~1 $end
$var wire 1 :! registrador_2|ff_2|q~1COUT1_3 $end
$var wire 1 ;! registrador_2|ff_1|q~regout $end
$var wire 1 <! registrador_2|ff_5|q~regout $end
$var wire 1 =! registrador_2|ff_3|q~regout $end
$var wire 1 >! registrador_2|ff_4|q~regout $end
$var wire 1 ?! load_aux[1]~0_combout $end
$var wire 1 @! load_aux[1]~1_combout $end
$var wire 1 A! pulsador_2|ff_1|q~regout $end
$var wire 1 B! pulsador_2|ff_1|nq~regout $end
$var wire 1 C! pulsador_2|Pulse~combout $end
$var wire 1 D! registrador_1|ff_7|q~regout $end
$var wire 1 E! registrador_2|ff_7|q~regout $end
$var wire 1 F! contador_3_buffer_secundario_controle_operador|gate_33|comb~0_combout $end
$var wire 1 G! contador_3_buffer_secundario_controle_operador|ff_1|q~0_combout $end
$var wire 1 H! contador_3_buffer_secundario_controle_operador|ff_1|q_bar~regout $end
$var wire 1 I! contador_3_buffer_secundario_controle_operador|ff_2|q_bar~0_combout $end
$var wire 1 J! registrador_2|ff_6|q~regout $end
$var wire 1 K! contador_3_buffer_secundario_controle_operador|gate_32|comb~0_combout $end
$var wire 1 L! contador_3_buffer_secundario_controle_operador|ff_2|q~0_combout $end
$var wire 1 M! contador_3_buffer_secundario_controle_operador|ff_2|q_bar~regout $end
$var wire 1 N! contador_3_buffer_secundario_controle_operador|ff_2|q_bar~1_combout $end
$var wire 1 O! contador_3_buffer_secundario_controle_operador|gate_31|comb~0_combout $end
$var wire 1 P! contador_3_buffer_secundario_controle_operador|ff_3|q~0_combout $end
$var wire 1 Q! contador_3_buffer_secundario_controle_operador|ff_3|q_bar~regout $end
$var wire 1 R! contador_3_buffer_secundario_controle_operador|ff_4|q_bar~0_combout $end
$var wire 1 S! contador_3_buffer_secundario_controle_operador|gate_30|comb~0_combout $end
$var wire 1 T! contador_3_buffer_secundario_controle_operador|ff_4|q~0_combout $end
$var wire 1 U! contador_3_buffer_secundario_controle_operador|ff_4|q_bar~regout $end
$var wire 1 V! contador_3_buffer_secundario_controle_operador|ff_5|q_bar~0_combout $end
$var wire 1 W! contador_3_buffer_secundario_controle_operador|gate_29|comb~0_combout $end
$var wire 1 X! contador_3_buffer_secundario_controle_operador|ff_5|q~0_combout $end
$var wire 1 Y! contador_3_buffer_secundario_controle_operador|ff_5|q_bar~regout $end
$var wire 1 Z! contador_3_buffer_secundario_controle_operador|gate_28|comb~0_combout $end
$var wire 1 [! contador_3_buffer_secundario_controle_operador|ff_6|q~0_combout $end
$var wire 1 \! contador_3_buffer_secundario_controle_operador|ff_6|q_bar~regout $end
$var wire 1 ]! contador_3_buffer_secundario_controle_operador|gate_27|comb~0_combout $end
$var wire 1 ^! comb_86|gate_6|S~2_combout $end
$var wire 1 _! contador_3_buffer_secundario_controle_operador|ff_7|q~regout $end
$var wire 1 `! WideAnd2~0_combout $end
$var wire 1 a! WideAnd2~combout $end
$var wire 1 b! comb_86|jk_1|q~regout $end
$var wire 1 c! comb_86|jk_2|q~regout $end
$var wire 1 d! comb_86|gate_6|S~1_combout $end
$var wire 1 e! WideAnd3~1_combout $end
$var wire 1 f! comb_85|gate_6|S~0_combout $end
$var wire 1 g! contador_2_buffer_secundario_controle_rolhas|ff_1|q_bar~regout $end
$var wire 1 h! contador_2_buffer_secundario_controle_rolhas|ff_2|q_bar~regout $end
$var wire 1 i! contador_2_buffer_secundario_controle_rolhas|ff_3|q_bar~0_combout $end
$var wire 1 j! contador_2_buffer_secundario_controle_rolhas|ff_3|q_bar~regout $end
$var wire 1 k! contador_2_buffer_secundario_controle_rolhas|ff_3|q_bar~1_combout $end
$var wire 1 l! contador_2_buffer_secundario_controle_rolhas|ff_4|q_bar~regout $end
$var wire 1 m! contador_2_buffer_secundario_controle_rolhas|ff_5|q~regout $end
$var wire 1 n! WideAnd1~0_combout $end
$var wire 1 o! WideAnd1~combout $end
$var wire 1 p! WideAnd0~0 $end
$var wire 1 q! pulsador_1|ff_1|q~regout $end
$var wire 1 r! pulsador_1|ff_1|nq~regout $end
$var wire 1 s! pulsador_1|Pulse~combout $end
$var wire 1 t! ff_1|q~regout $end
$var wire 1 u! comb_85|jk_1|q~regout $end
$var wire 1 v! comb_85|jk_2|q~regout $end
$var wire 1 w! enable_buffer_secundario~combout $end
$var wire 1 x! contador_1_buffer_secundario|ff_1|q~regout $end
$var wire 1 y! contador_1_buffer_secundario|ff_1|q_bar~regout $end
$var wire 1 z! contador_1_buffer_secundario|ff_2|q~0_combout $end
$var wire 1 {! contador_1_buffer_secundario|ff_2|q~regout $end
$var wire 1 |! contador_1_buffer_secundario|ff_2|q_bar~regout $end
$var wire 1 }! contador_1_buffer_secundario|ff_3|q~0_combout $end
$var wire 1 ~! contador_1_buffer_secundario|ff_3|q~1_combout $end
$var wire 1 !" contador_1_buffer_secundario|ff_3|q~2_combout $end
$var wire 1 "" contador_1_buffer_secundario|ff_3|q~regout $end
$var wire 1 #" contador_1_buffer_secundario|ff_3|q_bar~regout $end
$var wire 1 $" contador_1_buffer_secundario|ff_4|q~1_combout $end
$var wire 1 %" contador_1_buffer_secundario|ff_4|q~regout $end
$var wire 1 &" contador_1_buffer_secundario|ff_7|q~1_combout $end
$var wire 1 '" contador_1_buffer_secundario|ff_6|q~0_combout $end
$var wire 1 (" contador_1_buffer_secundario|ff_6|q~regout $end
$var wire 1 )" mux_38|gate_4|WideAnd0~7_combout $end
$var wire 1 *" mux_38|gate_4|WideAnd0~2_combout $end
$var wire 1 +" mux_38|gate_4|WideAnd0~8_combout $end
$var wire 1 ," mux_38|gate_4|WideAnd0~6_combout $end
$var wire 1 -" mux_38|gate_4|WideAnd0~9_combout $end
$var wire 1 ." mux_38|gate_4|WideAnd0~3_combout $end
$var wire 1 /" mux_38|gate_4|WideAnd0~4_combout $end
$var wire 1 0" mux_38|gate_4|WideAnd0~5_combout $end
$var wire 1 1" mux_38|gate_4|WideAnd0~10_combout $end
$var wire 1 2" mux_38|gate_5|WideOr0~2_combout $end
$var wire 1 3" mux_38|gate_5|WideOr0~3_combout $end
$var wire 1 4" contador_display|ff_1|q~regout $end
$var wire 1 5" mux_38|gate_5|WideOr0~0_combout $end
$var wire 1 6" contador_display|ff_2|q~regout $end
$var wire 1 7" mux_38|gate_5|WideOr0~1_combout $end
$var wire 1 8" mux_36|gate_4|WideAnd0~0_combout $end
$var wire 1 9" mux_36|gate_5|WideOr0~5_combout $end
$var wire 1 :" mux_36|gate_5|WideOr0~6_combout $end
$var wire 1 ;" demux_1|gate_3|WideAnd0~0_combout $end
$var wire 1 <" mux_36|gate_5|WideOr0~0_combout $end
$var wire 1 =" mux_36|gate_5|WideOr0~3_combout $end
$var wire 1 >" mux_36|gate_5|WideOr0~4_combout $end
$var wire 1 ?" mux_36|gate_5|WideOr0~1_combout $end
$var wire 1 @" mux_36|gate_5|WideOr0~2_combout $end
$var wire 1 A" mux_37|gate_5|WideOr0~2_combout $end
$var wire 1 B" mux_37|gate_5|WideOr0~1_combout $end
$var wire 1 C" mux_37|gate_5|WideOr0~5_combout $end
$var wire 1 D" mux_37|gate_5|WideOr0~4_combout $end
$var wire 1 E" mux_37|gate_5|WideOr0~0_combout $end
$var wire 1 F" mux_37|gate_5|WideOr0~6_combout $end
$var wire 1 G" mux_37|gate_5|WideOr0~3_combout $end
$var wire 1 H" mux_37|gate_5|WideOr0~7_combout $end
$var wire 1 I" mux_39|gate_5|WideOr0~0_combout $end
$var wire 1 J" mux_39|gate_5|WideOr0~3_combout $end
$var wire 1 K" mux_39|gate_5|WideOr0~1_combout $end
$var wire 1 L" mux_39|gate_5|WideOr0~4_combout $end
$var wire 1 M" mux_39|gate_5|WideOr0~2_combout $end
$var wire 1 N" mux_39|gate_5|WideOr0~5_combout $end
$var wire 1 O" bcd_1|gate_6|WideOr0~0_combout $end
$var wire 1 P" bcd_1|gate_23|WideOr0~0_combout $end
$var wire 1 Q" bcd_1|gate_16|S~0_combout $end
$var wire 1 R" bcd_1|gate_19|WideOr0~0_combout $end
$var wire 1 S" bcd_1|gate_15|S~0_combout $end
$var wire 1 T" bcd_1|gate_12|WideOr0~0_combout $end
$var wire 1 U" bcd_1|gate_12|WideOr0~1_combout $end
$var wire 1 V" bcd_1|gate_12|WideOr0~2_combout $end
$var wire 1 W" bcd_1|gate_7|WideOr0~combout $end
$var wire 1 X" bcd_1|gate_6|WideOr0~combout $end
$var wire 1 Y" bcd_1|gate_3|WideOr0~combout $end
$var wire 1 Z" demux_1|gate_3|WideAnd0~1_combout $end
$var wire 1 [" demux_1|gate_3|WideAnd0~2_combout $end
$var wire 1 \" demux_1|gate_1|WideAnd0~combout $end
$upscope $end
$upscope $end
$enddefinitions $end
#0
$dumpvars
1!
1"
0#
0$
1%
1&
1'
1(
1,
1+
1*
0)
1-
05
14
03
02
01
00
0/
0.
06
17
08
0:
09
0;
0@
0?
0>
0=
0<
0G
0F
0E
0D
0C
0B
0A
0L
0K
0J
0I
0H
0S
0R
0Q
0P
0O
0N
0M
0T
1U
0V
0W
0X
0Y
0Z
1[
x\
1]
1^
1_
0`
1a
0b
0c
0d
1e
1f
1g
1h
0i
0j
0k
0l
1m
1n
1o
0p
0q
0r
0s
0t
0u
0v
0w
0x
0y
0z
0{
0|
0}
1~
1!!
0"!
0#!
1$!
0%!
0&!
0'!
0(!
1)!
0*!
0+!
0,!
0-!
0.!
0/!
10!
01!
02!
03!
04!
15!
16!
07!
08!
19!
1:!
0;!
0<!
0=!
0>!
0?!
1@!
0A!
0B!
0C!
0D!
0E!
0F!
0G!
0H!
1I!
0J!
0K!
0L!
0M!
0N!
0O!
0P!
0Q!
1R!
0S!
0T!
0U!
0V!
0W!
0X!
0Y!
0Z!
0[!
0\!
0]!
0^!
0_!
1`!
1a!
0b!
0c!
0d!
0e!
0f!
0g!
0h!
1i!
0j!
0k!
0l!
0m!
1n!
1o!
0p!
0q!
0r!
0s!
0t!
0u!
0v!
0w!
0x!
0y!
0z!
0{!
0|!
1}!
0~!
0!"
0""
0#"
0$"
0%"
0&"
0'"
0("
1)"
0*"
0+"
1,"
0-"
0."
0/"
00"
01"
12"
03"
04"
05"
06"
07"
08"
09"
0:"
0;"
0<"
0="
0>"
0?"
0@"
0A"
0B"
0C"
0D"
0E"
0F"
0G"
0H"
0I"
0J"
0K"
0L"
0M"
0N"
0O"
0P"
0Q"
1R"
1S"
0T"
0U"
1V"
1W"
1X"
1Y"
0Z"
0["
0\"
$end
#10000
0"
0%
0a
0o
1b
#20000
1"
1%
1a
1o
1p
#30000
0"
0%
0a
0o
0b
1c
#40000
1"
1%
1a
1o
1q
0p
#50000
0"
0%
0a
0o
1b
#60000
1"
1%
1a
1o
1p
#70000
0"
0%
0a
0o
0b
0c
1d
1r!
1B!
#80000
1"
1%
1a
1o
1r
0q
0p
#90000
0"
0%
0a
0o
1b
#100000
1"
1%
1a
1o
1p
#110000
0"
0%
0a
0o
0b
1c
#120000
1"
1%
1a
1o
1q
0p
#130000
0"
0%
0a
0o
1b
#140000
1"
1%
1a
1o
1p
#150000
0"
0%
0a
0o
0b
0c
0d
14"
1i
1\"
1["
1B"
0m
1:
1C"
1)
07
0*
1F"
#160000
1"
1%
1a
1o
1s
0r
0q
0p
#170000
0"
0%
0a
0o
1b
#180000
1"
1%
1a
1o
1p
#190000
0"
0%
0a
0o
0b
1c
#200000
1"
1%
1a
1o
1q
0p
#210000
0"
0%
0a
0o
1b
#220000
1"
1%
1a
1o
1p
#230000
0"
0%
0a
0o
0b
0c
1d
#240000
1"
1%
1a
1o
1r
0q
0p
#250000
0"
0%
0a
0o
1b
#260000
1"
1%
1a
1o
1p
#270000
0"
0%
0a
0o
0b
1c
#280000
1"
1%
1a
1o
1q
0p
#290000
0"
0%
0a
0o
1b
#300000
1"
1%
1a
1o
1p
1t
#310000
0"
0%
0a
0o
0b
0c
0d
16"
04"
1j
0i
0["
1Z"
0B"
1l
19
0:
0C"
16
0-
0+
1*
1H"
0F"
1U"
0S"
1O"
0H"
0Y"
0V"
1P"
0U"
1S"
0O"
12
1Y"
1V"
0P"
02
04
11
1.
14
01
0.
#320000
1"
1%
1a
1o
1u
0s
0r
0q
0p
1-!
0t
#330000
0"
0%
0a
0o
1b
#340000
1"
1%
1a
1o
1p
#350000
0"
0%
0a
0o
0b
1c
#360000
1"
1%
1a
1o
1q
0p
#370000
0"
0%
0a
0o
1b
#380000
1"
1%
1a
1o
1p
#390000
0"
0%
0a
0o
0b
0c
1d
#400000
1"
1a
#410000
0"
0a
1b
#420000
1"
1a
#430000
0"
0a
0b
1c
#440000
1"
1a
#450000
0"
0a
1b
#460000
1"
1a
#470000
0"
0a
0b
0c
0d
14"
0Z"
1B"
1;"
1C"
0,
1+
1F"
#480000
1%
1"
1o
1a
1r
0q
0p
#490000
0"
0a
1b
#500000
1"
1a
#510000
0"
0a
0b
1c
#520000
1"
1a
#530000
0"
0a
1b
#540000
1"
1a
#550000
0"
0a
0b
0c
1d
#560000
0%
1"
0o
1a
#570000
0"
0a
1b
#580000
1"
1a
#590000
0"
0a
0b
1c
#600000
1"
1a
#610000
0"
0a
1b
#620000
1"
1a
#630000
0"
0a
0b
0c
0d
06"
04"
0\"
0;"
0B"
0C"
0)
1,
1H"
0F"
0H"
#640000
0&
1"
00!
1a
0@!
1C!
1=!
1&!
1<!
1?!
0}!
1V
1W
05!
0)!
06!
#650000
0"
0a
1b
#660000
1"
1a
#670000
0"
0a
0b
1c
#680000
1"
1a
#690000
0"
0a
1b
#700000
1"
1a
#710000
0"
0a
0b
0c
1d
1A!
#720000
1&
1"
10!
1a
1@!
0C!
#730000
0"
0a
1b
#740000
1"
1a
#750000
0"
0a
0b
1c
#760000
1"
1a
#770000
0"
0a
1b
#780000
1"
1a
#790000
0"
0a
0b
0c
0d
14"
1c!
1\"
1["
1B"
1^!
1]!
1Z!
1X!
1S!
1P!
1K!
1F!
1;
1T
1C"
1)
0*
1F"
1Y!
1Q!
0a!
0`!
1O
1Q
0U
#800000
1"
1a
#810000
0"
0a
1b
#820000
1"
1a
#830000
0"
0a
0b
1c
#840000
1"
1a
#850000
0"
0a
1b
#860000
1"
1a
#870000
0"
0a
0b
0c
1d
0B!
0A!
#880000
1"
1a
#890000
0"
0a
1b
#900000
1"
1a
#910000
0"
0a
0b
1c
#920000
1"
1a
#930000
0"
0a
1b
#940000
1"
1a
#950000
0"
0a
0b
0c
0d
16"
04"
0c!
1b!
0["
1Z"
0B"
1d!
0^!
0]!
0Z!
0X!
0S!
0P!
1N!
0K!
0I!
0F!
0;
0T
0C"
1w!
0+
1*
1H"
0F"
1U"
0S"
1O"
0H"
0Y"
0V"
1P"
0U"
1S"
0O"
12
1Y"
1V"
0P"
02
04
11
1.
14
01
0.
#960000
1"
1a
#970000
0"
0a
1b
#980000
1"
1a
#990000
0"
0a
0b
1c
#1000000
1"
1a
#1010000
0"
0a
1b
#1020000
1"
1a
#1030000
0"
0a
0b
0c
1d
1B!
#1040000
1"
1a
#1050000
0"
0a
1b
#1060000
1"
1a
#1070000
0"
0a
0b
1c
#1080000
1"
1a
#1090000
0"
0a
1b
#1100000
1"
1a
#1110000
0"
0a
0b
0c
0d
14"
1y!
1x!
0Q!
1M!
1H!
0Z"
1M"
1B"
1;"
1z!
0N!
1G
0Q
1R
1S
1N"
1C"
0,
1+
1U"
0S"
1Q"
1F"
0Y"
0V"
0R"
12
13
11
1.
#1120000
1"
1a
#1130000
0"
0a
1b
#1140000
1"
1a
#1150000
0"
0a
0b
1c
#1160000
1"
1a
#1170000
0"
0a
1b
#1180000
1"
1a
#1190000
0"
0a
0b
0c
1d
#1200000
1"
1a
#1210000
0"
0a
1b
#1220000
1"
1a
#1230000
0"
0a
0b
1c
#1240000
1"
1a
#1250000
0"
0a
1b
#1260000
1"
1a
#1270000
0"
0a
0b
0c
0d
06"
04"
1|!
1{!
0y!
0x!
0H!
0\"
0U"
1S"
0Q"
0;"
0M"
0B"
1+"
0)"
0z!
1N!
1I!
1F
0G
0S
1Y"
1V"
1R"
0N"
0C"
1-"
0)
1,
02
1H"
0F"
03
01
0.
0H"
#1280000
1"
1a
#1290000
0"
0a
1b
#1300000
1"
1a
#1310000
0"
0a
0b
1c
#1320000
1"
1a
#1330000
0"
0a
1b
#1340000
1"
1a
#1350000
0"
0a
0b
0c
1d
#1360000
1"
1a
#1370000
0"
0a
1b
#1380000
1"
1a
#1390000
0"
0a
0b
1c
#1400000
1"
1a
#1410000
0"
0a
1b
#1420000
1"
1a
#1430000
0"
0a
0b
0c
0d
14"
1y!
1x!
0M!
1H!
1\"
1["
1M"
1A"
15"
1z!
1~!
1V!
0R!
0N!
1G
0R
1S
1N"
1D"
1C"
1T"
1!"
0V!
1R!
1)
0*
0T"
1F"
#1440000
1"
1a
#1450000
0"
0a
1b
#1460000
1"
1a
#1470000
0"
0a
0b
1c
#1480000
1"
1a
#1490000
0"
0a
1b
#1500000
1"
1a
#1510000
0"
0a
0b
0c
1d
#1520000
1"
1a
#1530000
0"
0a
1b
#1540000
1"
1a
#1550000
0"
0a
0b
1c
#1560000
1"
1a
#1570000
0"
0a
1b
#1580000
1"
1a
#1590000
0"
0a
0b
0c
0d
16"
04"
1#"
1""
0|!
0{!
0y!
0x!
0H!
0["
1Z"
1U"
1T"
0S"
1Q"
17"
0M"
0A"
05"
1="
1."
0+"
1)"
0~!
0z!
1`!
1N!
0I!
1E
0F
0G
0S
0R"
1P"
0N"
0D"
0C"
0T"
07"
0-"
0!"
1V!
0R!
12
0+
1*
0Y"
0U"
1S"
0Q"
0F"
1H"
0V"
0P"
04
13
1Y"
1V"
1R"
0H"
1U"
0S"
1O"
14
11
02
1.
0Y"
0U"
1S"
1P"
0O"
0V"
12
03
01
0.
1Y"
1V"
0P"
11
04
02
1.
14
01
0.
#1600000
1"
1a
#1610000
0"
0a
1b
#1620000
1"
1a
#1630000
0"
0a
0b
1c
#1640000
1"
1a
#1650000
0"
0a
1b
#1660000
1"
1a
#1670000
0"
0a
0b
0c
1d
#1680000
1"
1a
#1690000
0"
0a
1b
#1700000
1"
1a
#1710000
0"
0a
0b
1c
#1720000
1"
1a
#1730000
0"
0a
1b
#1740000
1"
1a
#1750000
0"
0a
0b
0c
0d
14"
1y!
1x!
0Y!
1U!
1Q!
1M!
1H!
0Z"
1M"
1B"
1A"
1>"
1;"
1z!
1a!
0`!
0V!
0N!
1G
0O
1P
1Q
1R
1S
1N"
1G"
1C"
1?"
0a!
1U
0,
1+
1U"
0S"
1Q"
1F"
0U
0Y"
0V"
0R"
1H"
12
1Y"
0X"
1T"
1O"
13
11
1.
1V"
1R"
1P"
1/
0.
04
03
01
#1760000
1"
1a
#1770000
0"
0a
1b
#1780000
1"
1a
#1790000
0"
0a
0b
1c
#1800000
1"
1a
#1810000
0"
0a
1b
#1820000
1"
1a
#1830000
0"
0a
0b
0c
1d
#1840000
1"
1a
#1850000
0"
0a
1b
#1860000
1"
1a
#1870000
0"
0a
0b
1c
#1880000
1"
1a
#1890000
0"
0a
1b
#1900000
1"
1a
#1910000
0"
0a
0b
0c
0d
06"
04"
1|!
1{!
0y!
0x!
0H!
0\"
1X"
0U"
1S"
0Q"
0O"
0;"
0M"
0B"
0A"
0>"
0="
19"
1+"
0)"
0z!
1N!
1I!
1F
0G
0S
0P"
0N"
0G"
0C"
0?"
1-"
0)
1,
02
0/
0T"
0F"
14
0H"
#1920000
1"
1a
#1930000
0"
0a
1b
#1940000
1"
1a
#1950000
0"
0a
0b
1c
#1960000
1"
1a
#1970000
0"
0a
1b
#1980000
1"
1a
#1990000
0"
0a
0b
0c
1d
#2000000
1"
1a
#2010000
0"
0a
1b
#2020000
1"
1a
#2030000
0"
0a
0b
1c
#2040000
1"
1a
#2050000
0"
0a
1b
#2060000
1"
1a
#2070000
0"
0a
0b
0c
0d
14"
1y!
1x!
0M!
1H!
1\"
1["
1M"
1E"
15"
1z!
1~!
1'!
0N!
1G
0R
1S
1N"
1F"
1T"
1!"
1$"
1)
0*
0T"
1H"
1T"
#2080000
1"
1a
#2090000
0"
0a
1b
#2100000
1"
1a
#2110000
0"
0a
0b
1c
#2120000
1"
1a
#2130000
0"
0a
1b
#2140000
1"
1a
#2150000
0"
0a
0b
0c
1d
#2160000
1"
1a
#2170000
0"
0a
1b
#2180000
1"
1a
#2190000
0"
0a
0b
1c
#2200000
1"
1a
#2210000
0"
0a
1b
#2220000
1"
1a
#2230000
0"
0a
0b
0c
0d
16"
04"
1%"
0#"
0""
0|!
0{!
0y!
0x!
0H!
1(!
0["
1Z"
1U"
0T"
0S"
1Q"
17"
0M"
0E"
05"
1G"
1:"
1/"
0,"
1*!
0."
0+"
0'!
0~!
0z!
1N!
0I!
1D
0E
0F
0G
0S
0V"
0R"
0N"
0F"
0X"
1T"
1O"
07"
11"
0-"
0/"
0$"
0*!
0!"
12
0+
1*
0Y"
1X"
0T"
0Q"
0H"
1V"
1R"
1P"
01"
1/
13
11
0V"
0U"
1S"
0O"
04
03
01
0/
1.
1Y"
1V"
0P"
02
11
14
01
0.
#2240000
1"
1a
#2250000
0"
0a
1b
#2260000
1"
1a
#2270000
0"
0a
0b
1c
#2280000
1"
1a
#2290000
0"
0a
1b
#2300000
1"
1a
#2310000
0"
0a
0b
0c
1d
#2320000
1"
1a
#2330000
0"
0a
1b
#2340000
1"
1a
#2350000
0"
0a
0b
1c
#2360000
1"
1a
#2370000
0"
0a
1b
#2380000
1"
1a
#2390000
0"
0a
0b
0c
0d
14"
1y!
1x!
0Q!
1M!
1H!
0Z"
1M"
1B"
1;"
1z!
0N!
1G
0Q
1R
1S
1N"
0G"
1C"
1<"
0,
1+
1U"
0S"
1Q"
1F"
1@"
0Y"
0V"
0U"
1P"
12
1Y"
1V"
04
11
1.
01
0.
#2400000
1"
1a
#2410000
0"
0a
1b
#2420000
1"
1a
#2430000
0"
0a
0b
1c
#2440000
1"
1a
#2450000
0"
0a
1b
#2460000
1"
1a
#2470000
0"
0a
0b
0c
1d
#2480000
1"
1a
#2490000
0"
0a
1b
#2500000
1"
1a
#2510000
0"
0a
0b
1c
#2520000
1"
1a
#2530000
0"
0a
1b
#2540000
1"
1a
#2550000
0"
0a
0b
0c
0d
06"
04"
1|!
1{!
0y!
0x!
0H!
0\"
1S"
0Q"
0;"
0M"
0B"
1K"
09"
1+"
1)"
0z!
1N!
1I!
1F
0G
0S
0<"
0N"
1G"
0C"
1L"
0:"
0)
1,
02
0@"
1H"
0F"
1N"
0P"
1T"
0H"
0T"
14
#2560000
1"
1a
#2570000
0"
0a
1b
#2580000
1"
1a
#2590000
0"
0a
0b
1c
#2600000
1"
1a
#2610000
0"
0a
1b
#2620000
1"
1a
#2630000
0"
0a
0b
0c
1d
#2640000
1"
1a
#2650000
0"
0a
1b
#2660000
1"
1a
#2670000
0"
0a
0b
1c
#2680000
1"
1a
#2690000
0"
0a
1b
#2700000
1"
1a
#2710000
0"
0a
0b
0c
0d
14"
1y!
1x!
0M!
1H!
1\"
1["
0N"
1M"
1A"
1z!
1~!
1R!
0N!
1G
0R
1S
1N"
0G"
1!"
0R!
1)
0*
#2720000
1"
1a
#2730000
0"
0a
1b
#2740000
1"
1a
#2750000
0"
0a
0b
1c
#2760000
1"
1a
#2770000
0"
0a
1b
#2780000
1"
1a
#2790000
0"
0a
0b
0c
1d
#2800000
1"
1a
#2810000
0"
0a
1b
#2820000
1"
1a
#2830000
0"
0a
0b
1c
#2840000
1"
1a
