simulation/qsim/MI-CircuitosDigitais-Problema-3.msim.vcd
$comment
	File created using the following command:
		vcd file MI-CircuitosDigitais-Problema-3.msim.vcd -direction
$end
$date
	Fri Feb 09 02:02:52 2024
$end
$version
	ModelSim Version 10.5b
$end
$timescale
	1ps
$end

$scope module pbl_vlg_vec_tst $end
$var reg 1 ! ch $end
$var reg 1 " clock_50mhz $end
$var reg 1 # cq $end
$var reg 1 $ hh_load $end
$var reg 1 % op_c_deboucing $end
$var reg 1 & op_deboucing $end
$var reg 1 ' pg $end
$var reg 1 ( start_stop $end
$var wire 1 ) Nac_7segmentos [3] $end
$var wire 1 * Nac_7segmentos [2] $end
$var wire 1 + Nac_7segmentos [1] $end
$var wire 1 , Nac_7segmentos [0] $end
$var wire 1 - Nal $end
$var wire 1 . Nout_7seg [7] $end
$var wire 1 / Nout_7seg [6] $end
$var wire 1 0 Nout_7seg [5] $end
$var wire 1 1 Nout_7seg [4] $end
$var wire 1 2 Nout_7seg [3] $end
$var wire 1 3 Nout_7seg [2] $end
$var wire 1 4 Nout_7seg [1] $end
$var wire 1 5 Nout_7seg [0] $end
$var wire 1 6 al $end
$var wire 1 7 ev $end
$var wire 1 8 m $end
$var wire 1 9 mef_estado [1] $end
$var wire 1 : mef_estado [0] $end
$var wire 1 ; test_buffer_entrada_aux_secundario_in [6] $end
$var wire 1 < test_buffer_entrada_aux_secundario_in [5] $end
$var wire 1 = test_buffer_entrada_aux_secundario_in [4] $end
$var wire 1 > test_buffer_entrada_aux_secundario_in [3] $end
$var wire 1 ? test_buffer_entrada_aux_secundario_in [2] $end
$var wire 1 @ test_buffer_entrada_aux_secundario_in [1] $end
$var wire 1 A test_buffer_entrada_aux_secundario_in [0] $end
$var wire 1 B test_buffer_entrada_aux_secundario_in_aux [6] $end
$var wire 1 C test_buffer_entrada_aux_secundario_in_aux [5] $end
$var wire 1 D test_buffer_entrada_aux_secundario_in_aux [4] $end
$var wire 1 E test_buffer_entrada_aux_secundario_in_aux [3] $end
$var wire 1 F test_buffer_entrada_aux_secundario_in_aux [2] $end
$var wire 1 G test_buffer_entrada_aux_secundario_in_aux [1] $end
$var wire 1 H test_buffer_entrada_aux_secundario_in_aux [0] $end
$var wire 1 I test_buffer_entrada_aux_secundario_out [6] $end
$var wire 1 J test_buffer_entrada_aux_secundario_out [5] $end
$var wire 1 K test_buffer_entrada_aux_secundario_out [4] $end
$var wire 1 L test_buffer_entrada_aux_secundario_out [3] $end
$var wire 1 M test_buffer_entrada_aux_secundario_out [2] $end
$var wire 1 N test_buffer_entrada_aux_secundario_out [1] $end
$var wire 1 O test_buffer_entrada_aux_secundario_out [0] $end
$var wire 1 P test_buffer_secundario [6] $end
$var wire 1 Q test_buffer_secundario [5] $end
$var wire 1 R test_buffer_secundario [4] $end
$var wire 1 S test_buffer_secundario [3] $end
$var wire 1 T test_buffer_secundario [2] $end
$var wire 1 U test_buffer_secundario [1] $end
$var wire 1 V test_buffer_secundario [0] $end
$var wire 1 W test_buffer_secundario_aux [6] $end
$var wire 1 X test_buffer_secundario_aux [5] $end
$var wire 1 Y test_buffer_secundario_aux [4] $end
$var wire 1 Z test_buffer_secundario_aux [3] $end
$var wire 1 [ test_buffer_secundario_aux [2] $end
$var wire 1 \ test_buffer_secundario_aux [1] $end
$var wire 1 ] test_buffer_secundario_aux [0] $end
$var wire 1 ^ test_comparator_aux $end
$var wire 1 _ test_load_input $end
$var wire 1 ` test_load_reg $end
$var wire 1 a ve $end

$scope module i1 $end
$var wire 1 b gnd $end
$var wire 1 c vcc $end
$var wire 1 d unknown $end
$var tri1 1 e devclrn $end
$var tri1 1 f devpor $end
$var tri1 1 g devoe $end
$var wire 1 h clock_50mhz~combout $end
$var wire 1 i divisor_f|ff_1|q~regout $end
$var wire 1 j contador_duzias|ff_4|q~regout $end
$var wire 1 k pg~combout $end
$var wire 1 l ch~combout $end
$var wire 1 m start_stop~combout $end
$var wire 1 n mef_1|jk_1|q~regout $end
$var wire 1 o mef_1|jk_2|q~0_combout $end
$var wire 1 p mef_1|jk_2|q~regout $end
$var wire 1 q mef_1|gate_11|WideAnd0~combout $end
$var wire 1 r mef_1|gate_9|WideAnd0~combout $end
$var wire 1 s mef_1|gate_8|S~0_combout $end
$var wire 1 t mef_1|gate_8|S~1_combout $end
$var wire 1 u contador_dezenas_duzias|ff_2|q~regout $end
$var wire 1 v gate_2|S~combout $end
$var wire 1 w contador_dezenas_duzias|ff_4|q~regout $end
$var wire 1 x codificador_garrafas_1|gate_4|S~combout $end
$var wire 1 y op_deboucing~combout $end
$var wire 1 z registrador_2|ff_1|q~regout $end
$var wire 1 { registrador_2|ff_2|q~regout $end
$var wire 1 | registrador_1|ff_7|q~regout $end
$var wire 1 } registrador_2|ff_7|q~regout $end
$var wire 1 ~ registrador_1|ff_6|q~regout $end
$var wire 1 !! registrador_2|ff_6|q~regout $end
$var wire 1 "! comb~2 $end
$var wire 1 #! comb~3 $end
$var wire 1 $! contador_1_buffer_secundario|ff_4|q~0_combout $end
$var wire 1 %! contador_1_buffer_secundario|ff_4|q~regout $end
$var wire 1 &! registrador_1|ff_4|q~regout $end
$var wire 1 '! registrador_2|ff_4|q~regout $end
$var wire 1 (! registrador_2|ff_5|q~regout $end
$var wire 1 )! registrador_1|ff_5|q~regout $end
$var wire 1 *! mux_12|OUT~combout $end
$var wire 1 +! load_aux[1]~0 $end
$var wire 1 ,! pulsador_2|ff_1|q~regout $end
$var wire 1 -! pulsador_2|ff_1|nq~regout $end
$var wire 1 .! load_aux[1]~1 $end
$var wire 1 /! pulsador_2|Pulse~combout $end
$var wire 1 0! contador_3_buffer_secundario_operador|ff_1|q~regout $end
$var wire 1 1! contador_3_buffer_secundario_operador|ff_2|q~regout $end
$var wire 1 2! contador_3_buffer_secundario_operador|ff_3|q~regout $end
$var wire 1 3! contador_3_buffer_secundario_operador|ff_7|q~1_combout $end
$var wire 1 4! contador_3_buffer_secundario_operador|ff_4|q~regout $end
$var wire 1 5! contador_3_buffer_secundario_operador|ff_5|q~regout $end
$var wire 1 6! contador_3_buffer_secundario_operador|ff_6|q~regout $end
$var wire 1 7! contador_3_buffer_secundario_operador|ff_7|q~0_combout $end
$var wire 1 8! contador_3_buffer_secundario_operador|ff_7|q~regout $end
$var wire 1 9! ff_2|q~0_combout $end
$var wire 1 :! ff_2|q~regout $end
$var wire 1 ;! contador_1_buffer_secundario|ff_2|q~regout $end
$var wire 1 <! contador_1_buffer_secundario|ff_3|q~regout $end
$var wire 1 =! contador_1_buffer_secundario|ff_5|q~0_combout $end
$var wire 1 >! contador_1_buffer_secundario|ff_5|q~regout $end
$var wire 1 ?! contador_1_buffer_secundario|ff_6|q~regout $end
$var wire 1 @! registrador_1|ff_2|q~regout $end
$var wire 1 A! contador_1_buffer_secundario|ff_7|q~regout $end
$var wire 1 B! registrador_1|ff_1|q~regout $end
$var wire 1 C! comparador_1|comparador_5|gate_1|WideAnd0~0 $end
$var wire 1 D! comb~0 $end
$var wire 1 E! registrador_1|ff_3|q~regout $end
$var wire 1 F! registrador_2|ff_3|q~regout $end
$var wire 1 G! comparador_1|comparador_3|gate_4|S~0_combout $end
$var wire 1 H! comb~1 $end
$var wire 1 I! comb~4 $end
$var wire 1 J! WideAnd0 $end
$var wire 1 K! pulsador_1|ff_1|q~regout $end
$var wire 1 L! pulsador_1|ff_1|nq~regout $end
$var wire 1 M! pulsador_1|Pulse~combout $end
$var wire 1 N! contador_2_buffer_secundario_controle_min_rolhas|ff_1|q~regout $end
$var wire 1 O! contador_2_buffer_secundario_controle_min_rolhas|ff_2|q~regout $end
$var wire 1 P! contador_2_buffer_secundario_controle_min_rolhas|ff_3|q~regout $end
$var wire 1 Q! contador_2_buffer_secundario_controle_min_rolhas|ff_7|q~1_combout $end
$var wire 1 R! contador_2_buffer_secundario_controle_min_rolhas|ff_4|q~regout $end
$var wire 1 S! contador_2_buffer_secundario_controle_min_rolhas|ff_5|q~regout $end
$var wire 1 T! contador_2_buffer_secundario_controle_min_rolhas|ff_6|q~regout $end
$var wire 1 U! contador_2_buffer_secundario_controle_min_rolhas|ff_7|q~0_combout $end
$var wire 1 V! contador_2_buffer_secundario_controle_min_rolhas|ff_7|q~regout $end
$var wire 1 W! ff_1|q~0_combout $end
$var wire 1 X! ff_1|q~regout $end
$var wire 1 Y! contador_1_buffer_secundario|ff_1|q~regout $end
$var wire 1 Z! mux_14|NSEL_and_A $end
$var wire 1 [! mux_13|NSEL_and_A $end
$var wire 1 \! mux_11|NSEL_and_A~0 $end
$var wire 1 ]! mux_10|OUT $end
$var wire 1 ^! mux_9|NSEL_and_A $end
$var wire 1 _! mux_8|NSEL_and_A $end
$var wire 1 `! load_reg~0_combout $end
$var wire 1 a! comb~5_combout $end
$upscope $end
$upscope $end
$enddefinitions $end
#0
$dumpvars
1!
1"
0#
0$
0%
1&
1'
0(
1,
1+
1*
0)
1-
05
14
03
02
01
00
0/
0.
06
07
08
0:
09
0A
0@
1?
0>
1=
0<
0;
0H
0G
1F
0E
1D
0C
0B
0O
0N
0M
0L
0K
0J
0I
0V
0U
0T
0S
0R
0Q
0P
0]
0\
0[
0Z
0Y
0X
0W
1^
0_
0`
0a
0b
1c
xd
1e
1f
1g
1h
0i
0j
1k
1l
0m
0n
0o
0p
0q
0r
0s
0t
0u
0v
0w
0x
1y
0z
0{
0|
0}
0~
0!!
1"!
1#!
0$!
0%!
0&!
0'!
0(!
0)!
1*!
1+!
0,!
0-!
0.!
0/!
00!
01!
02!
03!
04!
05!
06!
17!
08!
09!
0:!
0;!
0<!
0=!
0>!
0?!
0@!
0A!
0B!
1C!
0D!
0E!
0F!
0G!
0H!
1I!
1J!
0K!
0L!
0M!
0N!
0O!
0P!
0Q!
0R!
0S!
0T!
1U!
0V!
0W!
0X!
0Y!
0Z!
0[!
0\!
1]!
0^!
0_!
0`!
1a!
$end
#10000
0"
0h
1i
1L!
1K!
1-!
1M!
1F!
1(!
0a!
1G!
0+!
0#!
1K
1M
0J!
0I!
0^
0M!
#20000
1"
1h
#30000
0"
0h
0i
#40000
1"
1h
#50000
0"
0h
1i
0L!
0K!
#60000
1"
1h
#70000
0"
0h
0i
#80000
1"
1h
#90000
0"
0h
1i
1L!
#100000
1"
1h
#110000
0"
0h
0i
#120000
1"
1h
#130000
0"
0h
1i
#140000
1"
1h
#150000
0"
0h
0i
#160000
1"
1h
#170000
0"
0h
1i
#180000
1"
1h
#190000
0"
0h
0i
#200000
1"
1h
#210000
0"
0h
1i
#220000
1"
1h
#230000
0"
0h
0i
#240000
1"
1h
#250000
0"
0h
1i
#260000
1"
1h
#270000
0"
0h
0i
#280000
1"
1h
#290000
0"
0h
1i
#300000
1"
1h
#310000
0"
0h
0i
#320000
1"
1h
#330000
0"
0h
1i
#340000
1"
1h
#350000
0"
0h
0i
#360000
1"
1h
#370000
0"
0h
1i
#380000
1"
1h
#390000
0"
0h
0i
#400000
1"
1h
#410000
0"
0h
1i
#420000
1"
1h
#430000
0"
0h
0i
#440000
1"
1h
#450000
0"
0h
1i
#460000
1"
1h
#470000
0"
0h
0i
#480000
1"
1h
#490000
0"
0h
1i
#500000
1"
1h
#510000
0"
0h
0i
#520000
1"
1h
#530000
0"
0h
1i
#540000
1"
1h
#550000
0"
0h
0i
#560000
1"
1h
#570000
0"
0h
1i
#580000
1"
1h
#590000
0"
0h
0i
#600000
1"
1h
#610000
0"
0h
1i
#620000
1"
1h
#630000
0"
0h
0i
#640000
1"
1h
#650000
0"
0h
1i
#660000
1"
1h
#670000
0"
0h
0i
#680000
1"
1h
#690000
0"
0h
1i
#700000
1"
1h
#710000
0"
0h
0i
#720000
1"
1h
#730000
0"
0h
1i
#740000
1"
1h
#750000
0"
0h
0i
#760000
1"
1h
#770000
0"
0h
1i
#780000
1"
1h
#790000
0"
0h
0i
#800000
1"
1h
#810000
0"
0h
1i
#820000
1"
1h
#830000
0"
0h
0i
#840000
1"
1h
#850000
0"
0h
1i
#860000
1"
1h
#870000
0"
0h
0i
#880000
1"
1h
#890000
0"
0h
1i
#900000
1"
1h
#910000
0"
0h
0i
#920000
1"
1h
#930000
0"
0h
1i
#940000
1"
1h
#950000
0"
0h
0i
#960000
1"
1h
#970000
0"
0h
1i
#980000
1"
1h
#990000
0"
0h
0i
#1000000
1"
1h
#1010000
0"
0h
1i
#1020000
1"
1h
#1030000
0"
0h
0i
#1040000
1"
1h
#1050000
0"
0h
1i
#1060000
1"
1h
#1070000
0"
0h
0i
#1080000
1"
1h
#1090000
0"
0h
1i
#1100000
1"
1h
#1110000
0"
0h
0i
#1120000
1"
1h
#1130000
0"
0h
1i
#1140000
1"
1h
#1150000
0"
0h
0i
#1160000
1"
1h
#1170000
0"
0h
1i
#1180000
1"
1h
#1190000
0"
0h
0i
#1200000
1"
1h
#1210000
0"
0h
1i
#1220000
1"
1h
#1230000
0"
0h
0i
#1240000
1"
1h
#1250000
0"
0h
1i
#1260000
1"
1h
#1270000
0"
0h
0i
#1280000
1"
1h
#1290000
0"
0h
1i
#1300000
1"
1h
#1310000
0"
0h
0i
#1320000
1"
1h
#1330000
0"
0h
1i
#1340000
1"
1h
#1350000
0"
0h
0i
#1360000
1"
1h
#1370000
0"
0h
1i
#1380000
1"
1h
#1390000
0"
0h
0i
#1400000
1"
1h
#1410000
0"
0h
1i
#1420000
1"
1h
#1430000
0"
0h
0i
#1440000
1"
1h
#1450000
0"
0h
1i
#1460000
1"
1h
#1470000
0"
0h
0i
#1480000
1"
1h
#1490000
0"
0h
1i
#1500000
1"
1h
#1510000
0"
0h
0i
#1520000
1"
1h
#1530000
0"
0h
1i
#1540000
1"
1h
#1550000
0"
0h
0i
#1560000
1"
1h
#1570000
0"
0h
1i
#1580000
1"
1h
#1590000
0"
0h
0i
#1600000
1"
1h
#1610000
0"
0h
1i
#1620000
1"
1h
#1630000
0"
0h
0i
#1640000
1"
1h
#1650000
0"
0h
1i
#1660000
1"
1h
#1670000
0"
0h
0i
#1680000
1"
1h
#1690000
0"
0h
1i
#1700000
1"
1h
#1710000
0"
0h
0i
#1720000
1"
1h
#1730000
0"
0h
1i
#1740000
1"
1h
#1750000
0"
0h
0i
#1760000
1"
1h
#1770000
0"
0h
1i
#1780000
1"
1h
#1790000
0"
0h
0i
#1800000
1"
1h
#1810000
0"
0h
1i
#1820000
1"
1h
#1830000
0"
0h
0i
#1840000
1"
1h
#1850000
0"
0h
1i
#1860000
1"
1h
#1870000
0"
0h
0i
#1880000
1"
1h
#1890000
0"
0h
1i
#1900000
1"
1h
#1910000
0"
0h
0i
#1920000
1"
1h
#1930000
0"
0h
1i
#1940000
1"
1h
#1950000
0"
0h
0i
#1960000
1"
1h
#1970000
0"
0h
1i
#1980000
1"
1h
#1990000
0"
0h
0i
#2000000
1"
1h
#2010000
0"
0h
1i
#2020000
1"
1h
#2030000
0"
0h
0i
#2040000
1"
1h
#2050000
0"
0h
1i
#2060000
1"
1h
#2070000
0"
0h
0i
#2080000
1"
1h
#2090000
0"
0h
1i
#2100000
1"
1h
#2110000
0"
0h
0i
#2120000
1"
1h
#2130000
0"
0h
1i
#2140000
1"
1h
#2150000
0"
0h
0i
#2160000
1"
1h
#2170000
0"
0h
1i
#2180000
1"
1h
#2190000
0"
0h
0i
#2200000
1"
1h
#2210000
0"
0h
1i
#2220000
1"
1h
#2230000
0"
0h
0i
#2240000
1"
1h
#2250000
0"
0h
1i
#2260000
1"
1h
#2270000
0"
0h
0i
#2280000
1"
1h
#2290000
0"
0h
1i
#2300000
1"
1h
#2310000
0"
0h
0i
#2320000
1"
1h
#2330000
0"
0h
1i
#2340000
1"
1h
#2350000
0"
0h
0i
#2360000
1"
1h
#2370000
0"
0h
1i
#2380000
1"
1h
#2390000
0"
0h
0i
#2400000
1"
1h
#2410000
0"
0h
1i
#2420000
1"
1h
#2430000
0"
0h
0i
#2440000
1"
1h
#2450000
0"
0h
1i
#2460000
1"
1h
#2470000
0"
0h
0i
#2480000
1"
1h
#2490000
0"
0h
1i
#2500000
1"
1h
#2510000
0"
0h
0i
#2520000
1"
1h
#2530000
0"
0h
1i
#2540000
1"
1h
#2550000
0"
0h
0i
#2560000
1"
1h
#2570000
0"
0h
1i
#2580000
1"
1h
#2590000
0"
0h
0i
#2600000
1"
1h
#2610000
0"
0h
1i
#2620000
1"
1h
#2630000
0"
0h
0i
#2640000
1"
1h
#2650000
0"
0h
1i
#2660000
1"
1h
#2670000
0"
0h
0i
#2680000
1"
1h
#2690000
0"
0h
1i
#2700000
1"
1h
#2710000
0"
0h
0i
#2720000
1"
1h
#2730000
0"
0h
1i
#2740000
1"
1h
#2750000
0"
0h
0i
#2760000
1"
1h
#2770000
0"
0h
1i
#2780000
1"
1h
#2790000
0"
0h
0i
#2800000
1"
1h
#2810000
0"
0h
1i
#2820000
1"
1h
#2830000
0"
0h
0i
#2840000
1"
1h
#2850000
0"
0h
1i
#2860000
1"
1h
#2870000
0"
0h
0i
#2880000
1"
1h
#2890000
0"
0h
1i
#2900000
1"
1h
#2910000
0"
0h
0i
#2920000
1"
1h
#2930000
0"
0h
1i
#2940000
1"
1h
#2950000
0"
0h
0i
#2960000
1"
1h
#2970000
0"
0h
1i
#2980000
1"
1h
#2990000
0"
0h
0i
#3000000
1"
1h
#3010000
0"
0h
1i
#3020000
1"
1h
#3030000
0"
0h
0i
#3040000
1"
1h
#3050000
0"
0h
1i
#3060000
1"
1h
#3070000
0"
0h
0i
#3080000
1"
1h
#3090000
0"
0h
1i
#3100000
1"
1h
#3110000
0"
0h
0i
#3120000
1"
1h
#3130000
0"
0h
1i
#3140000
1"
1h
#3150000
0"
0h
0i
#3160000
1"
1h
#3170000
0"
0h
1i
#3180000
1"
1h
#3190000
0"
0h
0i
#3200000
1"
1h
#3210000
0"
0h
1i
#3220000
1"
1h
#3230000
0"
0h
0i
#3240000
1"
1h
#3250000
0"
0h
1i
#3260000
1"
1h
#3270000
0"
0h
0i
#3280000
1"
1h
#3290000
0"
0h
1i
#3300000
1"
1h
#3310000
0"
0h
0i
#3320000
1"
1h
#3330000
0"
0h
1i
#3340000
1"
1h
#3350000
0"
0h
0i
#3360000
1"
1h
#3370000
0"
0h
1i
#3380000
1"
1h
#3390000
0"
0h
0i
#3400000
1"
1h
#3410000
0"
0h
1i
#3420000
1"
1h
#3430000
0"
0h
0i
#3440000
1"
1h
#3450000
0"
0h
1i
#3460000
1"
1h
#3470000
0"
0h
0i
#3480000
1"
1h
#3490000
0"
0h
1i
#3500000
1"
1h
#3510000
0"
0h
0i
#3520000
1"
1h
#3530000
0"
0h
1i
#3540000
1"
1h
#3550000
0"
0h
0i
#3560000
1"
1h
#3570000
0"
0h
1i
#3580000
1"
1h
#3590000
0"
0h
0i
#3600000
1"
1h
#3610000
0"
0h
1i
#3620000
1"
1h
#3630000
0"
0h
0i
#3640000
1"
1h
#3650000
0"
0h
1i
#3660000
1"
1h
#3670000
0"
0h
0i
#3680000
1"
1h
#3690000
0"
0h
1i
#3700000
1"
1h
#3710000
0"
0h
0i
#3720000
1"
1h
#3730000
0"
0h
1i
#3740000
1"
1h
#3750000
0"
0h
0i
#3760000
1"
1h
#3770000
0"
0h
1i
#3780000
1"
1h
#3790000
0"
0h
0i
#3800000
1"
1h
#3810000
0"
0h
1i
#3820000
1"
1h
#3830000
0"
0h
0i
#3840000
1"
1h
#3850000
0"
0h
1i
#3860000
1"
1h
#3870000
0"
0h
0i
#3880000
1"
1h
#3890000
0"
0h
1i
#3900000
1"
1h
#3910000
0"
0h
0i
#3920000
1"
1h
#3930000
0"
0h
1i
#3940000
1"
1h
#3950000
0"
0h
0i
#3960000
1"
1h
#3970000
0"
0h
1i
#3980000
1"
1h
#3990000
0"
0h
0i
#4000000
1"
1h
#4010000
0"
0h
1i
#4020000
1"
1h
#4030000
0"
0h
0i
#4040000
1"
1h
#4050000
0"
0h
1i
#4060000
1"
1h
#4070000
0"
0h
0i
#4080000
1"
1h
#4090000
0"
0h
1i
#4100000
1"
1h
#4110000
0"
0h
0i
#4120000
1"
1h
#4130000
0"
0h
1i
#4140000
1"
1h
#4150000
0"
0h
0i
#4160000
1"
1h
#4170000
0"
0h
1i
#4180000
1"
1h
#4190000
0"
0h
0i
#4200000
1"
1h
#4210000
0"
0h
1i
#4220000
1"
1h
#4230000
0"
0h
0i
#4240000
1"
1h
#4250000
0"
0h
1i
#4260000
1"
1h
#4270000
0"
0h
0i
#4280000
1"
1h
#4290000
0"
0h
1i
#4300000
1"
1h
#4310000
0"
0h
0i
#4320000
1"
1h
#4330000
0"
0h
1i
#4340000
1"
1h
#4350000
0"
0h
0i
#4360000
1"
1h
#4370000
0"
0h
1i
#4380000
1"
1h
#4390000
0"
0h
0i
#4400000
1"
1h
#4410000
0"
0h
1i
#4420000
1"
1h
#4430000
0"
0h
0i
#4440000
1"
1h
#4450000
0"
0h
1i
#4460000
1"
1h
#4470000
0"
0h
0i
#4480000
1"
1h
#4490000
0"
0h
1i
#4500000
1"
1h
#4510000
0"
0h
0i
#4520000
1"
1h
#4530000
0"
0h
1i
#4540000
1"
1h
#4550000
0"
0h
0i
#4560000
1"
1h
#4570000
0"
0h
1i
#4580000
1"
1h
#4590000
0"
0h
0i
#4600000
1"
1h
#4610000
0"
0h
1i
#4620000
1"
1h
#4630000
0"
0h
0i
#4640000
1"
1h
#4650000
0"
0h
1i
#4660000
1"
1h
#4670000
0"
0h
0i
#4680000
1"
1h
#4690000
0"
0h
1i
#4700000
1"
1h
#4710000
0"
0h
0i
#4720000
1"
1h
#4730000
0"
0h
1i
#4740000
1"
1h
#4750000
0"
0h
0i
#4760000
1"
1h
#4770000
0"
0h
1i
#4780000
1"
1h
#4790000
0"
0h
0i
#4800000
1"
1h
#4810000
0"
0h
1i
#4820000
1"
1h
#4830000
0"
0h
0i
#4840000
1"
1h
#4850000
0"
0h
1i
#4860000
1"
1h
#4870000
0"
0h
0i
#4880000
1"
1h
#4890000
0"
0h
1i
#4900000
1"
1h
#4910000
0"
0h
0i
#4920000
1"
1h
#4930000
0"
0h
1i
#4940000
1"
1h
#4950000
0"
0h
0i
#4960000
1"
1h
#4970000
0"
0h
1i
#4980000
1"
1h
#4990000
0"
0h
0i
#5000000
1"
1h
#5010000
0"
0h
1i
#5020000
1"
1h
#5030000
0"
0h
0i
#5040000
1"
1h
#5050000
0"
0h
1i
#5060000
1"
1h
#5070000
0"
0h
0i
#5080000
1"
1h
#5090000
0"
0h
1i
#5100000
1"
1h
#5110000
0"
0h
0i
#5120000
1"
1h
#5130000
0"
0h
1i
#5140000
1"
1h
#5150000
0"
0h
0i
#5160000
1"
1h
#5170000
0"
0h
1i
#5180000
1"
1h
#5190000
0"
0h
0i
#5200000
1"
1h
#5210000
0"
0h
1i
#5220000
1"
1h
#5230000
0"
0h
0i
#5240000
1"
1h
#5250000
0"
0h
1i
#5260000
1"
1h
#5270000
0"
0h
0i
#5280000
1"
1h
#5290000
0"
0h
1i
#5300000
1"
1h
#5310000
0"
0h
0i
#5320000
1"
1h
#5330000
0"
0h
1i
#5340000
1"
1h
#5350000
0"
0h
0i
#5360000
1"
1h
#5370000
0"
0h
1i
#5380000
1"
1h
#5390000
0"
0h
0i
#5400000
1"
1h
#5410000
0"
0h
1i
#5420000
1"
1h
#5430000
0"
0h
0i
#5440000
1"
1h
#5450000
0"
0h
1i
#5460000
1"
1h
#5470000
0"
0h
0i
#5480000
1"
1h
#5490000
0"
0h
1i
#5500000
1"
1h
#5510000
0"
0h
0i
#5520000
1"
1h
#5530000
0"
0h
1i
#5540000
1"
1h
#5550000
0"
0h
0i
#5560000
1"
1h
#5570000
0"
0h
1i
#5580000
1"
1h
#5590000
0"
0h
0i
#5600000
1"
1h
#5610000
0"
0h
1i
#5620000
1"
1h
#5630000
0"
0h
0i
#5640000
1"
1h
#5650000
0"
0h
1i
#5660000
1"
1h
#5670000
0"
0h
0i
#5680000
1"
1h
#5690000
0"
0h
1i
#5700000
1"
1h
#5710000
0"
0h
0i
#5720000
1"
1h
#5730000
0"
0h
1i
#5740000
1"
1h
#5750000
0"
0h
0i
#5760000
1"
1h
#5770000
0"
0h
1i
#5780000
1"
1h
#5790000
0"
0h
0i
#5800000
1"
1h
#5810000
0"
0h
1i
#5820000
1"
1h
#5830000
0"
0h
0i
#5840000
1"
1h
#5850000
0"
0h
1i
#5860000
1"
1h
#5870000
0"
0h
0i
#5880000
1"
1h
#5890000
0"
0h
1i
#5900000
1"
1h
#5910000
0"
0h
0i
#5920000
1"
1h
#5930000
0"
0h
1i
#5940000
1"
1h
#5950000
0"
0h
0i
#5960000
1"
1h
#5970000
0"
0h
1i
#5980000
1"
1h
#5990000
0"
0h
0i
#6000000
1"
1h
#6010000
0"
0h
1i
#6020000
1"
1h
#6030000
0"
0h
0i
#6040000
1"
1h
#6050000
0"
0h
1i
#6060000
1"
1h
#6070000
0"
0h
0i
#6080000
1"
1h
#6090000
0"
0h
1i
#6100000
1"
1h
#6110000
0"
0h
0i
#6120000
1"
1h
#6130000
0"
0h
1i
#6140000
1"
1h
#6150000
0"
0h
0i
#6160000
1"
1h
#6170000
0"
0h
1i
#6180000
1"
1h
#6190000
0"
0h
0i
#6200000
1"
1h
#6210000
0"
0h
1i
#6220000
1"
1h
#6230000
0"
0h
0i
#6240000
1"
1h
#6250000
0"
0h
1i
#6260000
1"
1h
#6270000
0"
0h
0i
#6280000
1"
1h
#6290000
0"
0h
1i
#6300000
1"
1h
#6310000
0"
0h
0i
#6320000
1"
1h
#6330000
0"
0h
1i
#6340000
1"
1h
#6350000
0"
0h
0i
#6360000
1"
1h
#6370000
0"
0h
1i
#6380000
1"
1h
#6390000
0"
0h
0i
#6400000
1"
1h
#6410000
0"
0h
1i
#6420000
1"
1h
#6430000
0"
0h
0i
#6440000
1"
1h
#6450000
0"
0h
1i
#6460000
1"
1h
#6470000
0"
0h
0i
#6480000
1"
1h
#6490000
0"
0h
1i
#6500000
1"
1h
#6510000
0"
0h
0i
#6520000
1"
1h
#6530000
0"
0h
1i
#6540000
1"
1h
#6550000
0"
0h
0i
#6560000
1"
1h
#6570000
0"
0h
1i
#6580000
1"
1h
#6590000
0"
0h
0i
#6600000
1"
1h
#6610000
0"
0h
1i
#6620000
1"
1h
#6630000
0"
0h
0i
#6640000
1"
1h
#6650000
0"
0h
1i
#6660000
1"
1h
#6670000
0"
0h
0i
#6680000
1"
1h
#6690000
0"
0h
1i
#6700000
1"
1h
#6710000
0"
0h
0i
#6720000
1"
1h
#6730000
0"
0h
1i
#6740000
1"
1h
#6750000
0"
0h
0i
#6760000
1"
1h
#6770000
0"
0h
1i
#6780000
1"
1h
#6790000
0"
0h
0i
#6800000
1"
1h
#6810000
0"
0h
1i
#6820000
1"
1h
#6830000
0"
0h
0i
#6840000
1"
1h
#6850000
0"
0h
1i
#6860000
1"
1h
#6870000
0"
0h
0i
#6880000
1"
1h
#6890000
0"
0h
1i
#6900000
1"
1h
#6910000
0"
0h
0i
#6920000
1"
1h
#6930000
0"
0h
1i
#6940000
1"
1h
#6950000
0"
0h
0i
#6960000
1"
1h
#6970000
0"
0h
1i
#6980000
1"
1h
#6990000
0"
0h
0i
#7000000
1"
1h
#7010000
0"
0h
1i
#7020000
1"
1h
#7030000
0"
0h
0i
#7040000
1"
1h
#7050000
0"
0h
1i
#7060000
1"
1h
#7070000
0"
0h
0i
#7080000
1"
1h
#7090000
0"
0h
1i
#7100000
1"
1h
#7110000
0"
0h
0i
#7120000
1"
1h
#7130000
0"
0h
1i
#7140000
1"
1h
#7150000
0"
0h
0i
#7160000
1"
1h
#7170000
0"
0h
1i
#7180000
1"
1h
#7190000
0"
0h
0i
#7200000
1"
1h
#7210000
0"
0h
1i
#7220000
1"
1h
#7230000
0"
0h
0i
#7240000
1"
1h
#7250000
0"
0h
1i
#7260000
1"
1h
#7270000
0"
0h
0i
#7280000
1"
1h
#7290000
0"
0h
1i
#7300000
1"
1h
#7310000
0"
0h
0i
#7320000
1"
1h
#7330000
0"
0h
1i
#7340000
1"
1h
#7350000
0"
0h
0i
#7360000
1"
1h
#7370000
0"
0h
1i
#7380000
1"
1h
#7390000
0"
0h
0i
#7400000
1"
1h
#7410000
0"
0h
1i
#7420000
1"
1h
#7430000
0"
0h
0i
#7440000
1"
1h
#7450000
0"
0h
1i
#7460000
1"
1h
#7470000
0"
0h
0i
#7480000
1"
1h
#7490000
0"
0h
1i
#7500000
1"
1h
#7510000
0"
0h
0i
#7520000
1"
1h
#7530000
0"
0h
1i
#7540000
1"
1h
#7550000
0"
0h
0i
#7560000
1"
1h
#7570000
0"
0h
1i
#7580000
1"
1h
#7590000
0"
0h
0i
#7600000
1"
1h
#7610000
0"
0h
1i
#7620000
1"
1h
#7630000
0"
0h
0i
#7640000
1"
1h
#7650000
0"
0h
1i
#7660000
1"
1h
#7670000
0"
0h
0i
#7680000
1"
1h
#7690000
0"
0h
1i
#7700000
1"
1h
#7710000
0"
0h
0i
#7720000
1"
1h
#7730000
0"
0h
1i
#7740000
1"
1h
#7750000
0"
0h
0i
#7760000
1"
1h
#7770000
0"
0h
1i
#7780000
1"
1h
#7790000
0"
0h
0i
#7800000
1"
1h
#7810000
0"
0h
1i
#7820000
1"
1h
#7830000
0"
0h
0i
#7840000
1"
1h
#7850000
0"
0h
1i
#7860000
1"
1h
#7870000
0"
0h
0i
#7880000
1"
1h
#7890000
0"
0h
1i
#7900000
1"
1h
#7910000
0"
0h
0i
#7920000
1"
1h
#7930000
0"
0h
1i
#7940000
1"
1h
#7950000
0"
0h
0i
#7960000
1"
1h
#7970000
0"
0h
1i
#7980000
1"
1h
#7990000
0"
0h
0i
#8000000
1"
1h
#8010000
0"
0h
1i
#8020000
1"
1h
