simulation/qsim/MI-CircuitosDigitais-Problema-3.msim.vcd
$comment
	File created using the following command:
		vcd file MI-CircuitosDigitais-Problema-3.msim.vcd -direction
$end
$date
	Tue Jan 16 15:24:59 2024
$end
$version
	ModelSim Version 10.5b
$end
$timescale
	1ps
$end

$scope module modulo_valor_minimo_rolhas_vlg_vec_tst $end
$var reg 7 ! reg_data [6:0] $end
$var wire 1 " min_signal $end

$scope module i1 $end
$var wire 1 # gnd $end
$var wire 1 $ vcc $end
$var wire 1 % unknown $end
$var tri1 1 & devclrn $end
$var tri1 1 ' devpor $end
$var tri1 1 ( devoe $end
$var wire 1 ) gate_3|S~0_combout $end
$var wire 1 * gate_3|S~1_combout $end
$var wire 1 + reg_data~combout [6] $end
$var wire 1 , reg_data~combout [5] $end
$var wire 1 - reg_data~combout [4] $end
$var wire 1 . reg_data~combout [3] $end
$var wire 1 / reg_data~combout [2] $end
$var wire 1 0 reg_data~combout [1] $end
$var wire 1 1 reg_data~combout [0] $end
$upscope $end
$upscope $end
$enddefinitions $end
#0
$dumpvars
b0 !
1"
0#
1$
x%
1&
1'
1(
1)
1*
z1
00
0/
0.
0-
0,
0+
$end
#10000
b1 !
#20000
b11 !
b10 !
10
#30000
b11 !
#40000
b111 !
b101 !
b100 !
00
1/
#50000
b101 !
#60000
b111 !
b110 !
10
0)
0*
0"
#70000
b111 !
#80000
b1111 !
b1011 !
b1001 !
b1000 !
00
0/
1.
#90000
b1001 !
#100000
b1011 !
b1010 !
10
#110000
b1011 !
#120000
b1111 !
b1101 !
b1100 !
00
1/
#130000
b1101 !
#140000
b1111 !
b1110 !
10
#150000
b1111 !
#160000
b11111 !
b10111 !
b10011 !
b10001 !
b10000 !
00
0/
0.
1-
#170000
b10001 !
#180000
b10011 !
b10010 !
10
#190000
b10011 !
#200000
b10111 !
b10101 !
b10100 !
00
1/
#210000
b10101 !
#220000
b10111 !
b10110 !
10
#230000
b10111 !
#240000
b11111 !
b11011 !
b11001 !
b11000 !
00
0/
1.
#250000
b11001 !
#260000
b11011 !
b11010 !
10
#270000
b11011 !
#280000
b11111 !
b11101 !
b11100 !
00
1/
#290000
b11101 !
#300000
b11111 !
b11110 !
10
#310000
b11111 !
#320000
b111111 !
b101111 !
b100111 !
b100011 !
b100001 !
b100000 !
00
0/
0.
0-
1,
1)
#330000
b100001 !
#340000
b100011 !
b100010 !
10
#350000
b100011 !
#360000
b100111 !
b100101 !
b100100 !
00
1/
#370000
b100101 !
#380000
b100111 !
b100110 !
10
0)
#390000
b100111 !
#400000
b101111 !
b101011 !
b101001 !
b101000 !
00
0/
1.
#410000
b101001 !
#420000
b101011 !
b101010 !
10
#430000
b101011 !
#440000
b101111 !
b101101 !
b101100 !
00
1/
#450000
b101101 !
#460000
b101111 !
b101110 !
10
#470000
b101111 !
#480000
b111111 !
b110111 !
b110011 !
b110001 !
b110000 !
00
0/
0.
1-
#490000
b110001 !
#500000
b110011 !
b110010 !
10
#510000
b110011 !
#520000
b110111 !
b110101 !
b110100 !
00
1/
#530000
b110101 !
#540000
b110111 !
b110110 !
10
#550000
b110111 !
#560000
b111111 !
b111011 !
b111001 !
b111000 !
00
0/
1.
#570000
b111001 !
#580000
b111011 !
b111010 !
10
#590000
b111011 !
#600000
b111111 !
b111101 !
b111100 !
00
1/
#610000
b111101 !
#620000
b111111 !
b111110 !
10
#630000
b111111 !
#640000
b1111111 !
b1011111 !
b1001111 !
b1000111 !
b1000011 !
b1000001 !
b1000000 !
00
0/
0.
0-
0,
1+
1)
#650000
b1000001 !
#660000
b1000011 !
b1000010 !
10
#670000
b1000011 !
#680000
b1000111 !
b1000101 !
b1000100 !
00
1/
#690000
b1000101 !
#700000
b1000111 !
b1000110 !
10
0)
#710000
b1000111 !
#720000
b1001111 !
b1001011 !
b1001001 !
b1001000 !
00
0/
1.
#730000
b1001001 !
#740000
b1001011 !
b1001010 !
10
#750000
b1001011 !
#760000
b1001111 !
b1001101 !
b1001100 !
00
1/
#770000
b1001101 !
#780000
b1001111 !
b1001110 !
10
#790000
b1001111 !
#800000
b1011111 !
b1010111 !
b1010011 !
b1010001 !
b1010000 !
00
0/
0.
1-
#810000
b1010001 !
#820000
b1010011 !
b1010010 !
10
#830000
b1010011 !
#840000
b1010111 !
b1010101 !
b1010100 !
00
1/
#850000
b1010101 !
#860000
b1010111 !
b1010110 !
10
#870000
b1010111 !
#880000
b1011111 !
b1011011 !
b1011001 !
b1011000 !
00
0/
1.
#890000
b1011001 !
#900000
b1011011 !
b1011010 !
10
#910000
b1011011 !
#920000
b1011111 !
b1011101 !
b1011100 !
00
1/
#930000
b1011101 !
#940000
b1011111 !
b1011110 !
10
#950000
b1011111 !
#960000
b1111111 !
b1101111 !
b1100111 !
b1100011 !
b1100001 !
b1100000 !
00
0/
0.
0-
1,
1)
#970000
b1100001 !
#980000
b1100011 !
b1100010 !
10
#990000
b1100011 !
#1000000
b1100111 !
b1100101 !
b1100100 !
00
1/
#1010000
b1100101 !
#1020000
b1100111 !
b1100110 !
10
0)
#1030000
b1100111 !
#1040000
b1101111 !
b1101011 !
b1101001 !
b1101000 !
00
0/
1.
#1050000
b1101001 !
#1060000
b1101011 !
b1101010 !
10
#1070000
b1101011 !
#1080000
b1101111 !
b1101101 !
b1101100 !
00
1/
#1090000
b1101101 !
#1100000
b1101111 !
b1101110 !
10
#1110000
b1101111 !
#1120000
b1111111 !
b1110111 !
b1110011 !
b1110001 !
b1110000 !
00
0/
0.
1-
#1130000
b1110001 !
#1140000
b1110011 !
b1110010 !
10
#1150000
b1110011 !
#1160000
b1110111 !
b1110101 !
b1110100 !
00
1/
#1170000
b1110101 !
#1180000
b1110111 !
b1110110 !
10
#1190000
b1110111 !
#1200000
b1111111 !
b1111011 !
b1111001 !
b1111000 !
00
0/
1.
#1210000
b1111001 !
#1220000
b1111011 !
b1111010 !
10
#1230000
b1111011 !
#1240000
b1111111 !
b1111101 !
b1111100 !
00
1/
#1250000
b1111101 !
#1260000
b1111111 !
b1111110 !
10
#1270000
b1111111 !
