simulation/qsim/MI-CircuitosDigitais-Problema-3.msim.vcd
$comment
	File created using the following command:
		vcd file MI-CircuitosDigitais-Problema-3.msim.vcd -direction
$end
$date
	Mon Feb 19 14:09:18 2024
$end
$version
	ModelSim Version 10.5b
$end
$timescale
	1ps
$end

$scope module pbl_vlg_vec_tst $end
$var reg 1 ! ch $end
$var reg 1 " clock_50mhz $end
$var reg 1 # cq $end
$var reg 1 $ op_c_deboucing $end
$var reg 1 % op_deboucing $end
$var reg 1 & pg $end
$var reg 1 ' start_stop $end
$var wire 1 ( Nac_7segmentos [3] $end
$var wire 1 ) Nac_7segmentos [2] $end
$var wire 1 * Nac_7segmentos [1] $end
$var wire 1 + Nac_7segmentos [0] $end
$var wire 1 , Nal $end
$var wire 1 - Nout_7seg [7] $end
$var wire 1 . Nout_7seg [6] $end
$var wire 1 / Nout_7seg [5] $end
$var wire 1 0 Nout_7seg [4] $end
$var wire 1 1 Nout_7seg [3] $end
$var wire 1 2 Nout_7seg [2] $end
$var wire 1 3 Nout_7seg [1] $end
$var wire 1 4 Nout_7seg [0] $end
$var wire 1 5 al $end
$var wire 1 6 ev $end
$var wire 1 7 m $end
$var wire 1 8 mef_estado [1] $end
$var wire 1 9 mef_estado [0] $end
$var wire 1 : test_buffer_principal [4] $end
$var wire 1 ; test_buffer_principal [3] $end
$var wire 1 < test_buffer_principal [2] $end
$var wire 1 = test_buffer_principal [1] $end
$var wire 1 > test_buffer_principal [0] $end
$var wire 1 ? test_buffer_secundario [6] $end
$var wire 1 @ test_buffer_secundario [5] $end
$var wire 1 A test_buffer_secundario [4] $end
$var wire 1 B test_buffer_secundario [3] $end
$var wire 1 C test_buffer_secundario [2] $end
$var wire 1 D test_buffer_secundario [1] $end
$var wire 1 E test_buffer_secundario [0] $end
$var wire 1 F test_buffer_secundario_controle_min_rolhas [4] $end
$var wire 1 G test_buffer_secundario_controle_min_rolhas [3] $end
$var wire 1 H test_buffer_secundario_controle_min_rolhas [2] $end
$var wire 1 I test_buffer_secundario_controle_min_rolhas [1] $end
$var wire 1 J test_buffer_secundario_controle_min_rolhas [0] $end
$var wire 1 K test_buffer_secundario_controle_operador [6] $end
$var wire 1 L test_buffer_secundario_controle_operador [5] $end
$var wire 1 M test_buffer_secundario_controle_operador [4] $end
$var wire 1 N test_buffer_secundario_controle_operador [3] $end
$var wire 1 O test_buffer_secundario_controle_operador [2] $end
$var wire 1 P test_buffer_secundario_controle_operador [1] $end
$var wire 1 Q test_buffer_secundario_controle_operador [0] $end
$var wire 1 R ve $end

$scope module i1 $end
$var wire 1 S gnd $end
$var wire 1 T vcc $end
$var wire 1 U unknown $end
$var tri1 1 V devclrn $end
$var tri1 1 W devpor $end
$var tri1 1 X devoe $end
$var wire 1 Y registrador_2|ff_1|q~regout $end
$var wire 1 Z comb_50|somador_subtrator_2|gate_5|WideOr0~30 $end
$var wire 1 [ cq~combout $end
$var wire 1 \ clock_50mhz~combout $end
$var wire 1 ] divisor_f|ff_1|q~regout $end
$var wire 1 ^ divisor_f|ff_2|q~regout $end
$var wire 1 _ divisor_f|ff_3|q~regout $end
$var wire 1 ` start_stop~combout $end
$var wire 1 a ch~combout $end
$var wire 1 b mef_1|jk_1|q~regout $end
$var wire 1 c mef_1|jk_2|q~0_combout $end
$var wire 1 d comb_81|jk_1|q~regout $end
$var wire 1 e op_c_deboucing~combout $end
$var wire 1 f contador_entrada_rolhas|ff_1|q~regout $end
$var wire 1 g registrador_1|ff_7|q~regout $end
$var wire 1 h registrador_2|ff_7|q~regout $end
$var wire 1 i contador_3_buffer_secundario_controle_operador|gate_33|comb~0_combout $end
$var wire 1 j contador_3_buffer_secundario_controle_operador|ff_1|q~0_combout $end
$var wire 1 k contador_3_buffer_secundario_controle_operador|ff_1|q_bar~regout $end
$var wire 1 l contador_3_buffer_secundario_controle_operador|ff_2|q_bar~0_combout $end
$var wire 1 m contador_entrada_rolhas|ff_2|q~regout $end
$var wire 1 n comb_50|somador_subtrator_1|gate_8|WideAnd0 $end
$var wire 1 o registrador_1|ff_6|q~regout $end
$var wire 1 p comb_50|somador_subtrator_2|gate_5|WideOr0~32_cout0 $end
$var wire 1 q comb_50|somador_subtrator_2|gate_5|WideOr0~32COUT1_36 $end
$var wire 1 r registrador_2|ff_6|q~regout $end
$var wire 1 s contador_3_buffer_secundario_controle_operador|gate_32|comb~0_combout $end
$var wire 1 t contador_3_buffer_secundario_controle_operador|ff_2|q~0_combout $end
$var wire 1 u contador_3_buffer_secundario_controle_operador|ff_2|q_bar~regout $end
$var wire 1 v contador_3_buffer_secundario_controle_operador|ff_2|q_bar~1_combout $end
$var wire 1 w enable_buffer_secundario~0_combout $end
$var wire 1 x contador_1_buffer_secundario|ff_2|q_bar~regout $end
$var wire 1 y contador_1_buffer_secundario|gate_4|S~combout $end
$var wire 1 z contador_1_buffer_secundario|ff_3|q~0_combout $end
$var wire 1 { contador_1_buffer_secundario|ff_3|q~regout $end
$var wire 1 | registrador_1|ff_5|q~regout $end
$var wire 1 } contador_entrada_rolhas|ff_3|q~regout $end
$var wire 1 ~ comb_50|somador_subtrator_2|gate_5|WideOr0~2 $end
$var wire 1 !! comb_50|somador_subtrator_2|gate_5|WideOr0~2COUT1_37 $end
$var wire 1 "! comb_50|somador_subtrator_2|gate_5|WideOr0~5_combout $end
$var wire 1 #! registrador_2|ff_5|q~regout $end
$var wire 1 $! contador_3_buffer_secundario_controle_operador|gate_31|comb~0_combout $end
$var wire 1 %! contador_3_buffer_secundario_controle_operador|ff_3|q~0 $end
$var wire 1 &! contador_3_buffer_secundario_controle_operador|ff_3|q_bar~regout $end
$var wire 1 '! contador_3_buffer_secundario_controle_operador|ff_4|q_bar~0_combout $end
$var wire 1 (! registrador_1|ff_4|q~regout $end
$var wire 1 )! contador_entrada_rolhas|ff_4|q~regout $end
$var wire 1 *! comb_50|somador_subtrator_2|gate_5|WideOr0~7 $end
$var wire 1 +! comb_50|somador_subtrator_2|gate_5|WideOr0~7COUT1_38 $end
$var wire 1 ,! comb_50|somador_subtrator_2|gate_5|WideOr0~10_combout $end
$var wire 1 -! registrador_2|ff_4|q~regout $end
$var wire 1 .! contador_3_buffer_secundario_controle_operador|gate_30|comb~0_combout $end
$var wire 1 /! contador_3_buffer_secundario_controle_operador|ff_4|q~0 $end
$var wire 1 0! contador_3_buffer_secundario_controle_operador|ff_4|q_bar~regout $end
$var wire 1 1! contador_3_buffer_secundario_controle_operador|ff_5|q_bar~0_combout $end
$var wire 1 2! contador_1_buffer_secundario|ff_3|q_bar~regout $end
$var wire 1 3! contador_1_buffer_secundario|gate_8|S~combout $end
$var wire 1 4! contador_1_buffer_secundario|ff_5|q~0_combout $end
$var wire 1 5! contador_1_buffer_secundario|ff_5|q~regout $end
$var wire 1 6! registrador_1|ff_3|q~regout $end
$var wire 1 7! contador_entrada_rolhas|gate_3|S~combout $end
$var wire 1 8! contador_entrada_rolhas|ff_5|q~regout $end
$var wire 1 9! comb_50|somador_subtrator_2|gate_5|WideOr0~12 $end
$var wire 1 :! comb_50|somador_subtrator_2|gate_5|WideOr0~15_combout $end
$var wire 1 ;! registrador_2|ff_3|q~regout $end
$var wire 1 <! contador_3_buffer_secundario_controle_operador|gate_29|comb~0_combout $end
$var wire 1 =! contador_3_buffer_secundario_controle_operador|ff_5|q~0 $end
$var wire 1 >! contador_3_buffer_secundario_controle_operador|ff_5|q_bar~regout $end
$var wire 1 ?! contador_entrada_rolhas|ff_6|q~regout $end
$var wire 1 @! comb_50|somador_subtrator_2|gate_5|WideOr0~17 $end
$var wire 1 A! comb_50|somador_subtrator_2|gate_5|WideOr0~17COUT1_39 $end
$var wire 1 B! registrador_2|ff_2|q~regout $end
$var wire 1 C! contador_3_buffer_secundario_controle_operador|gate_28|comb~0_combout $end
$var wire 1 D! contador_3_buffer_secundario_controle_operador|ff_6|q~0_combout $end
$var wire 1 E! contador_3_buffer_secundario_controle_operador|ff_6|q_bar~regout $end
$var wire 1 F! contador_1_buffer_secundario|ff_6|q_bar~regout $end
$var wire 1 G! contador_1_buffer_secundario|gate_17|S~0_combout $end
$var wire 1 H! contador_1_buffer_secundario|ff_5|q_bar~regout $end
$var wire 1 I! contador_1_buffer_secundario|gate_15|S~0_combout $end
$var wire 1 J! contador_1_buffer_secundario|gate_19|S~combout $end
$var wire 1 K! contador_1_buffer_secundario|ff_7|q~regout $end
$var wire 1 L! registrador_1|ff_1|q~regout $end
$var wire 1 M! contador_entrada_rolhas|ff_7|q~regout $end
$var wire 1 N! comb_50|somador_subtrator_2|gate_5|WideOr0~22 $end
$var wire 1 O! comb_50|somador_subtrator_2|gate_5|WideOr0~22COUT1_40 $end
$var wire 1 P! comb_50|somador_subtrator_2|gate_5|WideOr0~25_combout $end
$var wire 1 Q! contador_3_buffer_secundario_controle_operador|gate_27|comb~0 $end
$var wire 1 R! comb_81|gate_7|S~0_combout $end
$var wire 1 S! contador_3_buffer_secundario_controle_operador|ff_7|q~regout $end
$var wire 1 T! comb_81|jk_2|Mux0~0_combout $end
$var wire 1 U! comb_81|jk_2|Mux0~1_combout $end
$var wire 1 V! comb_81|jk_2|q~regout $end
$var wire 1 W! contador_1_buffer_secundario|ff_1|q~regout $end
$var wire 1 X! contador_1_buffer_secundario|ff_1|q_bar~regout $end
$var wire 1 Y! contador_1_buffer_secundario|gate_3|S~0_combout $end
$var wire 1 Z! contador_1_buffer_secundario|ff_2|q~regout $end
$var wire 1 [! contador_1_buffer_secundario|gate_10|S~0_combout $end
$var wire 1 \! contador_1_buffer_secundario|ff_4|q~regout $end
$var wire 1 ]! contador_1_buffer_secundario|ff_4|q~2_combout $end
$var wire 1 ^! contador_1_buffer_secundario|ff_4|q_bar~regout $end
$var wire 1 _! contador_1_buffer_secundario|ff_6|q~5_combout $end
$var wire 1 `! contador_1_buffer_secundario|ff_6|q~regout $end
$var wire 1 a! registrador_1|ff_2|q~regout $end
$var wire 1 b! comb_50|somador_subtrator_2|gate_5|WideOr0~20 $end
$var wire 1 c! op_deboucing~combout $end
$var wire 1 d! load_aux[1]~0_combout $end
$var wire 1 e! load_aux[1]~1_combout $end
$var wire 1 f! pulsador_2|ff_1|q~regout $end
$var wire 1 g! pulsador_2|ff_1|nq~regout $end
$var wire 1 h! pulsador_2|Pulse~combout $end
$var wire 1 i! comb_81|gate_7|S~1_combout $end
$var wire 1 j! ff_2|q~regout $end
$var wire 1 k! estado_vedacao~combout $end
$var wire 1 l! WideAnd3~combout $end
$var wire 1 m! comb_80|gate_7|S~0_combout $end
$var wire 1 n! contador_2_buffer_secundario_controle_rolhas|ff_1|q_bar~regout $end
$var wire 1 o! contador_2_buffer_secundario_controle_rolhas|ff_2|q_bar~regout $end
$var wire 1 p! contador_2_buffer_secundario_controle_rolhas|ff_3|q_bar~0_combout $end
$var wire 1 q! contador_2_buffer_secundario_controle_rolhas|ff_3|q_bar~regout $end
$var wire 1 r! contador_2_buffer_secundario_controle_rolhas|ff_3|q_bar~1_combout $end
$var wire 1 s! contador_2_buffer_secundario_controle_rolhas|ff_4|q_bar~regout $end
$var wire 1 t! contador_2_buffer_secundario_controle_rolhas|ff_5|q~regout $end
$var wire 1 u! comb_80|jk_2|Mux0~1_combout $end
$var wire 1 v! contador_4_buffer_principal|ff_1|q~regout $end
$var wire 1 w! contador_4_buffer_principal|ff_1|q_bar~regout $end
$var wire 1 x! contador_4_buffer_principal|ff_2|q~1_combout $end
$var wire 1 y! contador_4_buffer_principal|ff_2|q~regout $end
$var wire 1 z! contador_4_buffer_principal|ff_2|q_bar~regout $end
$var wire 1 {! contador_4_buffer_principal|ff_2|q~0_combout $end
$var wire 1 |! contador_4_buffer_principal|ff_3|q~0_combout $end
$var wire 1 }! contador_4_buffer_principal|ff_3|q~1_combout $end
$var wire 1 ~! contador_4_buffer_principal|ff_3|q~regout $end
$var wire 1 !" contador_4_buffer_principal|ff_3|q_bar~regout $end
$var wire 1 "" contador_4_buffer_principal|ff_4|q~1_combout $end
$var wire 1 #" contador_4_buffer_principal|ff_4|q~0_combout $end
$var wire 1 $" contador_4_buffer_principal|ff_4|q~2_combout $end
$var wire 1 %" contador_4_buffer_principal|ff_4|q~regout $end
$var wire 1 &" WideAnd0~1_combout $end
$var wire 1 '" WideAnd0~2_combout $end
$var wire 1 (" mux_3|gate_4|WideAnd0~0_combout $end
$var wire 1 )" WideAnd0~3 $end
$var wire 1 *" pulsador_1|ff_1|q~regout $end
$var wire 1 +" pulsador_1|ff_1|nq~regout $end
$var wire 1 ," pulsador_1|Pulse~combout $end
$var wire 1 -" comb_80|gate_7|S~1_combout $end
$var wire 1 ." ff_1|q~regout $end
$var wire 1 /" comb_80|jk_2|Mux0~0_combout $end
$var wire 1 0" comb_80|jk_2|q~regout $end
$var wire 1 1" comb_80|jk_1|q~regout $end
$var wire 1 2" enable_buffer_principal~combout $end
$var wire 1 3" contador_4_buffer_principal|ff_4|q_bar~regout $end
$var wire 1 4" contador_4_buffer_principal|ff_5|q~0_combout $end
$var wire 1 5" contador_4_buffer_principal|ff_5|q~regout $end
$var wire 1 6" WideAnd0~0_combout $end
$var wire 1 7" m_aus_rolhas|gate_1|WideOr0~combout $end
$var wire 1 8" pg~combout $end
$var wire 1 9" mef_1|jk_2|q~1_combout $end
$var wire 1 :" mef_1|jk_2|q~regout $end
$var wire 1 ;" gate_1|S~combout $end
$var wire 1 <" contador_duzias|ff_1|q~regout $end
$var wire 1 =" contador_duzias|ff_2|q~regout $end
$var wire 1 >" contador_duzias|ff_3|q~regout $end
$var wire 1 ?" contador_duzias|ff_4|q~regout $end
$var wire 1 @" reset_1|gate_1|S~combout $end
$var wire 1 A" mef_1|gate_11|WideAnd0~0_combout $end
$var wire 1 B" mef_1|gate_10|WideAnd0~combout $end
$var wire 1 C" mef_1|gate_9|WideAnd0~combout $end
$var wire 1 D" mef_1|gate_8|S~0_combout $end
$var wire 1 E" mef_1|gate_8|S~1_combout $end
$var wire 1 F" contador_display|ff_1|q~regout $end
$var wire 1 G" contador_display|ff_2|q~regout $end
$var wire 1 H" mux_2|gate_5|WideOr0~0_combout $end
$var wire 1 I" contador_dezenas_duzias|ff_4|q~regout $end
$var wire 1 J" gate_2|S~combout $end
$var wire 1 K" contador_dezenas_duzias|ff_1|q~regout $end
$var wire 1 L" contador_dezenas_duzias|ff_2|q~regout $end
$var wire 1 M" contador_dezenas_duzias|ff_3|q~regout $end
$var wire 1 N" mux_2|gate_5|WideOr0~1_combout $end
$var wire 1 O" mux_2|gate_4|WideAnd0~4_combout $end
$var wire 1 P" mux_3|gate_3|WideAnd0~0_combout $end
$var wire 1 Q" mux_2|gate_4|WideAnd0~3_combout $end
$var wire 1 R" mux_2|gate_4|WideAnd0~5_combout $end
$var wire 1 S" mux_2|gate_4|WideAnd0~1_combout $end
$var wire 1 T" mux_2|gate_4|WideAnd0~0_combout $end
$var wire 1 U" mux_2|gate_4|WideAnd0~2_combout $end
$var wire 1 V" demux_1|gate_3|WideAnd0~1_combout $end
$var wire 1 W" mux_2|gate_5|WideOr0~2_combout $end
$var wire 1 X" demux_1|gate_3|WideAnd0~0_combout $end
$var wire 1 Y" mux_1|gate_5|WideOr0~0_combout $end
$var wire 1 Z" mux_1|gate_4|WideAnd0~2_combout $end
$var wire 1 [" mux_1|gate_4|WideAnd0~3_combout $end
$var wire 1 \" mux_1|gate_4|WideAnd0~4_combout $end
$var wire 1 ]" mux_1|gate_4|WideAnd0~5_combout $end
$var wire 1 ^" mux_1|gate_4|WideAnd0~8_combout $end
$var wire 1 _" mux_1|gate_4|WideAnd0~6_combout $end
$var wire 1 `" mux_1|gate_4|WideAnd0~7_combout $end
$var wire 1 a" mux_1|gate_5|WideOr0~1_combout $end
$var wire 1 b" mux_1|gate_5|WideOr0~2_combout $end
$var wire 1 c" mux_1|gate_5|WideOr0~3_combout $end
$var wire 1 d" mux_4|gate_3|WideAnd0~0_combout $end
$var wire 1 e" mux_4|gate_3|WideAnd0~2_combout $end
$var wire 1 f" mux_4|gate_3|WideAnd0~1_combout $end
$var wire 1 g" mux_4|gate_3|WideAnd0~3_combout $end
$var wire 1 h" mux_4|gate_3|WideAnd0~4_combout $end
$var wire 1 i" mux_3|gate_4|WideAnd0~1_combout $end
$var wire 1 j" mux_4|gate_3|WideAnd0~5_combout $end
$var wire 1 k" codificador_garrafas_2|gate_1|S~0_combout $end
$var wire 1 l" mux_4|gate_5|WideOr0~0_combout $end
$var wire 1 m" mux_4|gate_5|WideOr0~1_combout $end
$var wire 1 n" mux_3|gate_5|WideOr0~1_combout $end
$var wire 1 o" mux_3|gate_4|WideAnd0~2_combout $end
$var wire 1 p" mux_3|gate_4|WideAnd0~3_combout $end
$var wire 1 q" mux_3|gate_4|WideAnd0~4_combout $end
$var wire 1 r" mux_3|gate_4|WideAnd0~5_combout $end
$var wire 1 s" mux_3|gate_4|WideAnd0~6_combout $end
$var wire 1 t" mux_3|gate_3|WideAnd0~2_combout $end
$var wire 1 u" mux_3|gate_3|WideAnd0~1_combout $end
$var wire 1 v" mux_3|gate_5|WideOr0~0_combout $end
$var wire 1 w" mux_3|gate_5|WideOr0~2_combout $end
$var wire 1 x" bcd_1|gate_23|WideOr0~combout $end
$var wire 1 y" bcd_1|gate_19|WideOr0~0_combout $end
$var wire 1 z" bcd_1|gate_15|S~0_combout $end
$var wire 1 {" bcd_1|gate_12|WideOr0~0_combout $end
$var wire 1 |" bcd_1|gate_7|WideOr0~combout $end
$var wire 1 }" bcd_1|gate_6|WideOr0~combout $end
$var wire 1 ~" bcd_1|gate_3|WideOr0~combout $end
$var wire 1 !# demux_1|gate_3|WideAnd0~2_combout $end
$var wire 1 "# demux_1|gate_1|WideAnd0~combout $end
$upscope $end
$upscope $end
$enddefinitions $end
#0
$dumpvars
1!
1"
1#
1$
1%
1&
1'
1+
1*
1)
0(
1,
14
13
02
01
00
0/
0.
0-
05
16
07
09
08
0>
0=
0<
0;
0:
0E
0D
0C
0B
0A
0@
0?
0J
0I
0H
0G
0F
0Q
0P
0O
0N
0M
0L
0K
0R
0S
1T
xU
1V
1W
1X
0Y
1Z
1[
1\
0]
0^
0_
1`
1a
0b
0c
0d
1e
0f
0g
0h
0i
0j
0k
1l
0m
0n
0o
0p
0q
0r
0s
0t
0u
0v
0w
0x
0y
0z
0{
0|
0}
1~
1!!
0"!
0#!
0$!
0%!
0&!
1'!
0(!
0)!
0*!
0+!
0,!
0-!
0.!
0/!
00!
01!
02!
13!
04!
05!
06!
07!
08!
19!
0:!
0;!
0<!
0=!
0>!
0?!
0@!
0A!
0B!
0C!
0D!
0E!
0F!
0G!
0H!
1I!
1J!
0K!
0L!
0M!
1N!
1O!
0P!
0Q!
0R!
0S!
0T!
0U!
0V!
0W!
0X!
1Y!
0Z!
0[!
0\!
0]!
0^!
0_!
0`!
0a!
0b!
1c!
0d!
1e!
0f!
0g!
1h!
0i!
0j!
0k!
0l!
0m!
0n!
0o!
1p!
0q!
0r!
0s!
0t!
0u!
0v!
0w!
0x!
0y!
0z!
0{!
0|!
0}!
0~!
0!"
0""
0#"
0$"
0%"
1&"
0'"
1("
0)"
0*"
0+"
1,"
0-"
0."
0/"
00"
01"
02"
03"
04"
05"
16"
07"
18"
19"
0:"
1;"
0<"
0="
0>"
0?"
0@"
0A"
0B"
0C"
1D"
1E"
0F"
0G"
0H"
0I"
0J"
0K"
0L"
0M"
0N"
0O"
0P"
0Q"
0R"
1S"
0T"
0U"
0V"
0W"
0X"
0Y"
1Z"
0["
0\"
0]"
0^"
0_"
0`"
0a"
0b"
0c"
0d"
0e"
0f"
0g"
0h"
0i"
0j"
0k"
0l"
0m"
0n"
0o"
0p"
1q"
0r"
0s"
0t"
0u"
0v"
0w"
0x"
1y"
1z"
1{"
1|"
1}"
1~"
0!#
0"#
$end
#10000
0"
0$
0\
0e
1]
#20000
1"
1$
1\
1e
1f
#30000
0"
0$
0\
0e
0]
1^
#40000
1"
1$
1\
1e
1m
0f
#50000
0"
0$
0\
0e
1]
#60000
1"
1$
1\
1e
1f
#70000
0"
0$
0\
0e
0]
0^
1_
#80000
1"
1$
1\
1e
1}
0m
0f
1"!
1d!
#90000
0"
0$
0\
0e
1]
#100000
1"
1$
1\
1e
1f
#110000
0"
0$
0\
0e
0]
1^
#120000
1"
1$
1\
1e
1m
0f
#130000
0"
0$
0\
0e
1]
#140000
1"
1$
1\
1e
1f
#150000
0"
0$
0\
0e
0]
0^
0_
1F"
1:"
1+"
1g!
1"#
1!#
0D"
19
0E"
1(
0)
06
#160000
1"
1$
1\
1e
1)!
0}
0m
0f
1,!
0"!
#170000
0"
0$
0\
0e
1]
#180000
1"
1$
1\
1e
1f
#190000
0"
0$
0\
0e
0]
1^
#200000
1"
1$
1\
1e
1m
0f
#210000
0"
0$
0\
0e
1]
#220000
1"
1$
1\
1e
1f
#230000
0"
0$
0\
0e
0]
0^
1_
#240000
1"
1$
1\
1e
1}
0m
0f
1"!
#250000
0"
0$
0\
0e
1]
#260000
1"
1$
1\
1e
1f
#270000
0"
0$
0\
0e
0]
1^
#280000
1"
1$
1\
1e
1m
0f
#290000
0"
0$
0\
0e
1]
#300000
1"
1$
1\
1e
1f
17!
#310000
0"
0$
0\
0e
0]
0^
0_
1G"
0F"
0:"
1b
0!#
1X"
1D"
1C"
09"
09
18
15
0,
0*
1)
#320000
1"
1$
1\
1e
18!
0)!
0}
0m
0f
1@!
1:!
07!
0,!
0"!
#330000
0"
0$
0\
0e
1]
#340000
1"
1$
1\
1e
1f
#350000
0"
0$
0\
0e
0]
1^
#360000
1"
1$
1\
1e
1m
0f
#370000
0"
0$
0\
0e
1]
#380000
1"
1$
1\
1e
1f
#390000
0"
0$
0\
0e
0]
0^
1_
#400000
1"
1\
#410000
0"
0\
1]
#420000
1"
1\
#430000
0"
0\
0]
1^
#440000
1"
1\
#450000
0"
0\
1]
#460000
1"
1\
#470000
0"
0\
0]
0^
0_
1F"
1l"
0X"
1V"
0+
1*
#480000
1$
1"
1e
1\
1}
0m
0f
1"!
#490000
0"
0\
1]
#500000
1"
1\
#510000
0"
0\
0]
1^
#520000
1"
1\
#530000
0"
0\
1]
#540000
1"
1\
#550000
0"
0\
0]
0^
1_
#560000
0$
1"
0e
1\
#570000
0"
0\
1]
#580000
1"
1\
#590000
0"
0\
0]
1^
#600000
1"
1\
#610000
0"
0\
1]
#620000
1"
1\
#630000
0"
0\
0]
0^
0_
0G"
0F"
0"#
0l"
0V"
1m"
0m"
0~"
0{"
0z"
0y"
0(
1+
1~"
1{"
1z"
1y"
12
11
10
1-
02
01
00
0-
#640000
0%
1"
0c!
1\
0e!
0h!
#650000
0"
0\
1]
#660000
1"
1\
#670000
0"
0\
0]
1^
#680000
1"
1\
#690000
0"
0\
1]
#700000
1"
1\
#710000
0"
0\
0]
0^
1_
#720000
1%
1"
1c!
1\
1e!
1h!
1j!
1;!
1#!
0Y!
03!
1z
1_!
1]!
0I!
14!
0J!
#730000
0"
0\
1]
#740000
1"
1\
#750000
0"
0\
0]
1^
#760000
1"
1\
#770000
0"
0\
1]
#780000
1"
1\
#790000
0"
0\
0]
0^
0_
1F"
1V!
1"#
1!#
1R!
1Q!
1C!
1=!
1.!
1%!
1s
1i
1(
0)
1>!
1&!
1M
1O
#800000
1"
1\
#810000
0"
0\
1]
#820000
1"
1\
#830000
0"
0\
0]
1^
#840000
1"
1\
#850000
0"
0\
1]
#860000
1"
1\
#870000
0"
0\
0]
0^
1_
#880000
1"
1\
#890000
0"
0\
1]
#900000
1"
1\
#910000
0"
0\
0]
1^
#920000
1"
1\
#930000
0"
0\
1]
#940000
1"
1\
#950000
0"
0\
0]
0^
0_
1G"
0F"
0V!
1d
0!#
1X"
0R!
0Q!
0C!
0=!
0.!
0%!
1w
1v
0s
0l
0i
0*
1)
#960000
1"
1\
#970000
0"
0\
1]
#980000
1"
1\
#990000
0"
0\
0]
1^
#1000000
1"
1\
#1010000
0"
0\
1]
#1020000
1"
1\
#1030000
0"
0\
0]
0^
1_
#1040000
1"
1\
#1050000
0"
0\
1]
#1060000
1"
1\
#1070000
0"
0\
0]
1^
#1080000
1"
1\
#1090000
0"
0\
1]
#1100000
1"
1\
#1110000
0"
0\
0]
0^
0_
1F"
1X!
1W!
0&!
1u
1k
1l"
0X"
1V"
1Y!
0v
1E
0O
1P
1Q
1m"
0+
1*
0~"
0{"
0z"
0y"
12
11
10
1-
#1120000
1"
1\
#1130000
0"
0\
1]
#1140000
1"
1\
#1150000
0"
0\
0]
1^
#1160000
1"
1\
#1170000
0"
0\
1]
#1180000
1"
1\
#1190000
0"
0\
0]
0^
1_
#1200000
1"
1\
#1210000
0"
0\
1]
#1220000
1"
1\
#1230000
0"
0\
0]
1^
#1240000
1"
1\
#1250000
0"
0\
1]
#1260000
1"
1\
#1270000
0"
0\
0]
0^
0_
0G"
0F"
1Z!
0X!
0W!
1x
0k
0"#
0l"
0V"
0q"
1p"
0Y!
1v
1l
1D
0E
0Q
0m"
1s"
0(
1+
1~"
1{"
1z"
1y"
02
01
00
0-
#1280000
1"
1\
#1290000
0"
0\
1]
#1300000
1"
1\
#1310000
0"
0\
0]
1^
#1320000
1"
1\
#1330000
0"
0\
1]
#1340000
1"
1\
#1350000
0"
0\
0]
0^
1_
#1360000
1"
1\
#1370000
0"
0\
1]
#1380000
1"
1\
#1390000
0"
0\
0]
1^
#1400000
1"
1\
#1410000
0"
0\
1]
#1420000
1"
1\
#1430000
0"
0\
0]
0^
0_
1F"
1X!
1W!
0u
1k
1"#
1!#
1v"
1Y!
1y
1T!
11!
0'!
0v
1E
0P
1Q
0z
01!
1'!
1(
0)
#1440000
1"
1\
#1450000
0"
0\
1]
#1460000
1"
1\
#1470000
0"
0\
0]
1^
#1480000
1"
1\
#1490000
0"
0\
1]
#1500000
1"
1\
#1510000
0"
0\
0]
0^
1_
#1520000
1"
1\
#1530000
0"
0\
1]
#1540000
1"
1\
#1550000
0"
0\
0]
1^
#1560000
1"
1\
#1570000
0"
0\
1]
#1580000
1"
1\
#1590000
0"
0\
0]
0^
0_
1G"
0F"
0Z!
0X!
0W!
12!
1{
0x
0k
0!#
1w"
1X"
0v"
1q"
0p"
0y
0Y!
1d"
1_"
1U"
0T!
1v
0l
0D
0E
1C
0Q
0|"
0y"
1x"
0w"
0s"
1z
11!
0'!
0*
1)
1|"
1y"
0x"
03
12
1/
13
02
0/
#1600000
1"
1\
#1610000
0"
0\
1]
#1620000
1"
1\
#1630000
0"
0\
0]
1^
#1640000
1"
1\
#1650000
0"
0\
1]
#1660000
1"
1\
#1670000
0"
0\
0]
0^
1_
#1680000
1"
1\
#1690000
0"
0\
1]
#1700000
1"
1\
#1710000
0"
0\
0]
1^
#1720000
1"
1\
#1730000
0"
0\
1]
#1740000
1"
1\
#1750000
0"
0\
0]
0^
0_
1F"
1X!
1W!
0>!
10!
1&!
1u
1k
1l"
0X"
1V"
1Y!
01!
0v
1E
0M
1N
1O
1P
1Q
1m"
1W"
0+
1*
0}"
0z"
1x"
03
11
1.
#1760000
1"
1\
#1770000
0"
0\
1]
#1780000
1"
1\
#1790000
0"
0\
0]
1^
#1800000
1"
1\
#1810000
0"
0\
1]
#1820000
1"
1\
#1830000
0"
0\
0]
0^
1_
#1840000
1"
1\
#1850000
0"
0\
1]
#1860000
1"
1\
#1870000
0"
0\
0]
1^
#1880000
1"
1\
#1890000
0"
0\
1]
#1900000
1"
1\
#1910000
0"
0\
0]
0^
0_
0G"
0F"
1Z!
0X!
0W!
1x
0k
0"#
0l"
0V"
0q"
1p"
0Y!
1v
1l
1D
0E
0Q
0m"
0W"
1s"
0(
1+
1}"
1z"
0x"
13
01
0.
#1920000
1"
1\
#1930000
0"
0\
1]
#1940000
1"
1\
#1950000
0"
0\
0]
1^
#1960000
1"
1\
#1970000
0"
0\
1]
#1980000
1"
1\
#1990000
0"
0\
0]
0^
1_
#2000000
1"
1\
#2010000
0"
0\
1]
#2020000
1"
1\
#2030000
0"
0\
0]
1^
#2040000
1"
1\
#2050000
0"
0\
1]
#2060000
1"
1\
#2070000
0"
0\
0]
0^
0_
1F"
1X!
1W!
0u
1k
1"#
1!#
1v"
1Y!
1[!
1y
0v
1E
0P
1Q
0]!
0z
1(
0)
#2080000
1"
1\
#2090000
0"
0\
1]
#2100000
1"
1\
#2110000
0"
0\
0]
1^
#2120000
1"
1\
#2130000
0"
0\
1]
#2140000
1"
1\
#2150000
0"
0\
0]
0^
1_
#2160000
1"
1\
#2170000
0"
0\
1]
#2180000
1"
1\
#2190000
0"
0\
0]
1^
#2200000
1"
1\
#2210000
0"
0\
1]
#2220000
1"
1\
#2230000
0"
0\
0]
0^
0_
1G"
0F"
1^!
1\!
0Z!
0X!
0W!
02!
0{
0x
0k
0!#
1w"
1X"
0v"
04!
0p"
1f"
1`"
0Z"
0S"
0[!
0y
0Y!
0d"
0U"
1v
0l
1B
0D
0E
0C
0Q
0|"
0y"
1x"
0w"
0s"
1a"
1]!
14!
1z
0*
1)
1|"
1y"
0x"
03
12
1/
13
02
0/
#2240000
1"
1\
#2250000
0"
0\
1]
#2260000
1"
1\
#2270000
0"
0\
0]
1^
#2280000
1"
1\
#2290000
0"
0\
1]
#2300000
1"
1\
#2310000
0"
0\
0]
0^
1_
#2320000
1"
1\
#2330000
0"
0\
1]
#2340000
1"
1\
#2350000
0"
0\
0]
1^
#2360000
1"
1\
#2370000
0"
0\
1]
#2380000
1"
1\
#2390000
0"
0\
0]
0^
0_
1F"
1X!
1W!
0&!
1u
1k
1l"
1c"
0X"
1V"
1Y!
0v
1E
0O
1P
1Q
1m"
1x"
0+
1*
0z"
03
11
#2400000
1"
1\
#2410000
0"
0\
1]
#2420000
1"
1\
