simulation/qsim/MI-CircuitosDigitais-Problema-3.msim.vcd
$comment
	File created using the following command:
		vcd file MI-CircuitosDigitais-Problema-3.msim.vcd -direction
$end
$date
	Tue Feb 06 13:58:10 2024
$end
$version
	ModelSim Version 10.5b
$end
$timescale
	1ps
$end

$scope module pbl_vlg_vec_tst $end
$var reg 1 ! ch $end
$var reg 1 " clock_50mhz $end
$var reg 1 # cq $end
$var reg 1 $ hh_load $end
$var reg 1 % op_c_deboucing $end
$var reg 1 & op_deboucing $end
$var reg 1 ' pg $end
$var reg 1 ( start_stop $end
$var wire 1 ) Nac_7segmentos [3] $end
$var wire 1 * Nac_7segmentos [2] $end
$var wire 1 + Nac_7segmentos [1] $end
$var wire 1 , Nac_7segmentos [0] $end
$var wire 1 - Nal $end
$var wire 1 . Nout_7seg [7] $end
$var wire 1 / Nout_7seg [6] $end
$var wire 1 0 Nout_7seg [5] $end
$var wire 1 1 Nout_7seg [4] $end
$var wire 1 2 Nout_7seg [3] $end
$var wire 1 3 Nout_7seg [2] $end
$var wire 1 4 Nout_7seg [1] $end
$var wire 1 5 Nout_7seg [0] $end
$var wire 1 6 al $end
$var wire 1 7 ev $end
$var wire 1 8 m $end
$var wire 1 9 mef_estado [1] $end
$var wire 1 : mef_estado [0] $end
$var wire 1 ; test_buffer_entrada_aux_secundario_in [6] $end
$var wire 1 < test_buffer_entrada_aux_secundario_in [5] $end
$var wire 1 = test_buffer_entrada_aux_secundario_in [4] $end
$var wire 1 > test_buffer_entrada_aux_secundario_in [3] $end
$var wire 1 ? test_buffer_entrada_aux_secundario_in [2] $end
$var wire 1 @ test_buffer_entrada_aux_secundario_in [1] $end
$var wire 1 A test_buffer_entrada_aux_secundario_in [0] $end
$var wire 1 B test_buffer_entrada_aux_secundario_in_aux [6] $end
$var wire 1 C test_buffer_entrada_aux_secundario_in_aux [5] $end
$var wire 1 D test_buffer_entrada_aux_secundario_in_aux [4] $end
$var wire 1 E test_buffer_entrada_aux_secundario_in_aux [3] $end
$var wire 1 F test_buffer_entrada_aux_secundario_in_aux [2] $end
$var wire 1 G test_buffer_entrada_aux_secundario_in_aux [1] $end
$var wire 1 H test_buffer_entrada_aux_secundario_in_aux [0] $end
$var wire 1 I test_buffer_entrada_aux_secundario_out [6] $end
$var wire 1 J test_buffer_entrada_aux_secundario_out [5] $end
$var wire 1 K test_buffer_entrada_aux_secundario_out [4] $end
$var wire 1 L test_buffer_entrada_aux_secundario_out [3] $end
$var wire 1 M test_buffer_entrada_aux_secundario_out [2] $end
$var wire 1 N test_buffer_entrada_aux_secundario_out [1] $end
$var wire 1 O test_buffer_entrada_aux_secundario_out [0] $end
$var wire 1 P test_buffer_secundario [6] $end
$var wire 1 Q test_buffer_secundario [5] $end
$var wire 1 R test_buffer_secundario [4] $end
$var wire 1 S test_buffer_secundario [3] $end
$var wire 1 T test_buffer_secundario [2] $end
$var wire 1 U test_buffer_secundario [1] $end
$var wire 1 V test_buffer_secundario [0] $end
$var wire 1 W test_buffer_secundario_aux [6] $end
$var wire 1 X test_buffer_secundario_aux [5] $end
$var wire 1 Y test_buffer_secundario_aux [4] $end
$var wire 1 Z test_buffer_secundario_aux [3] $end
$var wire 1 [ test_buffer_secundario_aux [2] $end
$var wire 1 \ test_buffer_secundario_aux [1] $end
$var wire 1 ] test_buffer_secundario_aux [0] $end
$var wire 1 ^ test_comparator_aux $end
$var wire 1 _ test_controle_reset $end
$var wire 1 ` test_load_input $end
$var wire 1 a test_load_input_pulse $end
$var wire 1 b test_load_reg $end
$var wire 1 c test_out_comparador_controle $end
$var wire 1 d ve $end

$scope module i1 $end
$var wire 1 e gnd $end
$var wire 1 f vcc $end
$var wire 1 g unknown $end
$var tri1 1 h devclrn $end
$var tri1 1 i devpor $end
$var tri1 1 j devoe $end
$var wire 1 k clock_50mhz~combout $end
$var wire 1 l divisor_f|ff_1|q~regout $end
$var wire 1 m pg~combout $end
$var wire 1 n start_stop~combout $end
$var wire 1 o contador_duzias|ff_4|q~regout $end
$var wire 1 p mef_1|jk_2|q~0_combout $end
$var wire 1 q ch~combout $end
$var wire 1 r mef_1|jk_1|q~regout $end
$var wire 1 s mef_1|jk_2|q~regout $end
$var wire 1 t mef_1|gate_11|WideAnd0~combout $end
$var wire 1 u mef_1|gate_9|WideAnd0~combout $end
$var wire 1 v mef_1|gate_8|S~0_combout $end
$var wire 1 w mef_1|gate_8|S~1_combout $end
$var wire 1 x contador_dezenas_duzias|ff_4|q~regout $end
$var wire 1 y gate_2|S~combout $end
$var wire 1 z contador_dezenas_duzias|ff_2|q~regout $end
$var wire 1 { codificador_garrafas_1|gate_4|S~combout $end
$var wire 1 | op_deboucing~combout $end
$var wire 1 } registrador_1|ff_7|q~regout $end
$var wire 1 ~ registrador_2|ff_7|q~regout $end
$var wire 1 !! registrador_1|ff_6|q~regout $end
$var wire 1 "! registrador_2|ff_6|q~regout $end
$var wire 1 #! comb~2 $end
$var wire 1 $! registrador_1|ff_5|q~regout $end
$var wire 1 %! registrador_2|ff_5|q~regout $end
$var wire 1 &! mux_8|NSEL_and_A~combout $end
$var wire 1 '! m_out_range|gate_4|WideOr0~0 $end
$var wire 1 (! contador_1_buffer_secundario|ff_2|q~regout $end
$var wire 1 )! contador_1_buffer_secundario|ff_3|q~0_combout $end
$var wire 1 *! contador_1_buffer_secundario|ff_3|q~1_combout $end
$var wire 1 +! contador_1_buffer_secundario|ff_3|q~regout $end
$var wire 1 ,! contador_1_buffer_secundario|ff_4|q~0_combout $end
$var wire 1 -! contador_1_buffer_secundario|ff_4|q~regout $end
$var wire 1 .! contador_1_buffer_secundario|ff_5|q~0_combout $end
$var wire 1 /! contador_1_buffer_secundario|ff_5|q~1_combout $end
$var wire 1 0! contador_1_buffer_secundario|ff_5|q~regout $end
$var wire 1 1! contador_1_buffer_secundario|ff_6|q~0_combout $end
$var wire 1 2! contador_1_buffer_secundario|ff_6|q~regout $end
$var wire 1 3! contador_1_buffer_secundario|ff_7|q~0_combout $end
$var wire 1 4! contador_1_buffer_secundario|ff_7|q~regout $end
$var wire 1 5! comb~0 $end
$var wire 1 6! comb~1 $end
$var wire 1 7! comb~3 $end
$var wire 1 8! comb~5 $end
$var wire 1 9! registrador_1|ff_3|q~regout $end
$var wire 1 :! registrador_2|ff_3|q~regout $end
$var wire 1 ;! registrador_1|ff_2|q~regout $end
$var wire 1 <! mux_9|NSEL_and_A~combout $end
$var wire 1 =! comb~4 $end
$var wire 1 >! registrador_1|ff_4|q~regout $end
$var wire 1 ?! registrador_2|ff_4|q~regout $end
$var wire 1 @! registrador_2|ff_1|q~regout $end
$var wire 1 A! registrador_1|ff_1|q~regout $end
$var wire 1 B! registrador_2|ff_2|q~regout $end
$var wire 1 C! m_out_range|gate_4|WideOr0~1_combout $end
$var wire 1 D! comb~6 $end
$var wire 1 E! load_input~0 $end
$var wire 1 F! pulsador_1|ff_1|q~regout $end
$var wire 1 G! pulsador_1|ff_1|nq~regout $end
$var wire 1 H! pulsador_1|Pulse~combout $end
$var wire 1 I! ff_1|q~regout $end
$var wire 1 J! contador_1_buffer_secundario|ff_1|q~regout $end
$var wire 1 K! mux_14|NSEL_and_A $end
$var wire 1 L! mux_13|NSEL_and_A $end
$var wire 1 M! mux_12|OUT $end
$var wire 1 N! mux_11|NSEL_and_A~0 $end
$var wire 1 O! mux_10|OUT $end
$var wire 1 P! contador_2_buffer_secundario_controle|ff_5|q~2_combout $end
$var wire 1 Q! contador_2_buffer_secundario_controle|ff_2|q~2_combout $end
$var wire 1 R! contador_2_buffer_secundario_controle|ff_1|q~0_combout $end
$var wire 1 S! controle_reset~combout $end
$var wire 1 T! contador_2_buffer_secundario_controle|ff_1|q~regout $end
$var wire 1 U! contador_2_buffer_secundario_controle|ff_2|q~regout $end
$var wire 1 V! contador_2_buffer_secundario_controle|ff_3|q~1_combout $end
$var wire 1 W! contador_2_buffer_secundario_controle|ff_3|q~regout $end
$var wire 1 X! contador_2_buffer_secundario_controle|ff_4|q~1_combout $end
$var wire 1 Y! contador_2_buffer_secundario_controle|ff_2|q~0_combout $end
$var wire 1 Z! contador_2_buffer_secundario_controle|ff_4|q~regout $end
$var wire 1 [! contador_2_buffer_secundario_controle|ff_5|q~0_combout $end
$var wire 1 \! contador_2_buffer_secundario_controle|ff_5|q~regout $end
$var wire 1 ]! comparador_2|comparador_7|gate_4|S~2_combout $end
$var wire 1 ^! contador_2_buffer_secundario_controle|ff_6|q~1_combout $end
$var wire 1 _! contador_2_buffer_secundario_controle|ff_6|q~regout $end
$var wire 1 `! contador_2_buffer_secundario_controle|ff_7|q~1_combout $end
$var wire 1 a! contador_2_buffer_secundario_controle|ff_7|q~regout $end
$var wire 1 b! comparador_2|comparador_7|gate_4|S~0_combout $end
$var wire 1 c! comparador_2|comparador_2|gate_4|S~0_combout $end
$var wire 1 d! comparador_2|comparador_7|gate_4|S~1_combout $end
$var wire 1 e! comparador_2|comparador_7|gate_4|S~3_combout $end
$var wire 1 f! load_aux [1] $end
$var wire 1 g! load_aux [0] $end
$upscope $end
$upscope $end
$enddefinitions $end
#0
$dumpvars
1!
1"
0#
0$
0%
1&
1'
0(
1,
1+
1*
0)
1-
05
14
03
02
01
00
0/
0.
06
07
08
0:
09
0A
0@
1?
0>
1=
0<
0;
0H
0G
1F
0E
1D
0C
0B
0O
0N
0M
0L
0K
0J
0I
0V
0U
0T
0S
0R
0Q
0P
0]
0\
0[
0Z
0Y
0X
0W
1^
0_
1`
0a
0b
1c
0d
0e
1f
xg
1h
1i
1j
1k
0l
1m
0n
0o
0p
1q
0r
0s
0t
0u
0v
0w
0x
0y
0z
0{
1|
0}
0~
0!!
0"!
1#!
0$!
0%!
0&!
0'!
0(!
0)!
1*!
0+!
1,!
0-!
0.!
1/!
00!
11!
02!
13!
04!
05!
06!
17!
18!
09!
0:!
0;!
0<!
0=!
0>!
0?!
0@!
0A!
0B!
0C!
1D!
1E!
0F!
0G!
0H!
0I!
0J!
0K!
0L!
1M!
0N!
1O!
0P!
0Q!
0R!
0S!
0T!
0U!
0V!
0W!
0X!
0Y!
0Z!
0[!
0\!
0]!
0^!
0_!
0`!
0a!
0b!
0c!
0d!
0e!
zg!
1f!
$end
#10000
0"
0k
1l
1G!
1F!
1H!
1a
1I!
1:!
1%!
1]!
0D!
1d!
07!
1b
1K
1M
1e!
0E!
08!
0^
0H!
0`
0c
0a
#20000
1"
1k
#30000
0"
0k
0l
1T!
1J!
14!
12!
10!
1-!
1+!
1(!
1b!
1Y!
0,!
0*!
03!
01!
0/!
1V
1P
1Q
1R
1S
1T
1U
#40000
1"
1k
#50000
0"
0k
1l
0G!
0F!
#60000
1"
1k
#70000
0"
0k
0l
1U!
0T!
0J!
0b!
0Y!
0V
#80000
1"
1k
#90000
0"
0k
1l
1G!
#100000
1"
1k
#110000
0"
0k
0l
1T!
1J!
0(!
1b!
1Y!
1V
0U
#120000
1"
1k
#130000
0"
0k
1l
#140000
1"
1k
#150000
0"
0k
0l
1W!
0U!
0T!
0J!
0d!
0b!
0Y!
1*!
0V
#160000
1"
1k
#170000
0"
0k
1l
#180000
1"
1k
#190000
0"
0k
0l
1T!
1J!
0+!
1(!
1b!
1Y!
0*!
1V
0T
1U
#200000
1"
1k
#210000
0"
0k
1l
#220000
1"
1k
#230000
0"
0k
0l
1U!
0T!
0J!
1d!
0b!
0Y!
0V
#240000
1"
1k
#250000
0"
0k
1l
#260000
1"
1k
#270000
0"
0k
0l
1T!
1J!
0(!
1b!
1Y!
1V
0U
#280000
1"
1k
#290000
0"
0k
1l
#300000
1"
1k
#310000
0"
0k
0l
1Z!
0W!
0U!
0T!
0J!
0b!
0Y!
1,!
1*!
0V
#320000
1"
1k
#330000
0"
0k
1l
#340000
1"
1k
#350000
0"
0k
0l
1T!
1J!
0-!
1+!
1(!
1b!
1Y!
0,!
0*!
1V
0S
1T
1U
#360000
1"
1k
#370000
0"
0k
1l
#380000
1"
1k
#390000
0"
0k
0l
1U!
0T!
0J!
0b!
0Y!
0V
#400000
1"
1k
#410000
0"
0k
1l
#420000
1"
1k
#430000
0"
0k
0l
1T!
1J!
0(!
1b!
1Y!
1V
0U
#440000
1"
1k
#450000
0"
0k
1l
#460000
1"
1k
#470000
0"
0k
0l
1W!
0U!
0T!
0J!
0d!
0b!
0Y!
1*!
0V
#480000
1"
1k
#490000
0"
0k
1l
#500000
1"
1k
#510000
0"
0k
0l
1T!
1J!
0+!
1(!
1b!
1Y!
0*!
1/!
1V
0T
1U
0/!
#520000
1"
1k
#530000
0"
0k
1l
#540000
1"
1k
#550000
0"
0k
0l
1U!
0T!
0J!
1d!
1[!
0b!
0Y!
0V
0[!
#560000
1"
1k
#570000
0"
0k
1l
#580000
1"
1k
#590000
0"
0k
0l
1T!
1J!
0(!
1b!
1Y!
1V
0U
1[!
#600000
1"
1k
#610000
0"
0k
1l
#620000
1"
1k
#630000
0"
0k
0l
1\!
0Z!
0W!
0U!
0T!
0J!
0]!
0[!
0b!
0Y!
1,!
1*!
0V
1/!
#640000
1"
1k
#650000
0"
0k
1l
#660000
1"
1k
#670000
0"
0k
0l
1T!
1J!
00!
1-!
1+!
1(!
1b!
1Y!
0,!
0*!
11!
0/!
1V
0R
1S
1T
1U
01!
#680000
1"
1k
#690000
0"
0k
1l
#700000
1"
1k
#710000
0"
0k
0l
1U!
0T!
0J!
0b!
0Y!
0V
#720000
1"
1k
#730000
0"
0k
1l
#740000
1"
1k
#750000
0"
0k
0l
1T!
1J!
0(!
1b!
1Y!
1V
0U
#760000
1"
1k
#770000
0"
0k
1l
#780000
1"
1k
#790000
0"
0k
0l
1W!
0U!
0T!
0J!
0d!
0b!
0Y!
1*!
0V
0e!
1S!
1c
1_
0\!
0W!
1]!
1d!
1e!
0S!
0c
0_
#800000
1"
1k
#810000
0"
0k
1l
#820000
1"
1k
#830000
0"
0k
0l
1T!
1J!
0+!
1(!
1b!
1Y!
0*!
1V
0T
1U
#840000
1"
1k
#850000
0"
0k
1l
#860000
1"
1k
#870000
0"
0k
0l
1U!
0T!
0J!
0b!
0Y!
0V
#880000
1"
1k
#890000
0"
0k
1l
#900000
1"
1k
#910000
0"
0k
0l
1T!
1J!
0(!
1b!
1Y!
1V
0U
#920000
1"
1k
#930000
0"
0k
1l
#940000
1"
1k
#950000
0"
0k
0l
1W!
0U!
0T!
0J!
0d!
0b!
0Y!
1,!
1*!
0V
#960000
1"
1k
#970000
0"
0k
1l
#980000
1"
1k
#990000
0"
0k
0l
1T!
1J!
0-!
1+!
1(!
1b!
1Y!
0,!
0*!
1V
0S
1T
1U
#1000000
1"
1k
#1010000
0"
0k
1l
#1020000
1"
1k
#1030000
0"
0k
0l
1U!
0T!
0J!
1d!
0b!
0Y!
0V
#1040000
1"
1k
#1050000
0"
0k
1l
#1060000
1"
1k
#1070000
0"
0k
0l
1T!
1J!
0(!
1b!
1Y!
1V
0U
#1080000
1"
1k
#1090000
0"
0k
1l
#1100000
1"
1k
#1110000
0"
0k
0l
1Z!
0W!
0U!
0T!
0J!
0b!
0Y!
1*!
0V
#1120000
1"
1k
#1130000
0"
0k
1l
#1140000
1"
1k
#1150000
0"
0k
0l
1T!
1J!
0+!
1(!
1b!
1Y!
0*!
1/!
1V
0T
1U
0/!
11!
01!
#1160000
1"
1k
#1170000
0"
0k
1l
#1180000
1"
1k
#1190000
0"
0k
0l
1U!
0T!
0J!
0b!
0Y!
0V
#1200000
1"
1k
#1210000
0"
0k
1l
#1220000
1"
1k
#1230000
0"
0k
0l
1T!
1J!
0(!
1b!
1Y!
1V
0U
#1240000
1"
1k
#1250000
0"
0k
1l
#1260000
1"
1k
#1270000
0"
0k
0l
1W!
0U!
0T!
0J!
0d!
0b!
0Y!
1,!
1*!
0V
1/!
11!
#1280000
1"
1k
#1290000
0"
0k
1l
#1300000
1"
1k
#1310000
0"
0k
0l
1T!
1J!
02!
10!
1-!
1+!
1(!
1b!
1Y!
0,!
0*!
01!
0/!
1V
0Q
1R
1S
1T
1U
#1320000
1"
1k
#1330000
0"
0k
1l
#1340000
1"
1k
#1350000
0"
0k
0l
1U!
0T!
0J!
1d!
1[!
0b!
0Y!
0V
0[!
#1360000
1"
1k
#1370000
0"
0k
1l
#1380000
1"
1k
#1390000
0"
0k
0l
1T!
1J!
0(!
1b!
1Y!
1V
0U
1[!
#1400000
1"
1k
#1410000
0"
0k
1l
#1420000
1"
1k
#1430000
0"
0k
0l
1\!
0Z!
0W!
0U!
0T!
0J!
0]!
0[!
0b!
0Y!
1*!
0V
#1440000
1"
1k
#1450000
0"
0k
1l
#1460000
1"
1k
#1470000
0"
0k
0l
1T!
1J!
0+!
1(!
1b!
1Y!
0*!
1V
0T
1U
#1480000
1"
1k
#1490000
0"
0k
1l
#1500000
1"
1k
#1510000
0"
0k
0l
1U!
0T!
0J!
0b!
0Y!
0V
#1520000
1"
1k
#1530000
0"
0k
1l
#1540000
1"
1k
#1550000
0"
0k
0l
1T!
1J!
0(!
1b!
1Y!
1V
0U
#1560000
1"
1k
#1570000
0"
0k
1l
#1580000
1"
1k
#1590000
0"
0k
0l
1W!
0U!
0T!
0J!
0d!
0b!
0Y!
1,!
1*!
0V
0e!
1S!
1c
1_
0\!
0W!
1]!
1d!
1e!
0S!
0c
0_
#1600000
1"
1k
#1610000
0"
0k
1l
#1620000
1"
1k
#1630000
0"
0k
0l
1T!
1J!
0-!
1+!
1(!
1b!
1Y!
0,!
0*!
1V
0S
1T
1U
#1640000
1"
1k
#1650000
0"
0k
1l
#1660000
1"
1k
#1670000
0"
0k
0l
1U!
0T!
0J!
0b!
0Y!
0V
#1680000
1"
1k
#1690000
0"
0k
1l
#1700000
1"
1k
#1710000
0"
0k
0l
1T!
1J!
0(!
1b!
1Y!
1V
0U
#1720000
1"
1k
#1730000
0"
0k
1l
#1740000
1"
1k
#1750000
0"
0k
0l
1W!
0U!
0T!
0J!
0d!
0b!
0Y!
1*!
0V
#1760000
1"
1k
#1770000
0"
0k
1l
#1780000
1"
1k
#1790000
0"
0k
0l
1T!
1J!
0+!
1(!
1b!
1Y!
0*!
1/!
1V
0T
1U
0/!
#1800000
1"
1k
#1810000
0"
0k
1l
#1820000
1"
1k
#1830000
0"
0k
0l
1U!
0T!
0J!
1d!
0b!
0Y!
0V
#1840000
1"
1k
#1850000
0"
0k
1l
#1860000
1"
1k
#1870000
0"
0k
0l
1T!
1J!
0(!
1b!
1Y!
1V
0U
#1880000
1"
1k
#1890000
0"
0k
1l
#1900000
1"
1k
#1910000
0"
0k
0l
1Z!
0W!
0U!
0T!
0J!
0b!
0Y!
1,!
1*!
0V
1/!
#1920000
1"
1k
#1930000
0"
0k
1l
#1940000
1"
1k
#1950000
0"
0k
0l
1T!
1J!
00!
1-!
1+!
1(!
1b!
1Y!
0,!
0*!
13!
11!
0/!
1V
0R
1S
1T
1U
03!
01!
#1960000
1"
1k
#1970000
0"
0k
1l
#1980000
1"
1k
#1990000
0"
0k
0l
1U!
0T!
0J!
0b!
0Y!
0V
#2000000
1"
1k
#2010000
0"
0k
1l
#2020000
1"
1k
#2030000
0"
0k
0l
1T!
1J!
0(!
1b!
1Y!
1V
0U
#2040000
1"
1k
#2050000
0"
0k
1l
#2060000
1"
1k
#2070000
0"
0k
0l
1W!
0U!
0T!
0J!
0d!
0b!
0Y!
1*!
0V
#2080000
1"
1k
#2090000
0"
0k
1l
#2100000
1"
1k
#2110000
0"
0k
0l
1T!
1J!
0+!
1(!
1b!
1Y!
0*!
1V
0T
1U
#2120000
1"
1k
#2130000
0"
0k
1l
#2140000
1"
1k
#2150000
0"
0k
0l
1U!
0T!
0J!
1d!
1[!
0b!
0Y!
0V
0[!
#2160000
1"
1k
#2170000
0"
0k
1l
#2180000
1"
1k
#2190000
0"
0k
0l
1T!
1J!
0(!
1b!
1Y!
1V
0U
1[!
#2200000
1"
1k
#2210000
0"
0k
1l
#2220000
1"
1k
#2230000
0"
0k
0l
1\!
0Z!
0W!
0U!
0T!
0J!
0]!
0[!
0b!
0Y!
1,!
1*!
0V
#2240000
1"
1k
#2250000
0"
0k
1l
#2260000
1"
1k
#2270000
0"
0k
0l
1T!
1J!
0-!
1+!
1(!
1b!
1Y!
0,!
0*!
1V
0S
1T
1U
#2280000
1"
1k
#2290000
0"
0k
1l
#2300000
1"
1k
#2310000
0"
0k
0l
1U!
0T!
0J!
0b!
0Y!
0V
#2320000
1"
1k
#2330000
0"
0k
1l
#2340000
1"
1k
#2350000
0"
0k
0l
1T!
1J!
0(!
1b!
1Y!
1V
0U
#2360000
1"
1k
#2370000
0"
0k
1l
#2380000
1"
1k
#2390000
0"
0k
0l
1W!
0U!
0T!
0J!
0d!
0b!
0Y!
1*!
0V
0e!
1S!
1c
1_
0\!
0W!
1]!
1d!
1e!
0S!
0c
0_
#2400000
1"
1k
#2410000
0"
0k
1l
#2420000
1"
1k
#2430000
0"
0k
0l
1T!
1J!
0+!
1(!
1b!
1Y!
0*!
1/!
1V
0T
1U
0/!
13!
11!
03!
01!
#2440000
1"
1k
#2450000
0"
0k
1l
#2460000
1"
1k
#2470000
0"
0k
0l
1U!
0T!
0J!
0b!
0Y!
0V
#2480000
1"
1k
#2490000
0"
0k
1l
#2500000
1"
1k
#2510000
0"
0k
0l
1T!
1J!
0(!
1b!
1Y!
1V
0U
#2520000
1"
1k
#2530000
0"
0k
1l
#2540000
1"
1k
#2550000
0"
0k
0l
1W!
0U!
0T!
0J!
0d!
0b!
0Y!
1,!
1*!
0V
1/!
13!
11!
#2560000
1"
1k
#2570000
0"
0k
1l
#2580000
1"
1k
#2590000
0"
0k
0l
1T!
1J!
04!
12!
10!
1-!
1+!
1(!
1b!
1Y!
0,!
0*!
03!
01!
0/!
1V
0P
1Q
1R
1S
1T
1U
#2600000
1"
1k
#2610000
0"
0k
1l
#2620000
1"
1k
#2630000
0"
0k
0l
1U!
0T!
0J!
1d!
0b!
0Y!
0V
#2640000
1"
1k
#2650000
0"
0k
1l
#2660000
1"
1k
#2670000
0"
0k
0l
1T!
1J!
0(!
1b!
1Y!
1V
0U
#2680000
1"
1k
#2690000
0"
0k
1l
#2700000
1"
1k
#2710000
0"
0k
0l
1Z!
0W!
0U!
0T!
0J!
0b!
0Y!
1*!
0V
#2720000
1"
1k
#2730000
0"
0k
1l
#2740000
1"
1k
#2750000
0"
0k
0l
1T!
1J!
0+!
1(!
1b!
1Y!
0*!
1V
0T
1U
#2760000
1"
1k
#2770000
0"
0k
1l
#2780000
1"
1k
#2790000
0"
0k
0l
1U!
0T!
0J!
0b!
0Y!
0V
#2800000
1"
1k
#2810000
0"
0k
1l
#2820000
1"
1k
#2830000
0"
0k
0l
1T!
1J!
0(!
1b!
1Y!
1V
0U
#2840000
1"
1k
#2850000
0"
0k
1l
#2860000
1"
1k
#2870000
0"
0k
0l
1W!
0U!
0T!
0J!
0d!
0b!
0Y!
1,!
1*!
0V
#2880000
1"
1k
#2890000
0"
0k
1l
#2900000
1"
1k
#2910000
0"
0k
0l
1T!
1J!
0-!
1+!
1(!
1b!
1Y!
0,!
0*!
1V
0S
1T
1U
#2920000
1"
1k
#2930000
0"
0k
1l
#2940000
1"
1k
#2950000
0"
0k
0l
1U!
0T!
0J!
1d!
1[!
0b!
0Y!
0V
0[!
#2960000
1"
1k
#2970000
0"
0k
1l
#2980000
1"
1k
#2990000
0"
0k
0l
1T!
1J!
0(!
1b!
1Y!
1V
0U
1[!
#3000000
1"
1k
#3010000
0"
0k
1l
#3020000
1"
1k
#3030000
0"
0k
0l
1\!
0Z!
0W!
0U!
0T!
0J!
0]!
0[!
0b!
0Y!
1*!
0V
#3040000
1"
1k
#3050000
0"
0k
1l
#3060000
1"
1k
#3070000
0"
0k
0l
1T!
1J!
0+!
1(!
1b!
1Y!
0*!
1/!
1V
0T
1U
0/!
#3080000
1"
1k
#3090000
0"
0k
1l
#3100000
1"
1k
#3110000
0"
0k
0l
1U!
0T!
0J!
0b!
0Y!
0V
#3120000
1"
1k
#3130000
0"
0k
1l
#3140000
1"
1k
#3150000
0"
0k
0l
1T!
1J!
0(!
1b!
1Y!
1V
0U
#3160000
1"
1k
#3170000
0"
0k
1l
#3180000
1"
1k
#3190000
0"
0k
0l
1W!
0U!
0T!
0J!
0d!
0b!
0Y!
1,!
1*!
0V
0e!
1/!
1S!
1c
1_
0\!
0W!
1]!
1d!
1e!
0S!
0c
0_
#3200000
1"
1k
#3210000
0"
0k
1l
#3220000
1"
1k
#3230000
0"
0k
0l
1T!
1J!
00!
1-!
1+!
1(!
1b!
1Y!
0,!
0*!
11!
0/!
1V
0R
1S
1T
1U
01!
#3240000
1"
1k
#3250000
0"
0k
1l
#3260000
1"
1k
#3270000
0"
0k
0l
1U!
0T!
0J!
0b!
0Y!
0V
#3280000
1"
1k
#3290000
0"
0k
1l
#3300000
1"
1k
#3310000
0"
0k
0l
1T!
1J!
0(!
1b!
1Y!
1V
0U
#3320000
1"
1k
#3330000
0"
0k
1l
#3340000
1"
1k
#3350000
0"
0k
0l
1W!
0U!
0T!
0J!
0d!
0b!
0Y!
1*!
0V
#3360000
1"
1k
#3370000
0"
0k
1l
#3380000
1"
1k
#3390000
0"
0k
0l
1T!
1J!
0+!
1(!
1b!
1Y!
0*!
1V
0T
1U
#3400000
1"
1k
#3410000
0"
0k
1l
#3420000
1"
1k
#3430000
0"
0k
0l
1U!
0T!
0J!
1d!
0b!
0Y!
0V
#3440000
1"
1k
#3450000
0"
0k
1l
#3460000
1"
1k
#3470000
0"
0k
0l
1T!
1J!
0(!
1b!
1Y!
1V
0U
#3480000
1"
1k
#3490000
0"
0k
1l
#3500000
1"
1k
#3510000
0"
0k
0l
1Z!
0W!
0U!
0T!
0J!
0b!
0Y!
1,!
1*!
0V
#3520000
1"
1k
#3530000
0"
0k
1l
#3540000
1"
1k
#3550000
0"
0k
0l
1T!
1J!
0-!
1+!
1(!
1b!
1Y!
0,!
0*!
1V
0S
1T
1U
#3560000
1"
1k
#3570000
0"
0k
1l
#3580000
1"
1k
#3590000
0"
0k
0l
1U!
0T!
0J!
0b!
0Y!
0V
#3600000
1"
1k
#3610000
0"
0k
1l
#3620000
1"
1k
#3630000
0"
0k
0l
1T!
1J!
0(!
1b!
1Y!
1V
0U
#3640000
1"
1k
#3650000
0"
0k
1l
#3660000
1"
1k
#3670000
0"
0k
0l
1W!
0U!
0T!
0J!
0d!
0b!
0Y!
1*!
0V
#3680000
1"
1k
#3690000
0"
0k
1l
#3700000
1"
1k
#3710000
0"
0k
0l
1T!
1J!
0+!
1(!
1b!
1Y!
0*!
1/!
1V
0T
1U
0/!
11!
01!
#3720000
1"
1k
#3730000
0"
0k
1l
#3740000
1"
1k
#3750000
0"
0k
0l
1U!
0T!
0J!
1d!
1[!
0b!
0Y!
0V
0[!
#3760000
1"
1k
#3770000
0"
0k
1l
#3780000
1"
1k
#3790000
0"
0k
0l
1T!
1J!
0(!
1b!
1Y!
1V
0U
1[!
#3800000
1"
1k
#3810000
0"
0k
1l
#3820000
1"
1k
#3830000
0"
0k
0l
1\!
0Z!
0W!
0U!
0T!
0J!
0]!
0[!
0b!
0Y!
1,!
1*!
0V
1/!
11!
#3840000
1"
1k
#3850000
0"
0k
1l
#3860000
1"
1k
#3870000
0"
0k
0l
1T!
1J!
02!
10!
1-!
1+!
1(!
1b!
1Y!
0,!
0*!
01!
0/!
1V
0Q
1R
1S
1T
1U
#3880000
1"
1k
#3890000
0"
0k
1l
#3900000
1"
1k
#3910000
0"
0k
0l
1U!
0T!
0J!
0b!
0Y!
0V
#3920000
1"
1k
#3930000
0"
0k
1l
#3940000
1"
1k
#3950000
0"
0k
0l
1T!
1J!
0(!
1b!
1Y!
1V
0U
#3960000
1"
1k
#3970000
0"
0k
1l
#3980000
1"
1k
#3990000
0"
0k
0l
1W!
0U!
0T!
0J!
0d!
0b!
0Y!
1*!
0V
0e!
1S!
1c
1_
0\!
0W!
1]!
1d!
1e!
0S!
0c
0_
#4000000
1"
1k
#4010000
0"
0k
1l
#4020000
1"
1k
#4030000
0"
0k
0l
1T!
1J!
0+!
1(!
1b!
1Y!
0*!
1V
0T
1U
#4040000
1"
1k
#4050000
0"
0k
1l
#4060000
1"
1k
#4070000
0"
0k
0l
1U!
0T!
0J!
0b!
0Y!
0V
#4080000
1"
1k
#4090000
0"
0k
1l
#4100000
1"
1k
#4110000
0"
0k
0l
1T!
1J!
0(!
1b!
1Y!
1V
0U
#4120000
1"
1k
#4130000
0"
0k
1l
#4140000
1"
1k
#4150000
0"
0k
0l
1W!
0U!
0T!
0J!
0d!
0b!
0Y!
1,!
1*!
0V
#4160000
1"
1k
#4170000
0"
0k
1l
#4180000
1"
1k
#4190000
0"
0k
0l
1T!
1J!
0-!
1+!
1(!
1b!
1Y!
0,!
0*!
1V
0S
1T
1U
#4200000
1"
1k
#4210000
0"
0k
1l
#4220000
1"
1k
#4230000
0"
0k
0l
1U!
0T!
0J!
1d!
0b!
0Y!
0V
#4240000
1"
1k
#4250000
0"
0k
1l
#4260000
1"
1k
#4270000
0"
0k
0l
1T!
1J!
0(!
1b!
1Y!
1V
0U
#4280000
1"
1k
#4290000
0"
0k
1l
#4300000
1"
1k
#4310000
0"
0k
0l
1Z!
0W!
0U!
0T!
0J!
0b!
0Y!
1*!
0V
#4320000
1"
1k
#4330000
0"
0k
1l
#4340000
1"
1k
#4350000
0"
0k
0l
1T!
1J!
0+!
1(!
1b!
1Y!
0*!
1/!
1V
0T
1U
0/!
#4360000
1"
1k
#4370000
0"
0k
1l
#4380000
1"
1k
#4390000
0"
0k
0l
1U!
0T!
0J!
0b!
0Y!
0V
#4400000
1"
1k
#4410000
0"
0k
1l
#4420000
1"
1k
