simulation/qsim/MI-CircuitosDigitais-Problema-3.msim.vcd
$comment
	File created using the following command:
		vcd file MI-CircuitosDigitais-Problema-3.msim.vcd -direction
$end
$date
	Sun Feb 11 21:21:39 2024
$end
$version
	ModelSim Version 10.5b
$end
$timescale
	1ps
$end

$scope module pbl_vlg_vec_tst $end
$var reg 1 ! ch $end
$var reg 1 " clock_50mhz $end
$var reg 1 # cq $end
$var reg 1 $ hh_load $end
$var reg 1 % op_c_deboucing $end
$var reg 1 & op_deboucing $end
$var reg 1 ' pg $end
$var reg 1 ( start_stop $end
$var wire 1 ) Nac_7segmentos [3] $end
$var wire 1 * Nac_7segmentos [2] $end
$var wire 1 + Nac_7segmentos [1] $end
$var wire 1 , Nac_7segmentos [0] $end
$var wire 1 - Nal $end
$var wire 1 . Nout_7seg [7] $end
$var wire 1 / Nout_7seg [6] $end
$var wire 1 0 Nout_7seg [5] $end
$var wire 1 1 Nout_7seg [4] $end
$var wire 1 2 Nout_7seg [3] $end
$var wire 1 3 Nout_7seg [2] $end
$var wire 1 4 Nout_7seg [1] $end
$var wire 1 5 Nout_7seg [0] $end
$var wire 1 6 al $end
$var wire 1 7 ev $end
$var wire 1 8 m $end
$var wire 1 9 mef_estado [1] $end
$var wire 1 : mef_estado [0] $end
$var wire 1 ; test_buffer_principal [6] $end
$var wire 1 < test_buffer_principal [5] $end
$var wire 1 = test_buffer_principal [4] $end
$var wire 1 > test_buffer_principal [3] $end
$var wire 1 ? test_buffer_principal [2] $end
$var wire 1 @ test_buffer_principal [1] $end
$var wire 1 A test_buffer_principal [0] $end
$var wire 1 B test_buffer_secundario [6] $end
$var wire 1 C test_buffer_secundario [5] $end
$var wire 1 D test_buffer_secundario [4] $end
$var wire 1 E test_buffer_secundario [3] $end
$var wire 1 F test_buffer_secundario [2] $end
$var wire 1 G test_buffer_secundario [1] $end
$var wire 1 H test_buffer_secundario [0] $end
$var wire 1 I test_buffer_secundario_controle_min_rolhas [6] $end
$var wire 1 J test_buffer_secundario_controle_min_rolhas [5] $end
$var wire 1 K test_buffer_secundario_controle_min_rolhas [4] $end
$var wire 1 L test_buffer_secundario_controle_min_rolhas [3] $end
$var wire 1 M test_buffer_secundario_controle_min_rolhas [2] $end
$var wire 1 N test_buffer_secundario_controle_min_rolhas [1] $end
$var wire 1 O test_buffer_secundario_controle_min_rolhas [0] $end
$var wire 1 P test_buffer_secundario_controle_operador [6] $end
$var wire 1 Q test_buffer_secundario_controle_operador [5] $end
$var wire 1 R test_buffer_secundario_controle_operador [4] $end
$var wire 1 S test_buffer_secundario_controle_operador [3] $end
$var wire 1 T test_buffer_secundario_controle_operador [2] $end
$var wire 1 U test_buffer_secundario_controle_operador [1] $end
$var wire 1 V test_buffer_secundario_controle_operador [0] $end
$var wire 1 W ve $end

$scope module i1 $end
$var wire 1 X gnd $end
$var wire 1 Y vcc $end
$var wire 1 Z unknown $end
$var tri1 1 [ devclrn $end
$var tri1 1 \ devpor $end
$var tri1 1 ] devoe $end
$var wire 1 ^ registrador_2|ff_6|q~4_cout $end
$var wire 1 _ clock_50mhz~combout $end
$var wire 1 ` divisor_f|ff_1|q~regout $end
$var wire 1 a divisor_f|ff_2|q~regout $end
$var wire 1 b divisor_f|ff_3|q~regout $end
$var wire 1 c start_stop~combout $end
$var wire 1 d ch~combout $end
$var wire 1 e mef_1|jk_1|q~regout $end
$var wire 1 f mef_1|jk_2|q~0_combout $end
$var wire 1 g cq~combout $end
$var wire 1 h op_c_deboucing~combout $end
$var wire 1 i contador_entrada_rolhas|ff_1|q~regout $end
$var wire 1 j contador_entrada_rolhas|ff_2|q~regout $end
$var wire 1 k contador_entrada_rolhas|ff_3|q~regout $end
$var wire 1 l contador_entrada_rolhas|ff_4|q~regout $end
$var wire 1 m contador_entrada_rolhas|gate_3|S~combout $end
$var wire 1 n contador_entrada_rolhas|ff_5|q~regout $end
$var wire 1 o contador_entrada_rolhas|ff_6|q~regout $end
$var wire 1 p enable_buffer_secundario~combout $end
$var wire 1 q contador_1_buffer_secundario|ff_1|q~regout $end
$var wire 1 r controle_sel_operador~0_combout $end
$var wire 1 s contador_1_buffer_secundario|ff_1|q_bar~regout $end
$var wire 1 t contador_1_buffer_secundario|ff_2|q~0_combout $end
$var wire 1 u contador_1_buffer_secundario|ff_2|q~regout $end
$var wire 1 v contador_1_buffer_secundario|ff_2|q~1_combout $end
$var wire 1 w contador_1_buffer_secundario|ff_2|q_bar~regout $end
$var wire 1 x contador_1_buffer_secundario|ff_3|q~0_combout $end
$var wire 1 y contador_1_buffer_secundario|ff_3|q~1_combout $end
$var wire 1 z contador_1_buffer_secundario|ff_3|q~regout $end
$var wire 1 { contador_1_buffer_secundario|ff_4|q~1_combout $end
$var wire 1 | contador_1_buffer_secundario|ff_3|q_bar~regout $end
$var wire 1 } contador_1_buffer_secundario|ff_4|q~0_combout $end
$var wire 1 ~ contador_1_buffer_secundario|ff_4|q~2_combout $end
$var wire 1 !! contador_1_buffer_secundario|ff_4|q~regout $end
$var wire 1 "! contador_1_buffer_secundario|ff_4|q_bar~regout $end
$var wire 1 #! contador_1_buffer_secundario|ff_5|q~0_combout $end
$var wire 1 $! contador_1_buffer_secundario|ff_5|q~1_combout $end
$var wire 1 %! contador_1_buffer_secundario|ff_5|q~regout $end
$var wire 1 &! contador_1_buffer_secundario|ff_5|q_bar~regout $end
$var wire 1 '! contador_1_buffer_secundario|ff_6|q~0_combout $end
$var wire 1 (! contador_1_buffer_secundario|ff_6|q~1_combout $end
$var wire 1 )! contador_1_buffer_secundario|ff_6|q~regout $end
$var wire 1 *! registrador_1|ff_2|q~regout $end
$var wire 1 +! registrador_1|ff_4|q~regout $end
$var wire 1 ,! registrador_1|ff_5|q~regout $end
$var wire 1 -! comb_54|somador_subtrator_1|gate_8|WideAnd0 $end
$var wire 1 .! registrador_1|ff_6|q~regout $end
$var wire 1 /! registrador_2|ff_6|q~4COUT0_9 $end
$var wire 1 0! registrador_2|ff_6|q~4COUT1_10 $end
$var wire 1 1! registrador_2|ff_6|q~1 $end
$var wire 1 2! registrador_2|ff_6|q~1COUT1_11 $end
$var wire 1 3! registrador_2|ff_5|q~1 $end
$var wire 1 4! registrador_2|ff_5|q~1COUT1_3 $end
$var wire 1 5! registrador_2|ff_4|q~1 $end
$var wire 1 6! registrador_1|ff_3|q~regout $end
$var wire 1 7! registrador_2|ff_3|q~1 $end
$var wire 1 8! registrador_2|ff_3|q~1COUT1_3 $end
$var wire 1 9! registrador_2|ff_2|q~regout $end
$var wire 1 :! contador_entrada_rolhas|ff_7|q~regout $end
$var wire 1 ;! contador_1_buffer_secundario|ff_6|q_bar~regout $end
$var wire 1 <! contador_1_buffer_secundario|ff_6|q~2_combout $end
$var wire 1 =! contador_1_buffer_secundario|ff_7|q~0_combout $end
$var wire 1 >! contador_1_buffer_secundario|ff_7|q~regout $end
$var wire 1 ?! registrador_1|ff_1|q~regout $end
$var wire 1 @! registrador_2|ff_2|q~1 $end
$var wire 1 A! registrador_2|ff_2|q~1COUT1_3 $end
$var wire 1 B! registrador_2|ff_1|q~regout $end
$var wire 1 C! op_deboucing~combout $end
$var wire 1 D! registrador_2|ff_5|q~regout $end
$var wire 1 E! registrador_2|ff_3|q~regout $end
$var wire 1 F! registrador_2|ff_4|q~regout $end
$var wire 1 G! load_aux[1]~0_combout $end
$var wire 1 H! load_aux[1]~1_combout $end
$var wire 1 I! pulsador_2|ff_1|q~regout $end
$var wire 1 J! pulsador_2|ff_1|nq~regout $end
$var wire 1 K! pulsador_2|Pulse~combout $end
$var wire 1 L! registrador_1|ff_7|q~regout $end
$var wire 1 M! registrador_2|ff_7|q~regout $end
$var wire 1 N! contador_3_buffer_secundario_controle_operador|gate_33|comb~0_combout $end
$var wire 1 O! contador_3_buffer_secundario_controle_operador|ff_1|q~0_combout $end
$var wire 1 P! contador_3_buffer_secundario_controle_operador|ff_1|q_bar~regout $end
$var wire 1 Q! contador_3_buffer_secundario_controle_operador|ff_2|q_bar~1_combout $end
$var wire 1 R! registrador_2|ff_6|q~regout $end
$var wire 1 S! contador_3_buffer_secundario_controle_operador|gate_32|comb~0_combout $end
$var wire 1 T! contador_3_buffer_secundario_controle_operador|ff_2|q~0_combout $end
$var wire 1 U! contador_3_buffer_secundario_controle_operador|ff_2|q_bar~regout $end
$var wire 1 V! contador_3_buffer_secundario_controle_operador|ff_3|q_bar~0_combout $end
$var wire 1 W! contador_3_buffer_secundario_controle_operador|gate_31|comb~0_combout $end
$var wire 1 X! contador_3_buffer_secundario_controle_operador|ff_3|q~0_combout $end
$var wire 1 Y! contador_3_buffer_secundario_controle_operador|ff_3|q_bar~regout $end
$var wire 1 Z! contador_3_buffer_secundario_controle_operador|ff_4|q_bar~0_combout $end
$var wire 1 [! contador_3_buffer_secundario_controle_operador|gate_30|comb~0_combout $end
$var wire 1 \! contador_3_buffer_secundario_controle_operador|ff_4|q~0_combout $end
$var wire 1 ]! contador_3_buffer_secundario_controle_operador|ff_4|q_bar~regout $end
$var wire 1 ^! contador_3_buffer_secundario_controle_operador|ff_5|q_bar~0_combout $end
$var wire 1 _! contador_3_buffer_secundario_controle_operador|gate_29|comb~0_combout $end
$var wire 1 `! contador_3_buffer_secundario_controle_operador|ff_5|q~0_combout $end
$var wire 1 a! contador_3_buffer_secundario_controle_operador|ff_5|q_bar~regout $end
$var wire 1 b! contador_3_buffer_secundario_controle_operador|gate_28|comb~0_combout $end
$var wire 1 c! contador_3_buffer_secundario_controle_operador|ff_6|q~0_combout $end
$var wire 1 d! contador_3_buffer_secundario_controle_operador|ff_6|q_bar~regout $end
$var wire 1 e! contador_3_buffer_secundario_controle_operador|gate_27|comb~0_combout $end
$var wire 1 f! contador_3_buffer_secundario_controle_operador|ff_7|q~regout $end
$var wire 1 g! WideAnd2~2_combout $end
$var wire 1 h! WideAnd2~3_combout $end
$var wire 1 i! WideAnd2~4_combout $end
$var wire 1 j! ff_2|q~regout $end
$var wire 1 k! comb_95|jk_2|q~regout $end
$var wire 1 l! mux_2|OUT~2_combout $end
$var wire 1 m! comb_95|jk_1|q~regout $end
$var wire 1 n! estado_vedacao~combout $end
$var wire 1 o! contador_2_buffer_secundario_controle_rolhas|ff_1|q_bar~regout $end
$var wire 1 p! contador_2_buffer_secundario_controle_rolhas|ff_2|q_bar~0_combout $end
$var wire 1 q! contador_2_buffer_secundario_controle_rolhas|ff_2|q_bar~regout $end
$var wire 1 r! contador_2_buffer_secundario_controle_rolhas|ff_3|q_bar~regout $end
$var wire 1 s! contador_2_buffer_secundario_controle_rolhas|ff_4|q_bar~regout $end
$var wire 1 t! contador_2_buffer_secundario_controle_rolhas|ff_5|q_bar~0_combout $end
$var wire 1 u! contador_2_buffer_secundario_controle_rolhas|ff_5|q_bar~regout $end
$var wire 1 v! contador_2_buffer_secundario_controle_rolhas|ff_6|q_bar~regout $end
$var wire 1 w! contador_2_buffer_secundario_controle_rolhas|ff_7|q~regout $end
$var wire 1 x! WideAnd1~0_combout $end
$var wire 1 y! WideAnd1~1_combout $end
$var wire 1 z! mux_1|OUT~0_combout $end
$var wire 1 {! WideAnd0~2_combout $end
$var wire 1 |! contador_4_buffer_principal|ff_2|q~2_combout $end
$var wire 1 }! contador_4_buffer_principal|ff_2|q~regout $end
$var wire 1 ~! contador_4_buffer_principal|ff_2|q_bar~regout $end
$var wire 1 !" contador_4_buffer_principal|ff_3|q~0_combout $end
$var wire 1 "" contador_4_buffer_principal|ff_3|q~1_combout $end
$var wire 1 #" contador_4_buffer_principal|ff_3|q~2_combout $end
$var wire 1 $" contador_4_buffer_principal|ff_3|q~regout $end
$var wire 1 %" contador_4_buffer_principal|ff_3|q_bar~regout $end
$var wire 1 &" contador_4_buffer_principal|ff_4|q~0_combout $end
$var wire 1 '" contador_4_buffer_principal|ff_4|q~1_combout $end
$var wire 1 (" contador_4_buffer_principal|ff_4|q~regout $end
$var wire 1 )" contador_4_buffer_principal|ff_4|q_bar~regout $end
$var wire 1 *" contador_4_buffer_principal|ff_5|q~0_combout $end
$var wire 1 +" contador_4_buffer_principal|ff_5|q~1_combout $end
$var wire 1 ," contador_4_buffer_principal|ff_5|q~regout $end
$var wire 1 -" contador_4_buffer_principal|ff_5|q_bar~regout $end
$var wire 1 ." contador_4_buffer_principal|ff_6|q~0_combout $end
$var wire 1 /" contador_4_buffer_principal|ff_6|q~1_combout $end
$var wire 1 0" contador_4_buffer_principal|ff_6|q~regout $end
$var wire 1 1" mux_36|gate_4|WideAnd0~10_combout $end
$var wire 1 2" contador_4_buffer_principal|ff_7|q~1_combout $end
$var wire 1 3" contador_4_buffer_principal|ff_6|q_bar~regout $end
$var wire 1 4" contador_4_buffer_principal|ff_7|q~0_combout $end
$var wire 1 5" contador_4_buffer_principal|ff_7|q~regout $end
$var wire 1 6" WideAnd0~0_combout $end
$var wire 1 7" WideAnd0~1_combout $end
$var wire 1 8" pulsador_1|ff_1|q~regout $end
$var wire 1 9" pulsador_1|ff_1|nq~regout $end
$var wire 1 :" WideAnd0~3 $end
$var wire 1 ;" pulsador_1|Pulse~combout $end
$var wire 1 <" WideAnd1~2_combout $end
$var wire 1 =" ff_1|q~regout $end
$var wire 1 >" comb_94|jk_2|q~regout $end
$var wire 1 ?" comb_94|jk_1|q~regout $end
$var wire 1 @" enable_buffer_principal~combout $end
$var wire 1 A" contador_4_buffer_principal|ff_1|q_bar~regout $end
$var wire 1 B" m_aus_rolhas|gate_1|WideOr0~combout $end
$var wire 1 C" mef_1|gate_10|WideAnd0~combout $end
$var wire 1 D" contador_duzias|ff_1|q~regout $end
$var wire 1 E" contador_duzias|ff_2|q~regout $end
$var wire 1 F" contador_duzias|ff_3|q~regout $end
$var wire 1 G" contador_duzias|ff_4|q~regout $end
$var wire 1 H" reset_1|gate_1|S~combout $end
$var wire 1 I" pg~combout $end
$var wire 1 J" mef_1|jk_2|q~1_combout $end
$var wire 1 K" mef_1|jk_2|q~regout $end
$var wire 1 L" mef_1|gate_11|WideAnd0~combout $end
$var wire 1 M" mef_1|gate_9|WideAnd0~combout $end
$var wire 1 N" mef_1|gate_8|S~0_combout $end
$var wire 1 O" mef_1|gate_8|S~1_combout $end
$var wire 1 P" mux_36|gate_4|WideAnd0~5_combout $end
$var wire 1 Q" mux_37|gate_4|WideAnd0~6_combout $end
$var wire 1 R" mux_39|gate_3|WideAnd0~0_combout $end
$var wire 1 S" mux_36|gate_4|WideAnd0~1_combout $end
$var wire 1 T" mux_39|gate_3|WideAnd0~1_combout $end
$var wire 1 U" mux_36|gate_4|WideAnd0~9_combout $end
$var wire 1 V" mux_39|gate_3|WideAnd0~2_combout $end
$var wire 1 W" mux_38|gate_4|WideAnd0~0_combout $end
$var wire 1 X" mux_39|gate_3|WideAnd0~3_combout $end
$var wire 1 Y" contador_display|ff_1|q~regout $end
$var wire 1 Z" contador_display|ff_2|q~regout $end
$var wire 1 [" contador_dezenas_duzias|ff_3|q~regout $end
$var wire 1 \" contador_dezenas_duzias|ff_4|q~regout $end
$var wire 1 ]" gate_2|S~combout $end
$var wire 1 ^" contador_dezenas_duzias|ff_1|q~regout $end
$var wire 1 _" contador_dezenas_duzias|ff_2|q~regout $end
$var wire 1 `" codificador_garrafas_2|gate_1|S~0_combout $end
$var wire 1 a" mux_39|gate_5|WideOr0~0_combout $end
$var wire 1 b" mux_39|gate_5|WideOr0~1_combout $end
$var wire 1 c" mux_36|gate_5|WideOr0~1_combout $end
$var wire 1 d" mux_36|gate_4|WideAnd0~4_combout $end
$var wire 1 e" mux_36|gate_4|WideAnd0~6_combout $end
$var wire 1 f" mux_36|gate_4|WideAnd0~7_combout $end
$var wire 1 g" mux_36|gate_4|WideAnd0~0_combout $end
$var wire 1 h" mux_36|gate_4|WideAnd0~2_combout $end
$var wire 1 i" mux_36|gate_4|WideAnd0~3_combout $end
$var wire 1 j" mux_36|gate_4|WideAnd0~8_combout $end
$var wire 1 k" mux_36|gate_5|WideOr0~0_combout $end
$var wire 1 l" mux_36|gate_5|WideOr0~2_combout $end
$var wire 1 m" mux_38|gate_3|WideAnd0~0_combout $end
$var wire 1 n" mux_38|gate_3|WideAnd0~1_combout $end
$var wire 1 o" mux_38|gate_3|WideAnd0~2_combout $end
$var wire 1 p" mux_38|gate_4|WideAnd0~4_combout $end
$var wire 1 q" mux_38|gate_4|WideAnd0~3_combout $end
$var wire 1 r" mux_38|gate_4|WideAnd0~1_combout $end
$var wire 1 s" mux_38|gate_4|WideAnd0~2_combout $end
$var wire 1 t" mux_38|gate_4|WideAnd0~5_combout $end
$var wire 1 u" mux_38|gate_5|WideOr0~0_combout $end
$var wire 1 v" mux_38|gate_5|WideOr0~1_combout $end
$var wire 1 w" mux_38|gate_5|WideOr0~2_combout $end
$var wire 1 x" demux_1|gate_3|WideAnd0~0_combout $end
$var wire 1 y" mux_37|gate_4|WideAnd0~4_combout $end
$var wire 1 z" mux_37|gate_4|WideAnd0~3_combout $end
$var wire 1 {" mux_37|gate_4|WideAnd0~5_combout $end
$var wire 1 |" mux_37|gate_5|WideOr0~0_combout $end
$var wire 1 }" mux_37|gate_5|WideOr0~1_combout $end
$var wire 1 ~" mux_37|gate_4|WideAnd0~0_combout $end
$var wire 1 !# mux_37|gate_4|WideAnd0~1_combout $end
$var wire 1 "# mux_37|gate_4|WideAnd0~2_combout $end
$var wire 1 ## mux_37|gate_5|WideOr0~2_combout $end
$var wire 1 $# bcd_1|gate_23|WideOr0~combout $end
$var wire 1 %# bcd_1|gate_19|WideOr0~0_combout $end
$var wire 1 &# bcd_1|gate_15|S~0_combout $end
$var wire 1 '# bcd_1|gate_12|WideOr0~0_combout $end
$var wire 1 (# bcd_1|gate_7|WideOr0~combout $end
$var wire 1 )# bcd_1|gate_6|WideOr0~combout $end
$var wire 1 *# bcd_1|gate_3|WideOr0~combout $end
$var wire 1 +# demux_1|gate_3|WideAnd0~1_combout $end
$var wire 1 ,# demux_1|gate_3|WideAnd0~2_combout $end
$var wire 1 -# demux_1|gate_1|WideAnd0~combout $end
$upscope $end
$upscope $end
$enddefinitions $end
#0
$dumpvars
1!
1"
0#
0$
1%
1&
1'
1(
1,
1+
1*
0)
1-
05
14
03
02
01
00
0/
0.
06
17
08
0:
09
0A
0@
0?
0>
0=
0<
0;
0H
0G
0F
0E
0D
0C
0B
0O
0N
0M
0L
0K
0J
0I
0V
0U
0T
0S
0R
0Q
0P
0W
0X
1Y
xZ
1[
1\
1]
0^
1_
0`
0a
0b
1c
1d
0e
0f
0g
1h
0i
0j
0k
0l
0m
0n
0o
0p
0q
0r
0s
0t
0u
0v
0w
1x
0y
0z
0{
0|
1}
0~
0!!
0"!
0#!
0$!
0%!
0&!
1'!
0(!
0)!
0*!
0+!
0,!
0-!
0.!
0/!
00!
11!
12!
03!
04!
15!
06!
07!
08!
09!
0:!
0;!
0<!
1=!
0>!
0?!
1@!
1A!
0B!
1C!
0D!
0E!
0F!
0G!
1H!
0I!
0J!
0K!
0L!
0M!
0N!
0O!
0P!
0Q!
0R!
0S!
0T!
0U!
1V!
0W!
0X!
0Y!
1Z!
0[!
0\!
0]!
0^!
0_!
0`!
0a!
0b!
0c!
0d!
0e!
0f!
1g!
1h!
0i!
0j!
0k!
1l!
0m!
0n!
0o!
0p!
0q!
0r!
0s!
0t!
0u!
0v!
0w!
1x!
1y!
1z!
0{!
0|!
0}!
0~!
0!"
0""
0#"
0$"
0%"
0&"
0'"
0("
0)"
0*"
0+"
0,"
0-"
0."
0/"
00"
01"
02"
03"
04"
05"
16"
17"
08"
09"
0:"
0;"
0<"
0="
0>"
0?"
0@"
0A"
0B"
0C"
0D"
0E"
0F"
0G"
0H"
1I"
1J"
0K"
0L"
0M"
1N"
1O"
0P"
0Q"
0R"
1S"
0T"
0U"
0V"
0W"
0X"
0Y"
0Z"
0["
0\"
1]"
0^"
0_"
0`"
0a"
0b"
0c"
0d"
0e"
0f"
0g"
0h"
0i"
0j"
0k"
0l"
0m"
0n"
0o"
0p"
1q"
0r"
0s"
0t"
0u"
0v"
0w"
0x"
0y"
0z"
0{"
0|"
0}"
0~"
1!#
0"#
0##
0$#
1%#
1&#
1'#
1(#
1)#
1*#
0+#
0,#
0-#
$end
#10000
0"
0%
0_
0h
1`
#20000
1"
1%
1_
1h
1i
#30000
0"
0%
0_
0h
0`
1a
#40000
1"
1%
1_
1h
1j
0i
#50000
0"
0%
0_
0h
1`
#60000
1"
1%
1_
1h
1i
#70000
0"
0%
0_
0h
0`
0a
1b
19"
1J!
#80000
1"
1%
1_
1h
1k
0j
0i
#90000
0"
0%
0_
0h
1`
#100000
1"
1%
1_
1h
1i
#110000
0"
0%
0_
0h
0`
1a
#120000
1"
1%
1_
1h
1j
0i
#130000
0"
0%
0_
0h
1`
#140000
1"
1%
1_
1h
1i
#150000
0"
0%
0_
0h
0`
0a
0b
1Y"
1K"
1-#
1,#
0N"
1:
0O"
1)
0*
07
#160000
1"
1%
1_
1h
1l
0k
0j
0i
#170000
0"
0%
0_
0h
1`
#180000
1"
1%
1_
1h
1i
#190000
0"
0%
0_
0h
0`
1a
#200000
1"
1%
1_
1h
1j
0i
#210000
0"
0%
0_
0h
1`
#220000
1"
1%
1_
1h
1i
#230000
0"
0%
0_
0h
0`
0a
1b
#240000
1"
1%
1_
1h
1k
0j
0i
#250000
0"
0%
0_
0h
1`
#260000
1"
1%
1_
1h
1i
#270000
0"
0%
0_
0h
0`
1a
#280000
1"
1%
1_
1h
1j
0i
#290000
0"
0%
0_
0h
1`
#300000
1"
1%
1_
1h
1i
1m
#310000
0"
0%
0_
0h
0`
0a
0b
1Z"
0Y"
0K"
1e
0,#
1+#
1N"
1M"
0J"
0:
19
16
0-
0+
1*
#320000
1"
1%
1_
1h
1n
0l
0k
0j
0i
17!
0m
#330000
0"
0%
0_
0h
1`
#340000
1"
1%
1_
1h
1i
#350000
0"
0%
0_
0h
0`
1a
#360000
1"
1%
1_
1h
1j
0i
#370000
0"
0%
0_
0h
1`
#380000
1"
1%
1_
1h
1i
#390000
0"
0%
0_
0h
0`
0a
1b
#400000
1"
1_
#410000
0"
0_
1`
#420000
1"
1_
#430000
0"
0_
0`
1a
#440000
1"
1_
#450000
0"
0_
1`
#460000
1"
1_
#470000
0"
0_
0`
0a
0b
1Y"
0+#
1x"
1a"
0,
1+
#480000
1%
1"
1h
1_
1k
0j
0i
#490000
0"
0_
1`
#500000
1"
1_
#510000
0"
0_
0`
1a
#520000
1"
1_
#530000
0"
0_
1`
#540000
1"
1_
#550000
0"
0_
0`
0a
1b
#560000
0%
1"
0h
1_
#570000
0"
0_
1`
#580000
1"
1_
#590000
0"
0_
0`
1a
#600000
1"
1_
#610000
0"
0_
1`
#620000
1"
1_
#630000
0"
0_
0`
0a
0b
0Z"
0Y"
0-#
0x"
0a"
1b"
0b"
0*#
0'#
0&#
0%#
0)
1,
1*#
1'#
1&#
1%#
13
12
11
1.
03
02
01
0.
#640000
0&
1"
0C!
1_
07"
0H!
1K!
1j!
1E!
1D!
1G!
#650000
0"
0_
1`
#660000
1"
1_
#670000
0"
0_
0`
1a
#680000
1"
1_
#690000
0"
0_
1`
#700000
1"
1_
#710000
0"
0_
0`
0a
1b
1I!
#720000
1&
1"
1C!
1_
17"
1H!
0K!
#730000
0"
0_
1`
#740000
1"
1_
#750000
0"
0_
0`
1a
#760000
1"
1_
#770000
0"
0_
1`
#780000
1"
1_
#790000
0"
0_
0`
0a
0b
1Y"
1k!
1-#
1,#
1e!
1b!
1`!
1[!
1X!
1S!
1N!
1)
0*
1a!
1Y!
0g!
0V!
1R
1T
0h!
0l!
#800000
1"
1_
#810000
0"
0_
1`
#820000
1"
1_
#830000
0"
0_
0`
1a
#840000
1"
1_
#850000
0"
0_
1`
#860000
1"
1_
#870000
0"
0_
0`
0a
1b
0J!
0I!
#880000
1"
1_
#890000
0"
0_
1`
#900000
1"
1_
#910000
0"
0_
0`
1a
#920000
1"
1_
#930000
0"
0_
1`
#940000
1"
1_
#950000
0"
0_
0`
0a
0b
1Z"
0Y"
1m!
0k!
0,#
1+#
1V!
1Q!
0x
1r
1p
0e!
0b!
0`!
0[!
0X!
0S!
0N!
0'!
0}
1(!
1$!
1~
0+
1*
0=!
0(!
0$!
0~
#960000
1"
1_
#970000
0"
0_
1`
#980000
1"
1_
#990000
0"
0_
0`
1a
#1000000
1"
1_
#1010000
0"
0_
1`
#1020000
1"
1_
#1030000
0"
0_
0`
0a
1b
1J!
#1040000
1"
1_
#1050000
0"
0_
1`
#1060000
1"
1_
#1070000
0"
0_
0`
1a
#1080000
1"
1_
#1090000
0"
0_
1`
#1100000
1"
1_
#1110000
0"
0_
0`
0a
0b
1Y"
0Y!
1U!
1P!
1s
1q
0+#
1x"
1a"
0Q!
1t
1v
0T
1U
1V
1H
0,
1+
#1120000
1"
1_
#1130000
0"
0_
1`
#1140000
1"
1_
#1150000
0"
0_
0`
1a
#1160000
1"
1_
#1170000
0"
0_
1`
#1180000
1"
1_
#1190000
0"
0_
0`
0a
1b
#1200000
1"
1_
#1210000
0"
0_
1`
#1220000
1"
1_
#1230000
0"
0_
0`
1a
#1240000
1"
1_
#1250000
0"
0_
1`
#1260000
1"
1_
#1270000
0"
0_
0`
0a
0b
0Z"
0Y"
0P!
1w
1u
0s
0q
0-#
0x"
0a"
1b"
1Q!
1y
0t
0v
0V
1G
0H
0b"
0*#
0'#
0&#
0%#
0y
0)
1,
1*#
1'#
1&#
1%#
13
12
11
1.
03
02
01
0.
#1280000
1"
1_
#1290000
0"
0_
1`
#1300000
1"
1_
#1310000
0"
0_
0`
1a
#1320000
1"
1_
#1330000
0"
0_
1`
#1340000
1"
1_
#1350000
0"
0_
0`
0a
1b
#1360000
1"
1_
#1370000
0"
0_
1`
#1380000
1"
1_
#1390000
0"
0_
0`
1a
#1400000
1"
1_
#1410000
0"
0_
1`
#1420000
1"
1_
#1430000
0"
0_
0`
0a
0b
1Y"
0U!
1P!
1s
1q
1-#
1,#
1^!
0Z!
0Q!
1t
1v
0U
1V
1H
0^!
1Z!
1y
1)
0*
#1440000
1"
1_
#1450000
0"
0_
1`
#1460000
1"
1_
#1470000
0"
0_
0`
1a
#1480000
1"
1_
#1490000
0"
0_
1`
#1500000
1"
1_
#1510000
0"
0_
0`
0a
1b
#1520000
1"
1_
#1530000
0"
0_
1`
#1540000
1"
1_
#1550000
0"
0_
0`
1a
#1560000
1"
1_
#1570000
0"
0_
1`
#1580000
1"
1_
#1590000
0"
0_
0`
0a
0b
1Z"
0Y"
0P!
1|
1z
0w
0u
0s
0q
0,#
1+#
0V!
1Q!
0y
0t
0v
0V
1F
0G
0H
1^!
0Z!
0+
1*
#1600000
1"
1_
#1610000
0"
0_
1`
#1620000
1"
1_
#1630000
0"
0_
0`
1a
#1640000
1"
1_
#1650000
0"
0_
1`
#1660000
1"
1_
#1670000
0"
0_
0`
0a
1b
#1680000
1"
1_
#1690000
0"
0_
1`
#1700000
1"
1_
#1710000
0"
0_
0`
1a
#1720000
1"
1_
#1730000
0"
0_
1`
#1740000
1"
1_
#1750000
0"
0_
0`
0a
0b
1Y"
0a!
1]!
1Y!
1U!
1P!
1s
1q
0+#
1x"
1a"
0^!
0Q!
1t
1v
0R
1S
1T
1U
1V
1H
0,
1+
#1760000
1"
1_
#1770000
0"
0_
1`
#1780000
1"
1_
#1790000
0"
0_
0`
1a
#1800000
1"
1_
#1810000
0"
0_
1`
#1820000
1"
1_
#1830000
0"
0_
0`
0a
1b
#1840000
1"
1_
#1850000
0"
0_
1`
#1860000
1"
1_
#1870000
0"
0_
0`
1a
#1880000
1"
1_
#1890000
0"
0_
1`
#1900000
1"
1_
#1910000
0"
0_
0`
0a
0b
0Z"
0Y"
0P!
1w
1u
0s
0q
0-#
0x"
0a"
1b"
1Q!
1y
0t
0v
0V
1G
0H
0b"
0*#
0'#
0&#
0%#
0y
0)
1,
1*#
1'#
1&#
1%#
13
12
11
1.
03
02
01
0.
#1920000
1"
1_
#1930000
0"
0_
1`
#1940000
1"
1_
#1950000
0"
0_
0`
1a
#1960000
1"
1_
#1970000
0"
0_
1`
#1980000
1"
1_
#1990000
0"
0_
0`
0a
1b
#2000000
1"
1_
#2010000
0"
0_
1`
#2020000
1"
1_
#2030000
0"
0_
0`
1a
#2040000
1"
1_
#2050000
0"
0_
1`
#2060000
1"
1_
#2070000
0"
0_
0`
0a
0b
1Y"
0U!
1P!
1s
1q
1-#
1,#
0Q!
1t
1{
1v
0U
1V
1H
1~
1y
1)
0*
#2080000
1"
1_
#2090000
0"
0_
1`
#2100000
1"
1_
#2110000
0"
0_
0`
1a
#2120000
1"
1_
#2130000
0"
0_
1`
#2140000
1"
1_
#2150000
0"
0_
0`
0a
1b
#2160000
1"
1_
#2170000
0"
0_
1`
#2180000
1"
1_
#2190000
0"
0_
0`
1a
#2200000
1"
1_
#2210000
0"
0_
1`
#2220000
1"
1_
#2230000
0"
0_
0`
0a
0b
1Z"
0Y"
0P!
1"!
1!!
0|
0z
0w
0u
0s
0q
0,#
1+#
1V!
1Q!
0{
0y
0t
0v
0V
1E
0F
0G
0H
0~
0+
1*
#2240000
1"
1_
#2250000
0"
0_
1`
#2260000
1"
1_
#2270000
0"
0_
0`
1a
#2280000
1"
1_
#2290000
0"
0_
1`
#2300000
1"
1_
#2310000
0"
0_
0`
0a
1b
#2320000
1"
1_
#2330000
0"
0_
1`
#2340000
1"
1_
#2350000
0"
0_
0`
1a
#2360000
1"
1_
#2370000
0"
0_
1`
#2380000
1"
1_
#2390000
0"
0_
0`
0a
0b
1Y"
0Y!
1U!
1P!
1s
1q
0+#
1x"
1a"
0Q!
1t
1v
0T
1U
1V
1H
0,
1+
#2400000
1"
1_
#2410000
0"
0_
1`
