simulation/qsim/MI-CircuitosDigitais-Problema-3.msim.vcd
$comment
	File created using the following command:
		vcd file MI-CircuitosDigitais-Problema-3.msim.vcd -direction
$end
$date
	Wed Jan 17 15:28:48 2024
$end
$version
	ModelSim Version 10.5b
$end
$timescale
	1ps
$end

$scope module modulo_codificador_unidade_rolhas_vlg_vec_tst $end
$var reg 7 ! REG_R [6:0] $end
$var wire 1 " REG_RU [3] $end
$var wire 1 # REG_RU [2] $end
$var wire 1 $ REG_RU [1] $end
$var wire 1 % REG_RU [0] $end

$scope module i1 $end
$var wire 1 & gnd $end
$var wire 1 ' vcc $end
$var wire 1 ( unknown $end
$var tri1 1 ) devclrn $end
$var tri1 1 * devpor $end
$var tri1 1 + devoe $end
$var wire 1 , WideOr2~1_combout $end
$var wire 1 - WideOr2~0_combout $end
$var wire 1 . WideOr2~2_combout $end
$var wire 1 / WideOr2~3_combout $end
$var wire 1 0 WideOr2~4_combout $end
$var wire 1 1 WideOr1~6_combout $end
$var wire 1 2 WideOr1~4_combout $end
$var wire 1 3 WideOr1~3_combout $end
$var wire 1 4 WideOr1~2_combout $end
$var wire 1 5 WideOr1~8_combout $end
$var wire 1 6 WideOr1~5_combout $end
$var wire 1 7 WideOr1~7_combout $end
$var wire 1 8 WideOr0~2_combout $end
$var wire 1 9 WideOr0~3_combout $end
$var wire 1 : WideOr0~4_combout $end
$var wire 1 ; WideOr0~5_combout $end
$var wire 1 < REG_R~combout [6] $end
$var wire 1 = REG_R~combout [5] $end
$var wire 1 > REG_R~combout [4] $end
$var wire 1 ? REG_R~combout [3] $end
$var wire 1 @ REG_R~combout [2] $end
$var wire 1 A REG_R~combout [1] $end
$var wire 1 B REG_R~combout [0] $end
$upscope $end
$upscope $end
$enddefinitions $end
#0
$dumpvars
b0 !
0%
0$
0#
0"
0&
1'
x(
1)
1*
1+
0,
0-
0.
1/
00
11
02
13
04
05
06
07
08
09
0:
0;
0B
0A
0@
0?
0>
0=
0<
$end
#10000
b1 !
1B
1%
#20000
b11 !
b10 !
0B
1A
03
10
0%
1$
#30000
b11 !
1B
1%
#40000
b111 !
b101 !
b100 !
0B
0A
1@
18
13
00
17
1,
0%
0$
1#
#50000
b101 !
1B
1%
#60000
b111 !
b110 !
0B
1A
19
08
03
10
0%
1$
#70000
b111 !
1B
1%
#80000
b1111 !
b1011 !
b1001 !
b1000 !
0B
0A
0@
1?
18
13
01
00
1.
07
0/
0,
0%
1:
10
0.
0$
0#
1;
00
1$
1"
0$
#90000
b1001 !
1B
1%
#100000
b1011 !
b1010 !
0B
1A
09
08
11
0%
0:
0;
0"
#110000
b1011 !
1B
1%
#120000
b1111 !
b1101 !
b1100 !
0B
0A
1@
01
17
1,
0%
07
1.
1#
10
0#
1$
#130000
b1101 !
1B
1%
#140000
b1111 !
b1110 !
0B
1A
18
11
0.
0%
17
00
1#
0$
#150000
b1111 !
1B
1%
#160000
b11111 !
b10111 !
b10011 !
b10001 !
b10000 !
0B
0A
0@
0?
1>
19
08
03
12
01
07
1-
0,
0%
16
1.
0#
17
10
1#
1$
#170000
b10001 !
1B
1%
#180000
b10011 !
b10010 !
0B
1A
18
13
02
0.
0%
1:
06
00
1;
07
0$
1"
0#
#190000
b10011 !
1B
1%
#200000
b10111 !
b10101 !
b10100 !
0B
0A
1@
09
08
03
12
1.
1/
0-
0%
0:
10
0.
0;
00
1$
0"
0$
#210000
b10101 !
1B
1%
#220000
b10111 !
b10110 !
0B
1A
13
02
10
0%
1$
#230000
b10111 !
1B
1%
#240000
b11111 !
b11011 !
b11001 !
b11000 !
0B
0A
0@
1?
18
03
12
00
0/
1-
0%
16
0$
17
1#
#250000
b11001 !
1B
1%
#260000
b11011 !
b11010 !
0B
1A
19
08
1.
0%
10
1$
#270000
b11011 !
1B
1%
#280000
b11111 !
b11101 !
b11100 !
0B
0A
1@
18
0.
06
0-
0%
1:
00
07
1;
0$
0#
1"
#290000
b11101 !
1B
1%
#300000
b11111 !
b11110 !
0B
1A
09
08
0%
0:
0;
0"
#310000
b11111 !
1B
1%
#320000
b111111 !
b101111 !
b100111 !
b100011 !
b100001 !
b100000 !
0B
0A
0@
0?
0>
1=
13
02
11
16
1/
1-
0%
15
06
17
1.
07
10
1#
0#
1$
#330000
b100001 !
1B
1%
#340000
b100011 !
b100010 !
0B
1A
03
12
01
0.
0%
05
16
00
17
0$
1#
#350000
b100011 !
1B
1%
#360000
b100111 !
b100101 !
b100100 !
0B
0A
1@
18
13
02
11
1.
06
0%
15
10
16
1$
#370000
b100101 !
1B
1%
#380000
b100111 !
b100110 !
0B
1A
19
08
03
12
01
0.
0%
1:
05
00
1;
06
0$
07
1"
0#
#390000
b100111 !
1B
1%
#400000
b101111 !
b101011 !
b101001 !
b101000 !
0B
0A
0@
1?
18
13
02
16
0/
0%
0:
15
06
17
0;
07
1#
0"
0#
#410000
b101001 !
1B
1%
#420000
b101011 !
b101010 !
0B
1A
09
08
1.
0%
10
1$
#430000
b101011 !
1B
1%
#440000
b101111 !
b101101 !
b101100 !
0B
0A
1@
0.
16
0%
00
17
0$
1#
#450000
b101101 !
1B
1%
#460000
b101111 !
b101110 !
0B
1A
18
1.
0%
10
1$
#470000
b101111 !
1B
1%
#480000
b111111 !
b110111 !
b110011 !
b110001 !
b110000 !
0B
0A
0@
0?
1>
19
08
03
06
0-
1,
0%
1:
05
07
0.
1;
00
0#
1"
0$
#490000
b110001 !
1B
1%
#500000
b110011 !
b110010 !
0B
1A
18
13
0%
0:
15
0;
0"
#510000
b110011 !
1B
1%
#520000
b110111 !
b110101 !
b110100 !
0B
0A
1@
09
08
03
16
1/
1-
0,
0%
05
17
1.
06
10
1#
07
1$
0#
#530000
b110101 !
1B
1%
#540000
b110111 !
b110110 !
0B
1A
13
0.
0%
15
00
16
0$
17
1#
#550000
b110111 !
1B
1%
#560000
b111111 !
b111011 !
b111001 !
b111000 !
0B
0A
0@
1?
18
03
12
06
0/
0-
1,
0%
05
16
07
1.
17
10
0#
1#
1$
#570000
b111001 !
1B
1%
#580000
b111011 !
b111010 !
0B
1A
19
08
02
0.
0%
1:
06
00
1;
07
0$
1"
0#
#590000
b111011 !
1B
1%
#600000
b111111 !
b111101 !
b111100 !
0B
0A
1@
18
12
1.
1-
0,
0%
0:
10
0.
0;
00
1$
0"
0$
#610000
b111101 !
1B
1%
#620000
b111111 !
b111110 !
0B
1A
09
08
02
1.
0%
10
1$
#630000
b111111 !
1B
1%
#640000
b1111111 !
b1011111 !
b1001111 !
b1000111 !
b1000011 !
b1000001 !
b1000000 !
0B
0A
0@
0?
0>
0=
1<
13
11
1/
0-
1,
0%
17
0.
00
1#
0$
#650000
b1000001 !
1B
1%
#660000
b1000011 !
b1000010 !
0B
1A
03
10
0%
1$
#670000
b1000011 !
1B
1%
#680000
b1000111 !
b1000101 !
b1000100 !
0B
0A
1@
18
13
00
07
0/
0%
1:
0$
0#
1;
1"
#690000
b1000101 !
1B
1%
#700000
b1000111 !
b1000110 !
0B
1A
19
08
03
0%
0:
0;
0"
#710000
b1000111 !
1B
1%
#720000
b1001111 !
b1001011 !
b1001001 !
b1001000 !
0B
0A
0@
1?
18
14
13
01
1.
17
0%
15
07
10
1#
0#
1$
#730000
b1001001 !
1B
1%
#740000
b1001011 !
b1001010 !
0B
1A
09
08
04
03
11
0.
0%
05
17
00
1#
0$
#750000
b1001011 !
1B
1%
#760000
b1001111 !
b1001101 !
b1001100 !
0B
0A
1@
14
13
01
1.
07
0%
15
10
0#
16
1$
17
1#
#770000
b1001101 !
1B
1%
#780000
b1001111 !
b1001110 !
0B
1A
18
04
03
11
0.
0%
1:
05
00
1;
06
0$
07
1"
0#
#790000
b1001111 !
1B
1%
#800000
b1011111 !
b1010111 !
b1010011 !
b1010001 !
b1010000 !
0B
0A
0@
0?
1>
19
08
14
13
12
01
17
1/
0,
0%
0:
15
07
1#
0;
0#
0"
#810000
b1010001 !
1B
1%
#820000
b1010011 !
b1010010 !
0B
1A
18
02
10
0%
1$
#830000
b1010011 !
1B
1%
#840000
b1010111 !
b1010101 !
b1010100 !
0B
0A
1@
09
08
12
00
16
1,
0%
17
0$
1#
#850000
b1010101 !
1B
1%
#860000
b1010111 !
b1010110 !
0B
1A
02
10
0%
1$
#870000
b1010111 !
1B
1%
#880000
b1011111 !
b1011011 !
b1011001 !
b1011000 !
0B
0A
0@
1?
18
04
03
12
00
1.
06
0/
0,
0%
1:
05
10
07
0.
0$
1;
00
1$
0#
1"
0$
#890000
b1011001 !
1B
1%
#900000
b1011011 !
b1011010 !
0B
1A
19
08
14
13
0%
0:
15
0;
0"
#910000
b1011011 !
1B
1%
#920000
b1011111 !
b1011101 !
b1011100 !
0B
0A
1@
18
04
03
16
1,
0%
05
17
1.
06
10
1#
07
1$
0#
#930000
b1011101 !
1B
1%
#940000
b1011111 !
b1011110 !
0B
1A
09
08
14
13
0.
0%
15
00
16
0$
17
1#
#950000
b1011111 !
1B
1%
#960000
b1111111 !
b1101111 !
b1100111 !
b1100011 !
b1100001 !
b1100000 !
0B
0A
0@
0?
0>
1=
04
02
11
06
1/
1-
0%
1.
10
1$
#970000
b1100001 !
1B
1%
#980000
b1100011 !
b1100010 !
0B
1A
1;
03
12
01
0.
0%
05
07
00
1"
0#
0$
#990000
b1100011 !
1B
1%
#1000000
b1100111 !
b1100101 !
b1100100 !
0B
0A
1@
0;
18
13
02
11
1.
0/
0%
1:
15
10
0"
1;
16
1$
17
1"
1#
#1010000
b1100101 !
1B
1%
#1020000
b1100111 !
b1100110 !
0B
1A
19
08
03
12
01
0.
0%
05
00
06
0$
07
0#
#1030000
b1100111 !
1B
1%
#1040000
b1101111 !
b1101011 !
b1101001 !
b1101000 !
0B
0A
0@
1?
18
14
13
02
1.
0%
0:
15
10
0;
1$
0"
#1050000
b1101001 !
1B
1%
#1060000
b1101011 !
b1101010 !
0B
1A
1;
09
08
04
03
0%
05
1"
#1070000
b1101011 !
1B
1%
#1080000
b1101111 !
b1101101 !
b1101100 !
0B
0A
1@
0;
14
13
0%
15
0"
16
17
1#
#1090000
b1101101 !
1B
1%
#1100000
b1101111 !
b1101110 !
0B
1A
1;
18
04
03
0%
1:
05
1"
06
07
0#
#1110000
b1101111 !
1B
1%
#1120000
b1111111 !
b1110111 !
b1110011 !
b1110001 !
b1110000 !
0B
0A
0@
0?
1>
19
08
14
13
1/
0-
0%
15
0.
00
0$
#1130000
b1110001 !
1B
1%
#1140000
b1110011 !
b1110010 !
0B
1A
18
0%
0:
#1150000
b1110011 !
1B
1%
#1160000
b1110111 !
b1110101 !
b1110100 !
0B
0A
1@
0;
09
08
16
1-
0%
17
1.
0"
10
1#
1$
#1170000
b1110101 !
1B
1%
#1180000
b1110111 !
b1110110 !
0B
1A
1;
0.
0%
00
1"
0$
#1190000
b1110111 !
1B
1%
#1200000
b1111111 !
b1111011 !
b1111001 !
b1111000 !
0B
0A
0@
1?
0;
18
04
03
12
1.
06
0/
0-
0%
1:
05
10
07
0"
1;
1$
0#
1"
#1210000
b1111001 !
1B
1%
#1220000
b1111011 !
b1111010 !
0B
1A
19
08
14
13
02
0.
0%
15
00
0$
#1230000
b1111011 !
1B
1%
#1240000
b1111111 !
b1111101 !
b1111100 !
0B
0A
1@
18
04
03
12
1.
16
1-
0%
0:
05
10
17
0;
06
1$
1#
07
0"
0#
#1250000
b1111101 !
1B
1%
#1260000
b1111111 !
b1111110 !
0B
1A
1;
09
08
14
13
02
0%
15
1"
16
17
1#
#1270000
b1111111 !
1B
1%
