simulation/qsim/MI-CircuitosDigitais-Problema-3.msim.vcd
$comment
	File created using the following command:
		vcd file MI-CircuitosDigitais-Problema-3.msim.vcd -direction
$end
$date
	Fri Jan 26 03:18:51 2024
$end
$version
	ModelSim Version 10.5b
$end
$timescale
	1ps
$end

$scope module pbl_vlg_vec_tst $end
$var reg 1 ! ch $end
$var reg 1 " clock_50mhz $end
$var reg 1 # cq $end
$var reg 1 $ hh_load $end
$var reg 1 % op_c_deboucing $end
$var reg 1 & op_deboucing $end
$var reg 1 ' pg $end
$var reg 1 ( start_stop $end
$var wire 1 ) Nac_7segmentos [3] $end
$var wire 1 * Nac_7segmentos [2] $end
$var wire 1 + Nac_7segmentos [1] $end
$var wire 1 , Nac_7segmentos [0] $end
$var wire 1 - Nal $end
$var wire 1 . Nout_7seg [7] $end
$var wire 1 / Nout_7seg [6] $end
$var wire 1 0 Nout_7seg [5] $end
$var wire 1 1 Nout_7seg [4] $end
$var wire 1 2 Nout_7seg [3] $end
$var wire 1 3 Nout_7seg [2] $end
$var wire 1 4 Nout_7seg [1] $end
$var wire 1 5 Nout_7seg [0] $end
$var wire 1 6 al $end
$var wire 1 7 ev $end
$var wire 1 8 m $end
$var wire 1 9 mef_estado [1] $end
$var wire 1 : mef_estado [0] $end
$var wire 1 ; test_buffer_entrada_principal [6] $end
$var wire 1 < test_buffer_entrada_principal [5] $end
$var wire 1 = test_buffer_entrada_principal [4] $end
$var wire 1 > test_buffer_entrada_principal [3] $end
$var wire 1 ? test_buffer_entrada_principal [2] $end
$var wire 1 @ test_buffer_entrada_principal [1] $end
$var wire 1 A test_buffer_entrada_principal [0] $end
$var wire 1 B test_buffer_entrada_secundario [6] $end
$var wire 1 C test_buffer_entrada_secundario [5] $end
$var wire 1 D test_buffer_entrada_secundario [4] $end
$var wire 1 E test_buffer_entrada_secundario [3] $end
$var wire 1 F test_buffer_entrada_secundario [2] $end
$var wire 1 G test_buffer_entrada_secundario [1] $end
$var wire 1 H test_buffer_entrada_secundario [0] $end
$var wire 1 I test_buffer_saida_principal [6] $end
$var wire 1 J test_buffer_saida_principal [5] $end
$var wire 1 K test_buffer_saida_principal [4] $end
$var wire 1 L test_buffer_saida_principal [3] $end
$var wire 1 M test_buffer_saida_principal [2] $end
$var wire 1 N test_buffer_saida_principal [1] $end
$var wire 1 O test_buffer_saida_principal [0] $end
$var wire 1 P test_buffer_saida_secundario [6] $end
$var wire 1 Q test_buffer_saida_secundario [5] $end
$var wire 1 R test_buffer_saida_secundario [4] $end
$var wire 1 S test_buffer_saida_secundario [3] $end
$var wire 1 T test_buffer_saida_secundario [2] $end
$var wire 1 U test_buffer_saida_secundario [1] $end
$var wire 1 V test_buffer_saida_secundario [0] $end
$var wire 1 W ve $end

$scope module i1 $end
$var wire 1 X gnd $end
$var wire 1 Y vcc $end
$var wire 1 Z unknown $end
$var tri1 1 [ devclrn $end
$var tri1 1 \ devpor $end
$var tri1 1 ] devoe $end
$var wire 1 ^ clock_50mhz~combout $end
$var wire 1 _ divisor_f|ff_1|q~regout $end
$var wire 1 ` ch~combout $end
$var wire 1 a pg~combout $end
$var wire 1 b cq~combout $end
$var wire 1 c start_stop~combout $end
$var wire 1 d hh_load~combout $end
$var wire 1 e op_c_deboucing~combout $end
$var wire 1 f contador_entrada_rolhas|ff_1|q~regout $end
$var wire 1 g contador_entrada_rolhas|ff_2|q~regout $end
$var wire 1 h contador_entrada_rolhas|ff_3|q~regout $end
$var wire 1 i contador_entrada_rolhas|ff_4|q~regout $end
$var wire 1 j contador_entrada_rolhas|gate_3|S~combout $end
$var wire 1 k contador_entrada_rolhas|ff_5|q~regout $end
$var wire 1 l mux_24|gate_5|WideOr0~0_combout $end
$var wire 1 m mux_25|gate_5|WideOr0~0_combout $end
$var wire 1 n mux_5|OUT~combout $end
$var wire 1 o somador_subtrator_2|somador_subtrator_3|gate_11|WideOr0~1_combout $end
$var wire 1 p mux_28|gate_5|WideOr0~0_combout $end
$var wire 1 q buffer_rolhas_principal|ff[0]|q~regout $end
$var wire 1 r somador_subtrator_2|somador_subtrator_2|gate_11|WideOr0~2_combout $end
$var wire 1 s somador_subtrator_2|somador_subtrator_3|gate_11|WideOr0~0_combout $end
$var wire 1 t mux_6|NSEL_and_A~0_combout $end
$var wire 1 u somador_subtrator_2|somador_subtrator_2|gate_11|WideOr0~0_combout $end
$var wire 1 v somador_subtrator_2|somador_subtrator_2|gate_11|WideOr0~1_combout $end
$var wire 1 w somador_subtrator_2|somador_subtrator_3|gate_11|WideOr0~2_combout $end
$var wire 1 x buffer_rolhas_principal|ff[3]|q~regout $end
$var wire 1 y somador_subtrator_2|somador_subtrator_4|gate_11|WideOr0~0_combout $end
$var wire 1 z somador_subtrator_2|somador_subtrator_4|gate_11|WideOr0~1_combout $end
$var wire 1 { buffer_rolhas_principal|ff[4]|q~regout $end
$var wire 1 | mux_3|OUT~combout $end
$var wire 1 } somador_subtrator_2|somador_subtrator_5|gate_11|WideOr0~0_combout $end
$var wire 1 ~ somador_subtrator_2|somador_subtrator_5|gate_11|WideOr0~1_combout $end
$var wire 1 !! contador_entrada_rolhas|ff_6|q~regout $end
$var wire 1 "! mux_2|NSEL_and_A~combout $end
$var wire 1 #! mux_22|gate_5|WideOr0~0_combout $end
$var wire 1 $! somador_subtrator_2|somador_subtrator_6|gate_5|WideOr0~0_combout $end
$var wire 1 %! buffer_rolhas_principal|ff[5]|q~regout $end
$var wire 1 &! somador_subtrator_2|somador_subtrator_6|gate_11|WideOr0~1_combout $end
$var wire 1 '! contador_entrada_rolhas|ff_7|q~regout $end
$var wire 1 (! somador_subtrator_2|somador_subtrator_7|gate_5|WideOr0~0_combout $end
$var wire 1 )! somador_subtrator_2|somador_subtrator_6|gate_11|WideOr0~0_combout $end
$var wire 1 *! somador_subtrator_2|somador_subtrator_7|gate_5|WideOr0~1_combout $end
$var wire 1 +! buffer_rolhas_principal|ff[6]|q~regout $end
$var wire 1 ,! m_min_rolhas|gate_3|S~0_combout $end
$var wire 1 -! mux_4|NSEL_and_A~combout $end
$var wire 1 .! mux_7|NSEL_and_A~combout $end
$var wire 1 /! mux_14|OUT~0_combout $end
$var wire 1 0! buffer_rolhas_secundario|ff[6]|q~0_combout $end
$var wire 1 1! buffer_rolhas_secundario|ff[0]|q~regout $end
$var wire 1 2! somador_subtrator_1|somador_subtrator_1|gate_10|WideAnd0~combout $end
$var wire 1 3! mux_13|OUT~0_combout $end
$var wire 1 4! buffer_rolhas_secundario|ff[1]|q~regout $end
$var wire 1 5! somador_subtrator_1|somador_subtrator_2|gate_6|S~0_combout $end
$var wire 1 6! somador_subtrator_1|somador_subtrator_2|gate_11|WideOr0~0_combout $end
$var wire 1 7! mux_12|OUT~0_combout $end
$var wire 1 8! buffer_rolhas_secundario|ff[2]|q~regout $end
$var wire 1 9! somador_subtrator_1|somador_subtrator_3|gate_11|WideOr0~0_combout $end
$var wire 1 :! mux_11|OUT~0_combout $end
$var wire 1 ;! buffer_rolhas_secundario|ff[3]|q~regout $end
$var wire 1 <! somador_subtrator_1|somador_subtrator_4|gate_11|WideOr0~0_combout $end
$var wire 1 =! mux_10|OUT~0_combout $end
$var wire 1 >! buffer_rolhas_secundario|ff[4]|q~regout $end
$var wire 1 ?! somador_subtrator_1|somador_subtrator_5|gate_11|WideOr0~0_combout $end
$var wire 1 @! mux_9|OUT~0_combout $end
$var wire 1 A! buffer_rolhas_secundario|ff[5]|q~regout $end
$var wire 1 B! somador_subtrator_1|somador_subtrator_6|gate_11|WideOr0~0_combout $end
$var wire 1 C! mux_8|OUT~0_combout $end
$var wire 1 D! buffer_rolhas_secundario|ff[6]|q~regout $end
$var wire 1 E! comparador|comparador_1|gate_4|S~0_combout $end
$var wire 1 F! somador_subtrator_1|somador_subtrator_6|gate_5|WideOr0~0_combout $end
$var wire 1 G! comparator_aux~5_combout $end
$var wire 1 H! comparador|comparador_5|gate_1|WideAnd0~0_combout $end
$var wire 1 I! comparator_aux~0_combout $end
$var wire 1 J! comparator_aux~1_combout $end
$var wire 1 K! comparator_aux~2_combout $end
$var wire 1 L! somador_subtrator_1|somador_subtrator_4|gate_5|WideOr0~0_combout $end
$var wire 1 M! comparator_aux~3_combout $end
$var wire 1 N! comparator_aux~4_combout $end
$var wire 1 O! load_and_comp~combout $end
$var wire 1 P! mux_27|gate_5|WideOr0~0_combout $end
$var wire 1 Q! somador_subtrator_2|somador_subtrator_1|gate_11|WideOr0~0_combout $end
$var wire 1 R! buffer_rolhas_principal|ff[1]|q~regout $end
$var wire 1 S! m_min_rolhas|gate_3|S~1_combout $end
$var wire 1 T! op_deboucing~combout $end
$var wire 1 U! mux_26|gate_5|WideOr0~0_combout $end
$var wire 1 V! somador_subtrator_2|somador_subtrator_4|gate_5|WideOr0~0_combout $end
$var wire 1 W! somador_subtrator_2|somador_subtrator_2|gate_11|WideOr0~3_combout $end
$var wire 1 X! seletor_2|gate_3|WideOr0~1_combout $end
$var wire 1 Y! somador_subtrator_2|somador_subtrator_5|gate_5|WideOr0~0_combout $end
$var wire 1 Z! seletor_2|gate_3|WideOr0~2_combout $end
$var wire 1 [! seletor_2|gate_3|WideOr0~3_combout $end
$var wire 1 \! buffer_rolhas_principal|ff[2]|q~regout $end
$var wire 1 ]! m_aus_rolhas|gate_1|WideOr0~combout $end
$var wire 1 ^! mef_1|gate_10|WideAnd0~combout $end
$var wire 1 _! contador_duzias|ff_1|q~regout $end
$var wire 1 `! contador_duzias|ff_2|q~regout $end
$var wire 1 a! contador_duzias|ff_3|q~regout $end
$var wire 1 b! contador_duzias|ff_4|q~regout $end
$var wire 1 c! reset_1|gate_1|S~combout $end
$var wire 1 d! mef_1|gate_8|S~0_combout $end
$var wire 1 e! mef_1|jk_2|q~regout $end
$var wire 1 f! mef_1|jk_1|q~regout $end
$var wire 1 g! mef_1|gate_11|WideAnd0~combout $end
$var wire 1 h! mef_1|gate_9|WideAnd0~combout $end
$var wire 1 i! mef_1|gate_8|S~1_combout $end
$var wire 1 j! mux_36|gate_5|WideOr0~3_combout $end
$var wire 1 k! mux_36|gate_5|WideOr0~4_combout $end
$var wire 1 l! mux_36|gate_5|WideOr0~0_combout $end
$var wire 1 m! mux_36|gate_5|WideOr0~1_combout $end
$var wire 1 n! mux_36|gate_5|WideOr0~2_combout $end
$var wire 1 o! mux_36|gate_5|WideOr0~5_combout $end
$var wire 1 p! contador_display|ff_2|q~regout $end
$var wire 1 q! contador_dezenas_duzias|ff_3|q~regout $end
$var wire 1 r! contador_dezenas_duzias|ff_4|q~regout $end
$var wire 1 s! gate_2|S~combout $end
$var wire 1 t! contador_dezenas_duzias|ff_1|q~regout $end
$var wire 1 u! contador_dezenas_duzias|ff_2|q~regout $end
$var wire 1 v! mux_36|gate_5|WideOr0~6_combout $end
$var wire 1 w! mux_39|gate_5|WideOr0~0_combout $end
$var wire 1 x! mux_37|gate_5|WideOr0~2_combout $end
$var wire 1 y! mux_37|gate_5|WideOr0~3_combout $end
$var wire 1 z! mux_37|gate_5|WideOr0~4_combout $end
$var wire 1 {! mux_37|gate_5|WideOr0~5_combout $end
$var wire 1 |! mux_37|gate_5|WideOr0~0_combout $end
$var wire 1 }! mux_37|gate_5|WideOr0~1_combout $end
$var wire 1 ~! mux_38|gate_5|WideOr0~1_combout $end
$var wire 1 !" mux_38|gate_5|WideOr0~0_combout $end
$var wire 1 "" mux_38|gate_5|WideOr0~2_combout $end
$var wire 1 #" mux_38|gate_5|WideOr0~5_combout $end
$var wire 1 $" mux_38|gate_5|WideOr0~6_combout $end
$var wire 1 %" mux_38|gate_5|WideOr0~3_combout $end
$var wire 1 &" mux_38|gate_5|WideOr0~4_combout $end
$var wire 1 '" bcd_1|gate_23|WideOr0~0_combout $end
$var wire 1 (" bcd_1|gate_19|WideOr0~0_combout $end
$var wire 1 )" bcd_1|gate_15|S~0_combout $end
$var wire 1 *" bcd_1|gate_12|WideOr0~0_combout $end
$var wire 1 +" bcd_1|gate_7|WideOr0~combout $end
$var wire 1 ," bcd_1|gate_6|WideOr0~combout $end
$var wire 1 -" bcd_1|gate_3|WideOr0~combout $end
$var wire 1 ." mux_35|OUT~0 $end
$var wire 1 /" mux_34|OUT~0 $end
$var wire 1 0" mux_33|OUT~0 $end
$var wire 1 1" mux_32|OUT~0 $end
$var wire 1 2" mux_31|OUT~0 $end
$var wire 1 3" mux_30|OUT~0 $end
$var wire 1 4" mux_29|OUT~0 $end
$upscope $end
$upscope $end
$enddefinitions $end
#0
$dumpvars
1!
0"
0#
0$
0%
0&
1'
0(
1,
1+
0*
1)
1-
05
14
03
02
01
00
0/
0.
06
17
08
0:
09
0A
0@
0?
0>
0=
0<
0;
0H
0G
0F
0E
0D
0C
0B
0O
0N
0M
0L
0K
0J
0I
0V
0U
0T
0S
0R
0Q
0P
0W
0X
1Y
xZ
1[
1\
1]
0^
0_
1`
1a
0b
0c
0d
0e
0f
0g
0h
0i
0j
0k
0l
0m
1n
0o
0p
0q
0r
0s
0t
0u
0v
0w
0x
0y
0z
0{
1|
0}
0~
0!!
0"!
0#!
0$!
0%!
0&!
0'!
0(!
0)!
0*!
0+!
1,!
0-!
0.!
0/!
00!
01!
02!
03!
04!
05!
06!
07!
08!
19!
0:!
0;!
1<!
0=!
0>!
1?!
0@!
0A!
1B!
0C!
0D!
0E!
0F!
0G!
0H!
0I!
0J!
0K!
0L!
1M!
0N!
0O!
0P!
0Q!
0R!
1S!
0T!
0U!
0V!
0W!
1X!
0Y!
1Z!
1[!
0\!
0]!
0^!
0_!
0`!
0a!
0b!
0c!
1d!
0e!
0f!
0g!
0h!
1i!
0j!
0k!
0l!
0m!
0n!
0o!
0p!
0q!
0r!
0s!
0t!
0u!
0v!
0w!
0x!
0y!
1z!
1{!
0|!
0}!
1~!
0!"
0""
0#"
0$"
0%"
0&"
0'"
1("
1)"
1*"
1+"
1,"
1-"
0."
0/"
00"
01"
02"
03"
04"
$end
#10000
1"
1^
1_
1p!
1*
0,
#20000
0"
0^
#30000
1"
1^
0_
#40000
0"
0^
#50000
1"
1^
1_
0p!
0*
1,
#60000
0"
0^
#70000
1"
1^
0_
#80000
1%
1$
0"
1e
1d
0^
10!
1f
15!
#90000
1"
1^
1_
1p!
1>!
18!
11!
1G!
1=!
1N!
09!
17!
05!
1/!
1*
1R
1T
1V
0,
1O!
0<!
1D
1F
1H
1U!
1C!
1@!
0=!
07!
1#!
1}
1o
1l
0?!
10"
0X!
1Y!
12"
0B!
0@!
1B
1C
0D
0F
0C!
1?
1=
0C
0B
#100000
0"
0^
#110000
1"
1^
0_
#120000
0"
0^
#130000
1"
1^
1_
0p!
0*
1,
#140000
0"
0^
#150000
1"
1^
0_
#160000
1(
0%
0$
0"
1c
0e
0d
0^
1s!
#170000
1"
1^
1_
1p!
1\!
0>!
08!
1{
1|!
1]!
1X!
1s
0G!
1?!
1=!
0N!
19!
17!
0{!
1x!
0Y!
0,!
1~
00"
02"
1*
1M
0R
0T
1K
0,
1}!
1w
0O!
1B!
1@!
1<!
1:!
0|!
1y!
0S!
1.!
0|
0n
1$!
1D
1F
0?
0=
0-"
0*"
0)"
1'"
1V!
11"
0U!
0@!
0=!
0:!
07!
0#!
0s
0l
0}!
0[!
1G!
1N!
09!
13"
1C
1E
0X!
10"
0w
1Y!
0~
12"
1-"
1*"
1)"
0'"
03"
01"
0<!
1>
0C
0D
0E
0F
1<
04
12
11
1.
0V!
0$!
0?!
1?
1=
0<
0>
14
02
01
0.
0B!
#180000
0"
0^
#190000
1"
1^
0_
1e!
0d!
1:
0i!
07
#200000
0"
0^
#210000
1"
1^
1_
0p!
0*
1,
#220000
0"
0^
#230000
1"
1^
0_
1f!
0e!
1^!
1d!
19
0:
1[!
1Q!
1)!
0}
1y
1r
0o
1W
1/"
1O!
1."
1W!
0/!
1p
00"
1X!
1@
1A
0H
0?
#240000
0"
0^
#250000
1"
1^
1_
1p!
0\!
1R!
01!
1q
1w!
1""
1|!
0X!
1o
0~!
0x!
1m!
1u
0r
15!
12!
1/!
0Q!
10"
0/"
0."
1*
0M
1N
0V
1O
0,
0-"
0*"
0)"
0("
1%"
1}!
0""
0y!
1n!
0W!
16!
0M!
13!
1/"
1H
1?
0@
0A
1&"
1-"
0,"
1*"
1("
1'"
0%"
0|!
1o!
00"
1X!
19!
17!
0N!
1G
1@
13
12
11
1.
1,"
0*"
0("
0'"
0&"
0}!
1v!
1<!
1:!
0O!
0?
1F
04
03
01
1/
0.
1*"
1("
1'"
1?!
0:!
07!
03!
0/!
0p
1E
14
13
11
0/
1B!
0E
0F
0G
0H
04
03
01
#260000
0"
0^
#270000
1"
1^
0_
1e!
0d!
0^!
1:
0[!
0)!
1}
0y
1."
0o
0W
1A
#280000
0"
0^
#290000
1"
1^
1_
0p!
0w!
0v!
0*
1,
1)"
0'"
14
02
#300000
0"
0^
#310000
1"
1^
0_
0f!
0e!
1d!
09
0:
1i!
17
#320000
1&
0"
1T!
0^
1[!
#330000
1"
1^
1_
1p!
1w!
1v!
1*
0,
0)"
1'"
04
12
#340000
0"
0^
#350000
1"
1^
0_
1e!
0d!
1:
0i!
07
#360000
0"
0^
#370000
1"
1^
1_
0p!
0w!
0v!
0*
1,
1)"
0'"
14
02
#380000
0"
0^
#390000
1"
1^
0_
1f!
0e!
1^!
1d!
19
0:
1)!
0}
1y
0."
1o
1W
0A
#400000
0&
0"
0T!
0^
#410000
1"
1^
1_
1p!
0q
1v!
1Q!
1."
1*
0O
0,
1'"
0/"
1A
0@
04
#420000
0"
0^
#430000
1"
1^
0_
1e!
0d!
0^!
1:
0[!
0Q!
0)!
1}
0y
0."
0o
0W
1/"
0A
1@
#440000
0"
0^
#450000
1"
1^
1_
0p!
0v!
0*
1,
0'"
14
#460000
0"
0^
#470000
1"
1^
0_
0f!
0e!
1d!
09
0:
1i!
17
#480000
0"
0^
#490000
1"
1^
1_
1p!
1v!
1*
0,
1'"
04
#500000
0"
0^
#510000
1"
1^
0_
1e!
0d!
1:
0i!
07
#520000
0"
0^
#530000
1"
1^
1_
0p!
0v!
0*
1,
0'"
14
#540000
0"
0^
#550000
1"
1^
0_
1f!
0e!
1^!
1d!
19
0:
1[!
1Q!
1)!
0}
1y
1o
1W
0/"
1."
0@
1A
#560000
0"
0^
#570000
1"
1^
1_
1p!
0R!
1q
1w!
1v!
1~!
1x!
0m!
0u
0Q!
1/"
0."
1*
0N
1O
0,
0)"
1'"
1""
1y!
0n!
0/"
1@
0A
1%"
1|!
0o!
0@
04
12
1&"
1}!
0v!
0*"
0("
0'"
14
13
11
#580000
0"
0^
#590000
1"
1^
0_
1e!
0d!
0^!
1:
0[!
0)!
1}
0y
1."
0o
0W
1A
#600000
0"
0^
#610000
1"
1^
1_
0p!
0&"
0}!
0w!
0*
1,
1*"
1)"
1("
03
02
01
#620000
0"
0^
#630000
1"
1^
0_
0f!
0e!
1d!
09
0:
1i!
17
#640000
0"
0^
#650000
1"
1^
1_
1p!
1&"
1}!
1w!
1*
0,
0*"
0)"
0("
13
12
11
#660000
0"
0^
#670000
1"
1^
0_
1e!
0d!
1:
0i!
07
#680000
0"
0^
#690000
1"
1^
1_
0p!
0&"
0}!
0w!
0*
1,
1*"
1)"
1("
03
02
01
#700000
0"
0^
#710000
1"
1^
0_
1f!
0e!
1^!
1d!
19
0:
1[!
1)!
0}
1y
1o
1W
0."
0A
#720000
0"
0^
#730000
1"
1^
1_
1p!
0q
1&"
1}!
1Q!
1r
1."
1*
0O
0,
0,"
1'"
1/"
1W!
1w
1A
10"
0X!
1V!
1z
11"
1@
04
1/
0Y!
02"
1?
1>
0=
#740000
0"
0^
#750000
1"
1^
0_
1e!
0d!
0^!
1:
0[!
0Q!
0)!
1}
0y
0r
0."
0o
0W
00"
0/"
12"
01"
1~
0z
0W!
0w
0A
1$!
1Y!
0~
0V!
0?
0@
1=
0>
0$!
1X!
#760000
0"
0^
#770000
1"
1^
1_
0p!
0&"
0}!
0*
1,
1,"
0'"
14
0/
#780000
0"
0^
#790000
1"
1^
0_
0f!
0e!
1d!
09
0:
1i!
17
#800000
0"
0^
#810000
1"
1^
1_
1p!
1&"
1}!
1*
0,
0,"
1'"
04
1/
#820000
0"
0^
#830000
1"
1^
0_
1e!
0d!
1:
0i!
07
#840000
0"
0^
#850000
1"
1^
1_
0p!
0&"
0}!
0*
1,
1,"
0'"
14
0/
#860000
0"
0^
#870000
1"
1^
0_
1f!
0e!
1^!
1d!
19
0:
1[!
1Q!
1)!
0}
1y
1r
1o
1W
1/"
1."
1W!
1w
10"
0X!
1V!
1z
11"
1@
1A
0Y!
02"
1?
1>
0=
#880000
0"
0^
#890000
1"
1^
1_
1p!
1\!
1R!
0{
1x
1q
1&"
1}!
1w!
1#"
0""
0|!
0o
1u
0r
1{!
0y!
1Y!
1}
0V!
0y
0Q!
00"
0/"
12"
01"
0."
1*
1M
1N
0K
1L
1O
0,
0*"
0)"
0("
0%"
0}!
0w
0W!
1|!
1~
1X!
0z
1/"
0?
0@
1=
0>
0A
0&"
1*"
1'"
1V!
11"
10"
0X!
1}!
1*!
1$!
0Y!
0~
02"
1@
13
12
11
0,"
1("
0Z!
14"
13"
0*!
0$!
1>
1?
0=
04
01
1Z!
04"
03"
1;
1<
03
1/
0;
0<
#900000
0"
0^
#910000
1"
1^
0_
1e!
0d!
0^!
1:
0[!
0)!
0}
1y
1."
1o
0W
1A
#920000
0"
0^
#930000
1"
1^
1_
0p!
0}!
0w!
0*
1,
1,"
1)"
0'"
14
02
0/
#940000
0"
0^
#950000
1"
1^
0_
0f!
0e!
1d!
09
0:
1i!
17
#960000
0"
0^
#970000
1"
1^
1_
1p!
1}!
1w!
1*
0,
0,"
0)"
1'"
04
12
1/
#980000
0"
0^
#990000
1"
1^
0_
1e!
0d!
1:
0i!
07
#1000000
0"
0^
#1010000
1"
1^
1_
0p!
0}!
0w!
0*
1,
1,"
1)"
0'"
14
02
0/
#1020000
0"
0^
#1030000
1"
1^
0_
1f!
0e!
1^!
1d!
19
0:
1[!
1)!
1}
0y
0o
1W
0."
0A
#1040000
0"
0^
#1050000
1"
1^
1_
1p!
0q
1}!
1Q!
1."
1*
0O
0,
0-"
0*"
0)"
1'"
0/"
1A
0@
04
12
11
1.
#1060000
0"
0^
#1070000
1"
1^
0_
1e!
0d!
0^!
1:
0[!
0Q!
0)!
0}
1y
0."
1o
0W
1/"
0A
1@
#1080000
0"
0^
#1090000
1"
1^
1_
0p!
0}!
0*
1,
1-"
1*"
1)"
0'"
14
02
01
0.
#1100000
0"
0^
#1110000
1"
1^
0_
0f!
0e!
1d!
09
0:
1i!
17
#1120000
0"
0^
#1130000
1"
1^
1_
1p!
1}!
1*
0,
0-"
0*"
0)"
1'"
04
12
11
1.
#1140000
0"
0^
#1150000
1"
1^
0_
1e!
0d!
1:
0i!
07
#1160000
0"
0^
#1170000
1"
1^
1_
0p!
0}!
0*
1,
1-"
1*"
1)"
0'"
14
02
01
0.
#1180000
0"
0^
#1190000
1"
1^
0_
1f!
0e!
1^!
1d!
19
0:
1[!
1Q!
1)!
1}
0y
0o
1W
0/"
1."
0@
1A
#1200000
0"
0^
#1210000
1"
1^
1_
1p!
0R!
1q
1}!
1w!
1$"
0~!
0z!
0x!
0u
0Q!
1/"
0."
1*
0N
1O
0,
0,"
0)"
1'"
1%"
0{!
0/"
1@
0A
1&"
0|!
0@
04
12
1/
1,"
0*"
0("
0'"
0}!
1*"
1'"
14
13
11
0/
04
01
#1220000
0"
0^
#1230000
1"
1^
0_
1e!
0d!
0^!
1:
0[!
0)!
0}
1y
1."
1o
0W
1A
#1240000
0"
0^
#1250000
1"
1^
1_
0p!
0&"
0w!
0*
1,
1)"
1("
0'"
14
03
02
#1260000
0"
0^
#1270000
1"
1^
0_
0f!
0e!
1d!
09
0:
1i!
17
#1280000
0"
0^
#1290000
1"
1^
1_
1p!
1&"
1w!
1*
0,
0)"
0("
1'"
04
13
12
#1300000
0"
0^
#1310000
1"
1^
0_
1e!
0d!
1:
0i!
07
#1320000
0"
0^
#1330000
1"
1^
1_
0p!
0&"
0w!
0*
1,
1)"
1("
0'"
14
03
02
#1340000
0"
0^
#1350000
1"
1^
0_
1f!
0e!
1^!
1d!
19
0:
1[!
1)!
1}
0y
0o
1W
0."
0A
#1360000
0"
0^
#1370000
1"
1^
1_
1p!
0q
1&"
1Q!
1r
1."
1*
0O
0,
0+"
0("
1'"
1/"
1W!
1A
00"
1@
04
13
10
0?
#1380000
0"
0^
#1390000
1"
1^
0_
1e!
0d!
0^!
1:
0[!
0Q!
0)!
0}
1y
0r
0."
1o
0W
10"
0/"
0W!
0A
1?
0@
#1400000
0"
0^
#1410000
1"
1^
1_
0p!
0&"
0*
1,
1+"
1("
0'"
14
03
00
#1420000
0"
0^
#1430000
1"
1^
0_
0f!
0e!
1d!
09
0:
1i!
17
#1440000
0"
0^
#1450000
1"
1^
1_
1p!
1&"
1*
0,
0+"
0("
1'"
04
13
10
#1460000
0"
0^
#1470000
1"
1^
0_
1e!
0d!
1:
0i!
07
#1480000
0"
0^
#1490000
1"
1^
1_
0p!
0&"
0*
1,
1+"
1("
0'"
14
03
00
#1500000
0"
0^
#1510000
1"
1^
0_
1f!
0e!
1^!
1d!
19
0:
1[!
1Q!
1)!
1}
0y
1r
0o
1W
1/"
1."
1W!
00"
1@
1A
0?
#1520000
0"
0^
#1530000
1"
1^
1_
1p!
0\!
1R!
1q
1&"
1w!
0$"
1o
1~!
1z!
1x!
1u
0r
0Q!
10"
0/"
0."
1*
0M
1N
1O
0,
0)"
0("
1'"
0%"
1{!
0W!
1/"
1?
0@
0A
0&"
00"
1@
04
13
12
0-"
0*"
0'"
0?
14
11
1.
#1540000
0"
0^
#1550000
1"
1^
0_
1e!
0d!
0^!
1:
0[!
0)!
0}
1y
1."
0o
0W
1A
#1560000
0"
0^
#1570000
1"
1^
1_
0p!
0w!
0*
1,
1-"
1*"
1)"
1("
03
02
01
0.
#1580000
0"
0^
#1590000
1"
1^
0_
0f!
0e!
1d!
09
0:
1i!
17
#1600000
0"
0^
#1610000
1"
1^
1_
1p!
1w!
1*
0,
0-"
0*"
0)"
0("
13
12
11
1.
#1620000
0"
0^
#1630000
1"
1^
0_
1e!
0d!
1:
0i!
07
#1640000
0"
0^
#1650000
1"
1^
1_
0p!
0w!
0*
1,
1-"
1*"
1)"
1("
03
02
01
0.
#1660000
0"
0^
#1670000
1"
1^
0_
1f!
0e!
1^!
1d!
19
0:
1[!
1)!
1}
0y
1o
1W
0."
0A
#1680000
0"
0^
#1690000
1"
1^
1_
1p!
0q
1Q!
1."
1*
0O
0,
0/"
1A
0@
#1700000
0"
0^
#1710000
1"
1^
0_
1e!
0d!
0^!
1:
0[!
0Q!
0)!
0}
1y
0."
0o
0W
1/"
0A
1@
#1720000
0"
0^
#1730000
1"
1^
1_
0p!
0*
1,
#1740000
0"
0^
#1750000
1"
1^
0_
0f!
0e!
1d!
09
0:
1i!
17
#1760000
0"
0^
#1770000
1"
1^
1_
1p!
1*
0,
#1780000
0"
0^
#1790000
1"
1^
0_
1e!
0d!
1:
0i!
07
#1800000
0"
0^
#1810000
1"
1^
1_
0p!
0*
1,
#1820000
0"
0^
#1830000
1"
1^
0_
1f!
0e!
1^!
1d!
19
0:
1[!
1Q!
1)!
1}
0y
1o
1W
0/"
1."
0@
1A
#1840000
0"
0^
#1850000
1"
1^
1_
1p!
0R!
1q
1w!
0#"
0~!
0z!
0x!
1j!
0u
0Q!
1/"
0."
1*
0N
1O
0,
0-"
0*"
0)"
0("
0{!
1k!
0/"
1@
0A
1o!
0@
13
12
11
1.
1v!
1-"
1*"
1("
1'"
04
03
01
0.
#1860000
0"
0^
#1870000
1"
1^
0_
1e!
0d!
0^!
1:
0[!
0)!
0}
1y
1."
0o
0W
1A
#1880000
0"
0^
#1890000
1"
1^
1_
0p!
0w!
0v!
0*
1,
1)"
0'"
14
02
#1900000
0"
0^
#1910000
1"
1^
0_
0f!
0e!
1d!
09
0:
1i!
17
#1920000
0"
0^
#1930000
1"
1^
1_
1p!
1w!
1v!
1*
0,
0)"
1'"
04
12
#1940000
0"
0^
#1950000
1"
1^
0_
1e!
0d!
1:
0i!
07
#1960000
0"
0^
#1970000
1"
1^
1_
0p!
0w!
0v!
0*
1,
1)"
0'"
14
02
#1980000
0"
0^
#1990000
1"
1^
0_
1f!
0e!
1^!
1d!
19
0:
1[!
1)!
1}
0y
1o
1W
0."
0A
#2000000
0"
0^
#2010000
1"
1^
1_
1p!
0q
1v!
1Q!
1r
1."
1*
0O
0,
1'"
1/"
1W!
1w
1A
10"
0V!
01"
1@
04
1?
0>
#2020000
0"
0^
#2030000
1"
1^
0_
1e!
0d!
0^!
1:
0[!
0Q!
0)!
0}
1y
0r
0."
0o
0W
00"
0/"
11"
1z
0W!
0w
0A
1Y!
1X!
1V!
0z
0?
0@
1>
0X!
0Y!
#2040000
0"
0^
#2050000
1"
1^
1_
0p!
0v!
0*
1,
0'"
14
#2060000
0"
0^
#2070000
1"
1^
0_
0f!
0e!
1d!
09
0:
1i!
17
#2080000
0"
0^
#2090000
1"
1^
1_
1p!
1v!
1*
0,
1'"
04
#2100000
0"
0^
#2110000
1"
1^
0_
1e!
0d!
1:
0i!
07
#2120000
0"
0^
#2130000
1"
1^
1_
0p!
0v!
0*
1,
0'"
14
#2140000
0"
0^
#2150000
1"
1^
0_
1f!
0e!
1^!
1d!
19
0:
1[!
1Q!
1)!
1}
0y
1r
1o
1W
1/"
1."
1W!
1w
10"
0V!
01"
1@
1A
1?
0>
#2160000
0"
0^
