simulation/qsim/MI-CircuitosDigitais-Problema-3.msim.vcd
$comment
	File created using the following command:
		vcd file MI-CircuitosDigitais-Problema-3.msim.vcd -direction
$end
$date
	Thu Jan 25 03:05:44 2024
$end
$version
	ModelSim Version 10.5b
$end
$timescale
	1ps
$end

$scope module pbl_vlg_vec_tst $end
$var reg 1 ! ch $end
$var reg 1 " clock_50mhz $end
$var reg 1 # cq $end
$var reg 1 $ op_c_deboucing $end
$var reg 1 % op_deboucing $end
$var reg 1 & pg $end
$var reg 1 ' start_stop $end
$var wire 1 ( Nac_7segmentos [3] $end
$var wire 1 ) Nac_7segmentos [2] $end
$var wire 1 * Nac_7segmentos [1] $end
$var wire 1 + Nac_7segmentos [0] $end
$var wire 1 , Nal $end
$var wire 1 - Nout_7seg [7] $end
$var wire 1 . Nout_7seg [6] $end
$var wire 1 / Nout_7seg [5] $end
$var wire 1 0 Nout_7seg [4] $end
$var wire 1 1 Nout_7seg [3] $end
$var wire 1 2 Nout_7seg [2] $end
$var wire 1 3 Nout_7seg [1] $end
$var wire 1 4 Nout_7seg [0] $end
$var wire 1 5 al $end
$var wire 1 6 ev $end
$var wire 1 7 m $end
$var wire 1 8 mef_estado [1] $end
$var wire 1 9 mef_estado [0] $end
$var wire 1 : test_buffer_entrada [6] $end
$var wire 1 ; test_buffer_entrada [5] $end
$var wire 1 < test_buffer_entrada [4] $end
$var wire 1 = test_buffer_entrada [3] $end
$var wire 1 > test_buffer_entrada [2] $end
$var wire 1 ? test_buffer_entrada [1] $end
$var wire 1 @ test_buffer_entrada [0] $end
$var wire 1 A test_buffer_saida [6] $end
$var wire 1 B test_buffer_saida [5] $end
$var wire 1 C test_buffer_saida [4] $end
$var wire 1 D test_buffer_saida [3] $end
$var wire 1 E test_buffer_saida [2] $end
$var wire 1 F test_buffer_saida [1] $end
$var wire 1 G test_buffer_saida [0] $end
$var wire 1 H ve $end

$scope module i1 $end
$var wire 1 I gnd $end
$var wire 1 J vcc $end
$var wire 1 K unknown $end
$var tri1 1 L devclrn $end
$var tri1 1 M devpor $end
$var tri1 1 N devoe $end
$var wire 1 O clock_50mhz~combout $end
$var wire 1 P divisor_f|ff_1|q~regout $end
$var wire 1 Q start_stop~combout $end
$var wire 1 R ch~combout $end
$var wire 1 S mef_1|jk_1|q~regout $end
$var wire 1 T buffer_rolhas|ff[1]|q~regout $end
$var wire 1 U mef_1|gate_10|WideAnd0~combout $end
$var wire 1 V op_deboucing~combout $end
$var wire 1 W somador_subtrator_5|gate_9|WideAnd0~combout $end
$var wire 1 X buffer_rolhas|ff[5]|q~regout $end
$var wire 1 Y buffer_rolhas|ff[6]|q~regout $end
$var wire 1 Z seletor_1|gate_3|S~0_combout $end
$var wire 1 [ seletor_1|gate_3|S~2_combout $end
$var wire 1 \ mux_12|OUT~0_combout $end
$var wire 1 ] buffer_rolhas|ff[2]|q~regout $end
$var wire 1 ^ mux_15|gate_5|WideOr0~3_combout $end
$var wire 1 _ seletor_1|gate_3|S~1_combout $end
$var wire 1 ` seletor_1|gate_3|S~3_combout $end
$var wire 1 a mux_13|OUT~0_combout $end
$var wire 1 b mux_15|gate_5|WideOr0~2 $end
$var wire 1 c mux_14|OUT~0_combout $end
$var wire 1 d m_aus_rolhas|gate_1|WideOr0~0 $end
$var wire 1 e buffer_rolhas|ff[0]|q~regout $end
$var wire 1 f somador_subtrator_3|gate_9|WideAnd0~combout $end
$var wire 1 g buffer_rolhas|ff[3]|q~regout $end
$var wire 1 h buffer_rolhas|ff[4]|q~regout $end
$var wire 1 i m_aus_rolhas|gate_1|WideOr0 $end
$var wire 1 j pg~combout $end
$var wire 1 k cq~combout $end
$var wire 1 l contador_duzias|ff_1|q~regout $end
$var wire 1 m contador_duzias|ff_2|q~regout $end
$var wire 1 n contador_duzias|ff_3|q~regout $end
$var wire 1 o contador_duzias|ff_4|q~regout $end
$var wire 1 p reset_1|gate_1|S~combout $end
$var wire 1 q mef_1|gate_8|S~0_combout $end
$var wire 1 r mef_1|jk_2|q~regout $end
$var wire 1 s mef_1|gate_11|WideAnd0~combout $end
$var wire 1 t mef_1|gate_9|WideAnd0~combout $end
$var wire 1 u mef_1|gate_8|S~1_combout $end
$var wire 1 v contador_display|ff_2|q~regout $end
$var wire 1 w mux_16|gate_5|WideOr0~10_combout $end
$var wire 1 x mux_16|gate_5|WideOr0~8_combout $end
$var wire 1 y mux_16|gate_5|WideOr0~9_combout $end
$var wire 1 z mux_16|gate_5|WideOr0~11_combout $end
$var wire 1 { mux_16|gate_5|WideOr0~2_combout $end
$var wire 1 | mux_16|gate_5|WideOr0~3_combout $end
$var wire 1 } mux_16|gate_5|WideOr0~1_combout $end
$var wire 1 ~ mux_16|gate_5|WideOr0~4_combout $end
$var wire 1 !! mux_16|gate_5|WideOr0~0_combout $end
$var wire 1 "! mux_16|gate_5|WideOr0~12_combout $end
$var wire 1 #! mux_15|gate_5|WideOr0~6_combout $end
$var wire 1 $! mux_16|gate_5|WideOr0~5_combout $end
$var wire 1 %! mux_16|gate_5|WideOr0~6_combout $end
$var wire 1 &! contador_dezenas_duzias|ff_4|q~regout $end
$var wire 1 '! gate_2|S~combout $end
$var wire 1 (! contador_dezenas_duzias|ff_1|q~regout $end
$var wire 1 )! contador_dezenas_duzias|ff_2|q~regout $end
$var wire 1 *! contador_dezenas_duzias|ff_3|q~regout $end
$var wire 1 +! mux_16|gate_5|WideOr0~7_combout $end
$var wire 1 ,! mux_16|gate_5|WideOr0~13_combout $end
$var wire 1 -! mux_15|gate_5|WideOr0~4_combout $end
$var wire 1 .! mux_15|gate_5|WideOr0~5_combout $end
$var wire 1 /! mux_15|gate_5|WideOr0~8_combout $end
$var wire 1 0! mux_15|gate_5|WideOr0~7_combout $end
$var wire 1 1! mux_15|gate_5|WideOr0~11_combout $end
$var wire 1 2! mux_15|gate_5|WideOr0~9_combout $end
$var wire 1 3! mux_15|gate_5|WideOr0~10_combout $end
$var wire 1 4! mux_15|gate_5|WideOr0~12_combout $end
$var wire 1 5! mux_18|gate_5|WideOr0~0_combout $end
$var wire 1 6! mux_17|gate_5|WideOr0~5_combout $end
$var wire 1 7! mux_17|gate_5|WideOr0~0_combout $end
$var wire 1 8! mux_17|gate_5|WideOr0~1_combout $end
$var wire 1 9! mux_17|gate_5|WideOr0~2_combout $end
$var wire 1 :! mux_17|gate_5|WideOr0~3_combout $end
$var wire 1 ;! mux_17|gate_5|WideOr0~4_combout $end
$var wire 1 <! mux_17|gate_5|WideOr0~6_combout $end
$var wire 1 =! bcd_1|gate_23|WideOr0~0_combout $end
$var wire 1 >! bcd_1|gate_19|WideOr0~0_combout $end
$var wire 1 ?! bcd_1|gate_15|S~0_combout $end
$var wire 1 @! bcd_1|gate_12|WideOr0~0_combout $end
$var wire 1 A! bcd_1|gate_7|WideOr0~combout $end
$var wire 1 B! bcd_1|gate_6|WideOr0~combout $end
$var wire 1 C! bcd_1|gate_3|WideOr0~0_combout $end
$var wire 1 D! mux_11|OUT~0 $end
$var wire 1 E! mux_10|OUT~0 $end
$var wire 1 F! mux_9|OUT~0 $end
$var wire 1 G! mux_8|OUT~0 $end
$upscope $end
$upscope $end
$enddefinitions $end
#0
$dumpvars
0!
0"
0#
0$
0%
0&
0'
x+
1*
x)
1(
x,
04
x3
x2
x1
x0
x/
x.
x-
x5
x6
x7
x9
x8
x@
x?
x>
x=
x<
x;
x:
xG
xF
xE
xD
xC
xB
xA
xH
0I
1J
xK
1L
1M
1N
xO
0P
xQ
xR
0S
0T
xU
xV
xW
0X
0Y
xZ
x[
x\
0]
x^
x_
x`
xa
xb
xc
xd
0e
xf
0g
0h
xi
xj
xk
0l
0m
0n
0o
xp
xq
0r
xs
xt
xu
0v
xw
xx
xy
xz
x{
x|
x}
x~
x!!
x"!
x#!
x$!
x%!
0&!
x'!
0(!
0)!
0*!
x+!
x,!
x-!
x.!
x/!
x0!
x1!
x2!
x3!
x4!
x5!
x6!
x7!
x8!
x9!
x:!
x;!
x<!
x=!
x>!
x?!
x@!
xA!
xB!
xC!
xD!
xE!
xF!
xG!
$end
#1095
0p
#1117
1b
#1132
0O
0R
0V
0k
#1163
0Q
0j
#1662
1d
#1902
0f
#1993
0-!
#2176
0t
#2210
0U
#2259
07!
#2321
0}
#2332
0{
#2345
02!
#2597
0i
#2709
0/!
#2710
1^
#2775
05!
#2928
0$!
#2934
0y
#2950
0|
#3215
1_
#3278
08!
#3287
1[
#3466
0+!
#3486
0!!
#3590
01!
#3621
0.!
#3630
0#!
#3639
0w
#3650
00!
#3679
03!
#3681
0"!
#3738
09
#3948
0W
#4070
06!
#4230
1:!
#4403
08
#4479
0z
#4507
0G
#4532
0B
#4575
09!
#4576
0C
#4715
1s
#4790
0%!
#4854
0x
#4942
0)
#5018
0E
#5027
1~
#5028
04!
#5180
0F
#5254
0q
#5274
0'!
#5594
1`
#5681
1+
#5713
0A
#6020
0D
#6269
0;!
#6332
0Z
#6381
0,!
#6525
0u
#6900
05
#7048
0H
#7138
1F!
#7139
1a
#7140
1c
#7141
1D!
#7146
1\
#7147
1E!
#7150
1G!
#7410
1,
#8423
0<!
#8806
17
#8917
1B!
#8927
1?!
#9246
1@!
#9255
1C!
#9426
1A!
#9438
1>!
#9439
0=!
#10000
1"
#10643
06
#11132
1O
#11234
1;
#11351
1?
#11370
1@
#11784
1:
#12094
1<
#12295
1>
#12467
1=
#13494
0-
#13534
02
#13548
01
#13579
0.
#13637
1P
#13638
0/
#13871
00
#14272
13
#17662
1v
#20000
0"
#20940
18!
#21132
0O
#21301
1w
#22604
1)
#23343
0+
#30000
1"
#31132
1O
#33637
0P
#40000
0"
#41132
0O
#50000
1"
#51132
1O
#53637
1P
#57662
0v
#60000
0"
#60940
08!
#61132
0O
#61301
0w
#62604
0)
#63343
1+
#70000
1"
#71132
1O
#73637
0P
#80000
0"
#81132
0O
#90000
1"
#91132
1O
#93637
1P
#97662
1v
#100000
0"
#100940
18!
#101132
0O
#101301
1w
#102604
1)
#103343
0+
#110000
1"
#111132
1O
#113637
0P
#120000
0"
#121132
0O
#130000
1"
#131132
1O
#133637
1P
#137662
0v
#140000
0"
#140940
08!
#141132
0O
#141301
0w
#142604
0)
#143343
1+
#150000
1"
#151132
1O
#153637
0P
#160000
0"
#161132
0O
#170000
1"
#171132
1O
#173637
1P
#177662
1v
#180000
0"
#180940
18!
#181132
0O
#181301
1w
#182604
1)
#183343
0+
#190000
1"
#191132
1O
#193637
0P
#200000
0"
#201132
0O
#210000
1"
#211132
1O
#213637
1P
#217662
0v
#220000
0"
#220940
08!
#221132
0O
#221301
0w
#222604
0)
#223343
1+
#230000
1"
#231132
1O
#233637
0P
#240000
0"
#241132
0O
#250000
1"
#251132
1O
#253637
1P
#257662
1v
#260000
0"
#260940
18!
#261132
0O
#261301
1w
#262604
1)
#263343
0+
#270000
1"
#271132
1O
#273637
0P
#280000
0"
#281132
0O
#290000
1"
#291132
1O
#293637
1P
#297662
0v
#300000
0"
#300940
08!
#301132
0O
#301301
0w
#302604
0)
#303343
1+
#310000
1"
#311132
1O
#313637
0P
#320000
0"
#321132
0O
#330000
1"
#331132
1O
#333637
1P
#337662
1v
#340000
0"
#340940
18!
#341132
0O
#341301
1w
#342604
1)
#343343
0+
#350000
1"
#351132
1O
#353637
0P
#360000
0"
#361132
0O
#370000
1"
#371132
1O
#373637
1P
#377662
0v
#380000
0"
#380940
08!
#381132
0O
#381301
0w
#382604
0)
#383343
1+
#390000
1"
#391132
1O
#393637
0P
#400000
0"
#401132
0O
#410000
1"
#411132
1O
#413637
1P
#417662
1v
#420000
0"
#420940
18!
#421132
0O
#421301
1w
#422604
1)
#423343
0+
#430000
1"
#431132
1O
#433637
0P
#440000
0"
#441132
0O
#450000
1"
#451132
1O
#453637
1P
#457662
0v
#460000
0"
#460940
08!
#461132
0O
#461301
0w
#462604
0)
#463343
1+
#470000
1"
#471132
1O
#473637
0P
#480000
1&
1!
1'
0"
#481132
0O
1R
#481163
1Q
1j
#484715
0s
#485254
1q
#485274
1'!
#486525
1u
#488806
07
#490000
1"
#490643
16
#491132
1O
#493637
1P
#497662
1v
#500000
0"
#500940
18!
#501132
0O
#501301
1w
#502604
1)
#503343
0+
#510000
1"
#511132
1O
#513637
0P
#517662
1T
1X
1Y
1]
1e
1g
1h
1r
#518257
0b
0F!
0G!
0d
1i
0D!
0E!
#519170
0c
#519198
1f
#519519
0\
#519535
0q
#519936
0^
#519990
1!!
#520000
0"
#520241
0_
#520332
1/!
#520588
0w
#520596
12!
#520612
1|
#520806
0u
#520976
1W
#520982
0[
#520989
1\
#521053
1"!
#521132
0O
#521148
0!!
#521155
15!
#521229
1G!
#521312
10!
#521400
19
#521530
0|
#521622
0~
#521732
16!
#521750
1D!
#521755
1E!
#521805
19!
#521887
1{
#521892
0:!
#521930
13!
#522108
1;!
#522158
0`
#522169
1G
#522194
1B
#522238
1C
#522349
1,!
#522353
0;
#522481
1}
#522532
0C!
#522540
0>!
#522541
0@!
#522680
1E
#522842
1F
#522886
0?!
#522891
0:
#523204
0<
#523229
0"!
#523279
14!
#523375
1A
#523400
0@
#523411
1~
#523531
1F!
#523583
0=
#523682
1D
#523704
1c
#524262
1<!
#524525
0,!
#524885
0B!
#524924
06
#525018
1"!
#525213
1>!
#525214
1@!
1=!
#525223
1C!
#525275
1B!
#525863
1:
#526314
1,!
#526636
12
#526702
1<
#526771
1-
#527076
1=
#527166
10
#527507
11
#527627
1;
#527934
1@
#529309
02
#529462
0-
#529839
00
#530000
1"
#530047
03
#531132
1O
#533637
1P
#537662
0v
#540000
0"
#540007
02!
#540437
05!
#540940
08!
#541132
0O
#541276
0,!
#541341
03!
#542168
1?!
#542170
0B!
#542237
09!
#542604
0)
#542690
04!
#543343
1+
#543812
1B!
#543824
0A!
#543931
0;!
#544652
0>!
#546085
0<!
#546789
01
#547088
1A!
#547100
1>!
#547101
0=!
#548036
1/
#548748
12
#550000
1"
#551132
1O
#551196
02
#551300
0/
#551934
13
#553637
0P
#557662
1S
0r
#559535
1q
#559701
1U
#560000
0"
#561132
0O
#561400
09
#562065
18
#564539
1H
#570000
1"
#571132
1O
#573637
1P
#577662
1v
#580000
0"
#580007
12!
#580437
15!
#580940
18!
#581132
0O
#581276
1,!
#581341
13!
#581814
0C!
#581822
0>!
#581823
0@!
#582168
0?!
#582237
19!
#582604
1)
#582690
14!
#583343
0+
#583812
0B!
#583931
1;!
#584140
1>!
#584141
1@!
1=!
#584150
1C!
#586053
1-
#586085
1<!
#586789
11
#587098
1B!
#588389
0-
#588474
1.
#588974
03
#590000
1"
#591132
1O
#591760
0.
#593637
0P
#597662
1r
#599535
0q
#599701
0U
#600000
0"
#601132
0O
#601400
19
#604539
0H
#610000
1"
#611132
1O
#613637
1P
#617662
0v
#620000
0"
#620007
02!
#620437
05!
#620940
08!
#621132
0O
#621276
0,!
#621341
03!
#622168
1?!
#622170
0B!
#622237
09!
#622604
0)
#622690
04!
#623343
1+
#623812
1B!
#623824
0A!
#623931
0;!
#624652
0>!
#626085
0<!
#626789
01
#627088
1A!
#627100
1>!
#627101
0=!
#628036
1/
#628748
12
#630000
1"
#631132
1O
#631196
02
#631300
0/
#631934
13
#633637
0P
#637662
0S
0r
#639535
1q
#640000
0"
#640806
1u
#641132
0O
#641400
09
#642065
08
#644924
16
#650000
1"
#651132
1O
#653637
1P
#657662
1v
#660000
0"
#660007
12!
#660437
15!
#660940
18!
#661132
0O
#661276
1,!
#661341
13!
#661814
0C!
#661822
0>!
#661823
0@!
#662168
0?!
#662237
19!
#662604
1)
#662690
14!
#663343
0+
#663812
0B!
#663931
1;!
#664140
1>!
#664141
1@!
1=!
#664150
1C!
#666053
1-
#666085
1<!
#666789
11
#667098
1B!
#668389
0-
#668474
1.
#668974
03
#670000
1"
#671132
1O
#671760
0.
#673637
0P
#677662
1r
#679535
0q
#680000
0"
#680806
0u
#681132
0O
#681400
19
#684924
06
#690000
1"
#691132
1O
#693637
1P
#697662
0v
#700000
0"
#700007
02!
#700437
05!
#700940
08!
#701132
0O
#701276
0,!
#701341
03!
#702168
1?!
#702170
0B!
#702237
09!
#702604
0)
#702690
04!
#703343
1+
#703812
1B!
#703824
0A!
#703931
0;!
#704652
0>!
#706085
0<!
#706789
01
#707088
1A!
#707100
1>!
#707101
0=!
#708036
1/
#708748
12
#710000
1"
#711132
1O
#711196
02
#711300
0/
#711934
13
#713637
0P
#717662
1S
0r
#719535
1q
#719701
1U
#720000
0"
#721132
0O
#721400
09
#722065
18
#724539
1H
#730000
1"
#731132
1O
#733637
1P
#737662
1v
#740000
0"
#740007
12!
#740437
15!
#740940
18!
#741132
0O
#741276
1,!
#741341
13!
#741814
0C!
#741822
0>!
#741823
0@!
#742168
0?!
#742237
19!
#742604
1)
#742690
14!
#743343
0+
#743812
0B!
#743931
1;!
#744140
1>!
#744141
1@!
1=!
#744150
1C!
#746053
1-
#746085
1<!
#746789
11
#747098
1B!
#748389
0-
#748474
1.
#748974
03
#750000
1"
#751132
1O
#751760
0.
#753637
0P
#757662
1r
#759535
0q
#759701
0U
#760000
0"
#761132
0O
#761400
19
#764539
0H
#770000
1"
#771132
1O
#773637
1P
#777662
0v
#780000
0"
#780007
02!
#780437
05!
#780940
08!
#781132
0O
#781276
0,!
#781341
03!
#782168
1?!
#782170
0B!
#782237
09!
#782604
0)
#782690
04!
#783343
1+
#783812
1B!
#783824
0A!
#783931
0;!
#784652
0>!
#786085
0<!
#786789
01
#787088
1A!
#787100
1>!
#787101
0=!
#788036
1/
#788748
12
#790000
1"
#791132
1O
#791196
02
#791300
0/
#791934
13
#793637
0P
#797662
0S
0r
#799535
1q
#800000
0"
#800806
1u
#801132
0O
#801400
09
#802065
08
#804924
16
#810000
1"
#811132
1O
#813637
1P
#817662
1v
#820000
0"
#820007
12!
#820437
15!
#820940
18!
#821132
0O
#821276
1,!
#821341
13!
#821814
0C!
#821822
0>!
#821823
0@!
#822168
0?!
#822237
19!
#822604
1)
#822690
14!
#823343
0+
#823812
0B!
#823931
1;!
#824140
1>!
#824141
1@!
1=!
#824150
1C!
#826053
1-
#826085
1<!
#826789
11
#827098
1B!
#828389
0-
#828474
1.
#828974
03
#830000
1"
#831132
1O
#831760
0.
#833637
0P
#837662
1r
#839535
0q
#840000
0"
#840806
0u
#841132
0O
#841400
19
#844924
06
#850000
1"
#851132
1O
#853637
1P
#857662
0v
#860000
0"
#860007
02!
#860437
05!
#860940
08!
#861132
0O
#861276
0,!
#861341
03!
#862168
1?!
#862170
0B!
#862237
09!
#862604
0)
#862690
04!
#863343
1+
#863812
1B!
#863824
0A!
#863931
0;!
#864652
0>!
#866085
0<!
#866789
01
#867088
1A!
#867100
1>!
#867101
0=!
#868036
1/
#868748
12
#870000
1"
#871132
1O
#871196
02
#871300
0/
#871934
13
#873637
0P
#877662
1S
0r
#879535
1q
#879701
1U
#880000
0"
#881132
0O
#881400
09
#882065
18
#884539
1H
#890000
1"
#891132
1O
#893637
1P
#897662
1v
#900000
0"
#900007
12!
#900437
15!
#900940
18!
#901132
0O
#901276
1,!
#901341
13!
#901814
0C!
#901822
0>!
#901823
0@!
#902168
0?!
#902237
19!
#902604
1)
#902690
14!
#903343
0+
#903812
0B!
#903931
1;!
#904140
1>!
#904141
1@!
1=!
#904150
1C!
#906053
1-
#906085
1<!
#906789
11
#907098
1B!
#908389
0-
#908474
1.
#908974
03
#910000
1"
#911132
1O
#911760
0.
#913637
0P
#917662
1r
#919535
0q
#919701
0U
#920000
0"
#921132
0O
#921400
19
#924539
0H
#930000
1"
#931132
1O
#933637
1P
#937662
0v
#940000
0"
#940007
02!
#940437
05!
#940940
08!
#941132
0O
#941276
0,!
#941341
03!
#942168
1?!
#942170
0B!
#942237
09!
#942604
0)
#942690
04!
#943343
1+
#943812
1B!
#943824
0A!
#943931
0;!
#944652
0>!
#946085
0<!
#946789
01
#947088
1A!
#947100
1>!
#947101
0=!
#948036
1/
#948748
12
#950000
1"
#951132
1O
#951196
02
#951300
0/
#951934
13
#953637
0P
#957662
0S
0r
#959535
1q
#960000
0"
#960806
1u
#961132
0O
#961400
09
#962065
08
#964924
16
#970000
1"
#971132
1O
#973637
1P
#977662
1v
#980000
0"
#980007
12!
#980437
15!
#980940
18!
#981132
0O
#981276
1,!
#981341
13!
#981814
0C!
#981822
0>!
#981823
0@!
#982168
0?!
#982237
19!
#982604
1)
#982690
14!
#983343
0+
#983812
0B!
#983931
1;!
#984140
1>!
#984141
1@!
1=!
#984150
1C!
#986053
1-
#986085
1<!
#986789
11
#987098
1B!
#988389
0-
#988474
1.
#988974
03
#990000
1"
#991132
1O
#991760
0.
#993637
0P
#997662
1r
#999535
0q
#1000000
0"
#1000806
0u
#1001132
0O
#1001400
19
#1004924
06
#1010000
1"
#1011132
1O
#1013637
1P
#1017662
0v
#1020000
0"
#1020007
02!
#1020437
05!
#1020940
08!
#1021132
0O
#1021276
0,!
#1021341
03!
#1022168
1?!
#1022170
0B!
#1022237
09!
#1022604
0)
#1022690
04!
#1023343
1+
#1023812
1B!
#1023824
0A!
#1023931
0;!
#1024652
0>!
#1026085
0<!
#1026789
01
#1027088
1A!
#1027100
1>!
#1027101
0=!
#1028036
1/
#1028748
12
#1030000
1"
#1031132
1O
#1031196
02
#1031300
0/
#1031934
13
#1033637
0P
#1037662
1S
0r
#1039535
1q
#1039701
1U
#1040000
0"
#1041132
0O
#1041400
09
#1042065
18
#1044539
1H
#1050000
1"
#1051132
1O
#1053637
1P
#1057662
1v
#1060000
0"
#1060007
12!
#1060437
15!
#1060940
18!
#1061132
0O
#1061276
1,!
#1061341
13!
#1061814
0C!
#1061822
0>!
#1061823
0@!
#1062168
0?!
#1062237
19!
#1062604
1)
#1062690
14!
#1063343
0+
#1063812
0B!
#1063931
1;!
#1064140
1>!
#1064141
1@!
1=!
#1064150
1C!
#1066053
1-
#1066085
1<!
#1066789
11
#1067098
1B!
#1068389
0-
#1068474
1.
#1068974
03
#1070000
1"
#1071132
1O
#1071760
0.
#1073637
0P
#1077662
1r
#1079535
0q
#1079701
0U
#1080000
0"
#1081132
0O
#1081400
19
#1084539
0H
#1090000
1"
#1091132
1O
#1093637
1P
#1097662
0v
#1100000
0"
#1100007
02!
#1100437
05!
#1100940
08!
#1101132
0O
#1101276
0,!
#1101341
03!
#1102168
1?!
#1102170
0B!
#1102237
09!
#1102604
0)
#1102690
04!
#1103343
1+
#1103812
1B!
#1103824
0A!
#1103931
0;!
#1104652
0>!
#1106085
0<!
#1106789
01
#1107088
1A!
#1107100
1>!
#1107101
0=!
#1108036
1/
#1108748
12
#1110000
1"
#1111132
1O
#1111196
02
#1111300
0/
#1111934
13
#1113637
0P
#1117662
0S
0r
#1119535
1q
#1120000
0"
#1120806
1u
#1121132
0O
#1121400
09
#1122065
08
#1124924
16
#1130000
1"
#1131132
1O
#1133637
1P
#1137662
1v
#1140000
0"
#1140007
12!
#1140437
15!
#1140940
18!
#1141132
0O
#1141276
1,!
#1141341
13!
#1141814
0C!
#1141822
0>!
#1141823
0@!
#1142168
0?!
#1142237
19!
#1142604
1)
#1142690
14!
#1143343
0+
#1143812
0B!
#1143931
1;!
#1144140
1>!
#1144141
1@!
1=!
#1144150
1C!
#1146053
1-
#1146085
1<!
#1146789
11
#1147098
1B!
#1148389
0-
#1148474
1.
#1148974
03
#1150000
1"
#1151132
1O
#1151760
0.
#1153637
0P
#1157662
1r
#1159535
0q
#1160000
0"
#1160806
0u
#1161132
0O
#1161400
19
#1164924
06
#1170000
1"
#1171132
1O
#1173637
1P
#1177662
0v
#1180000
0"
#1180007
02!
#1180437
05!
#1180940
08!
#1181132
0O
#1181276
0,!
#1181341
03!
#1182168
1?!
#1182170
0B!
#1182237
09!
#1182604
0)
#1182690
04!
#1183343
1+
#1183812
1B!
#1183824
0A!
#1183931
0;!
#1184652
0>!
#1186085
0<!
#1186789
01
#1187088
1A!
#1187100
1>!
#1187101
0=!
#1188036
1/
#1188748
12
#1190000
1"
#1191132
1O
#1191196
02
#1191300
0/
#1191934
13
#1193637
0P
#1197662
1S
0r
#1199535
1q
#1199701
1U
#1200000
0"
#1201132
0O
#1201400
09
#1202065
18
#1204539
1H
#1210000
1"
#1211132
1O
#1213637
1P
#1217662
1v
#1220000
0"
#1220007
12!
#1220437
15!
#1220940
18!
#1221132
0O
#1221276
1,!
#1221341
13!
#1221814
0C!
#1221822
0>!
#1221823
0@!
#1222168
0?!
#1222237
19!
#1222604
1)
#1222690
14!
#1223343
0+
#1223812
0B!
#1223931
1;!
#1224140
1>!
#1224141
1@!
1=!
#1224150
1C!
#1226053
1-
#1226085
1<!
#1226789
11
#1227098
1B!
#1228389
0-
#1228474
1.
#1228974
03
#1230000
1"
#1231132
1O
#1231760
0.
#1233637
0P
#1237662
1r
#1239535
0q
#1239701
0U
#1240000
0"
#1241132
0O
#1241400
19
#1244539
0H
#1250000
1"
#1251132
1O
#1253637
1P
#1257662
0v
#1260000
0"
#1260007
02!
#1260437
05!
#1260940
08!
#1261132
0O
#1261276
0,!
#1261341
03!
#1262168
1?!
#1262170
0B!
#1262237
09!
#1262604
0)
#1262690
04!
#1263343
1+
#1263812
1B!
#1263824
0A!
#1263931
0;!
#1264652
0>!
#1266085
0<!
#1266789
01
#1267088
1A!
#1267100
1>!
#1267101
0=!
#1268036
1/
#1268748
12
#1270000
1"
#1271132
1O
#1271196
02
#1271300
0/
#1271934
13
#1273637
0P
#1277662
0S
0r
#1279535
1q
#1280000
0"
#1280806
1u
#1281132
0O
#1281400
09
#1282065
08
#1284924
16
#1290000
1"
#1291132
1O
#1293637
1P
#1297662
1v
#1300000
0"
#1300007
12!
#1300437
15!
#1300940
18!
#1301132
0O
#1301276
1,!
#1301341
13!
#1301814
0C!
#1301822
0>!
#1301823
0@!
#1302168
0?!
#1302237
19!
#1302604
1)
#1302690
14!
#1303343
0+
#1303812
0B!
#1303931
1;!
#1304140
1>!
#1304141
1@!
1=!
#1304150
1C!
#1306053
1-
#1306085
1<!
#1306789
11
#1307098
1B!
#1308389
0-
#1308474
1.
#1308974
03
#1310000
1"
#1311132
1O
#1311760
0.
#1313637
0P
#1317662
1r
#1319535
0q
#1320000
0"
#1320806
0u
#1321132
0O
#1321400
19
#1324924
06
#1330000
1"
#1331132
1O
#1333637
1P
#1337662
0v
#1340000
0"
#1340007
02!
#1340437
05!
#1340940
08!
#1341132
0O
#1341276
0,!
#1341341
03!
#1342168
1?!
#1342170
0B!
#1342237
09!
#1342604
0)
#1342690
04!
#1343343
1+
#1343812
1B!
#1343824
0A!
#1343931
0;!
#1344652
0>!
#1346085
0<!
#1346789
01
#1347088
1A!
#1347100
1>!
#1347101
0=!
#1348036
1/
#1348748
12
#1350000
1"
#1351132
1O
#1351196
02
#1351300
0/
#1351934
13
#1353637
0P
#1357662
1S
0r
#1359535
1q
#1359701
1U
#1360000
0"
#1361132
0O
#1361400
09
#1362065
18
#1364539
1H
#1370000
1"
#1371132
1O
#1373637
1P
#1377662
1v
#1380000
0"
#1380007
12!
#1380437
15!
#1380940
18!
#1381132
0O
#1381276
1,!
#1381341
13!
#1381814
0C!
#1381822
0>!
#1381823
0@!
#1382168
0?!
#1382237
19!
#1382604
1)
#1382690
14!
#1383343
0+
#1383812
0B!
#1383931
1;!
#1384140
1>!
#1384141
1@!
1=!
#1384150
1C!
#1386053
1-
#1386085
1<!
#1386789
11
#1387098
1B!
#1388389
0-
#1388474
1.
#1388974
03
#1390000
1"
#1391132
1O
#1391760
0.
#1393637
0P
#1397662
1r
#1399535
0q
#1399701
0U
#1400000
0"
#1401132
0O
#1401400
19
#1404539
0H
#1410000
1"
#1411132
1O
#1413637
1P
#1417662
0v
#1420000
0"
#1420007
02!
#1420437
05!
#1420940
08!
#1421132
0O
#1421276
0,!
#1421341
03!
#1422168
1?!
#1422170
0B!
#1422237
09!
#1422604
0)
#1422690
04!
#1423343
1+
#1423812
1B!
#1423824
0A!
#1423931
0;!
#1424652
0>!
#1426085
0<!
#1426789
01
#1427088
1A!
#1427100
1>!
#1427101
0=!
#1428036
1/
#1428748
12
#1430000
1"
#1431132
1O
#1431196
02
#1431300
0/
#1431934
13
#1433637
0P
#1437662
0S
0r
#1439535
1q
#1440000
0"
#1440806
1u
#1441132
0O
#1441400
09
#1442065
08
#1444924
16
#1450000
1"
#1451132
1O
#1453637
1P
#1457662
1v
#1460000
0"
#1460007
12!
#1460437
15!
#1460940
18!
#1461132
0O
#1461276
1,!
#1461341
13!
#1461814
0C!
#1461822
0>!
#1461823
0@!
#1462168
0?!
#1462237
19!
#1462604
1)
#1462690
14!
#1463343
0+
#1463812
0B!
#1463931
1;!
#1464140
1>!
#1464141
1@!
1=!
#1464150
1C!
#1466053
1-
#1466085
1<!
#1466789
11
#1467098
1B!
#1468389
0-
#1468474
1.
#1468974
03
#1470000
1"
#1471132
1O
#1471760
0.
#1473637
0P
#1477662
1r
#1479535
0q
#1480000
0"
#1480806
0u
#1481132
0O
#1481400
19
#1484924
06
#1490000
1"
#1491132
1O
#1493637
1P
#1497662
0v
#1500000
0"
#1500007
02!
#1500437
05!
#1500940
08!
#1501132
0O
#1501276
0,!
#1501341
03!
#1502168
1?!
#1502170
0B!
#1502237
09!
#1502604
0)
#1502690
04!
#1503343
1+
#1503812
1B!
#1503824
0A!
#1503931
0;!
#1504652
0>!
#1506085
0<!
#1506789
01
#1507088
1A!
#1507100
1>!
#1507101
0=!
#1508036
1/
#1508748
12
#1510000
1"
#1511132
1O
#1511196
02
#1511300
0/
#1511934
13
#1513637
0P
#1517662
1S
0r
#1519535
1q
#1519701
1U
#1520000
0"
#1521132
0O
#1521400
09
#1522065
18
#1524539
1H
#1530000
1"
#1531132
1O
#1533637
1P
