simulation/qsim/MI-CircuitosDigitais-Problema-3.msim.vcd
$comment
	File created using the following command:
		vcd file MI-CircuitosDigitais-Problema-3.msim.vcd -direction
$end
$date
	Mon Feb 19 20:46:56 2024
$end
$version
	ModelSim Version 10.5b
$end
$timescale
	1ps
$end

$scope module pbl_vlg_vec_tst $end
$var reg 1 ! ch $end
$var reg 1 " clock_50mhz $end
$var reg 1 # cq $end
$var reg 1 $ op $end
$var reg 1 % op_c $end
$var reg 1 & pg $end
$var reg 1 ' start_stop $end
$var wire 1 ( Nac_7segmentos [3] $end
$var wire 1 ) Nac_7segmentos [2] $end
$var wire 1 * Nac_7segmentos [1] $end
$var wire 1 + Nac_7segmentos [0] $end
$var wire 1 , Nal $end
$var wire 1 - Nout_7seg [7] $end
$var wire 1 . Nout_7seg [6] $end
$var wire 1 / Nout_7seg [5] $end
$var wire 1 0 Nout_7seg [4] $end
$var wire 1 1 Nout_7seg [3] $end
$var wire 1 2 Nout_7seg [2] $end
$var wire 1 3 Nout_7seg [1] $end
$var wire 1 4 Nout_7seg [0] $end
$var wire 1 5 al $end
$var wire 1 6 ev $end
$var wire 1 7 m $end
$var wire 1 8 mef_estado [1] $end
$var wire 1 9 mef_estado [0] $end
$var wire 1 : test_buffer_principal [4] $end
$var wire 1 ; test_buffer_principal [3] $end
$var wire 1 < test_buffer_principal [2] $end
$var wire 1 = test_buffer_principal [1] $end
$var wire 1 > test_buffer_principal [0] $end
$var wire 1 ? test_buffer_secundario [6] $end
$var wire 1 @ test_buffer_secundario [5] $end
$var wire 1 A test_buffer_secundario [4] $end
$var wire 1 B test_buffer_secundario [3] $end
$var wire 1 C test_buffer_secundario [2] $end
$var wire 1 D test_buffer_secundario [1] $end
$var wire 1 E test_buffer_secundario [0] $end
$var wire 1 F test_buffer_secundario_controle_min_rolhas [4] $end
$var wire 1 G test_buffer_secundario_controle_min_rolhas [3] $end
$var wire 1 H test_buffer_secundario_controle_min_rolhas [2] $end
$var wire 1 I test_buffer_secundario_controle_min_rolhas [1] $end
$var wire 1 J test_buffer_secundario_controle_min_rolhas [0] $end
$var wire 1 K test_buffer_secundario_controle_operador [6] $end
$var wire 1 L test_buffer_secundario_controle_operador [5] $end
$var wire 1 M test_buffer_secundario_controle_operador [4] $end
$var wire 1 N test_buffer_secundario_controle_operador [3] $end
$var wire 1 O test_buffer_secundario_controle_operador [2] $end
$var wire 1 P test_buffer_secundario_controle_operador [1] $end
$var wire 1 Q test_buffer_secundario_controle_operador [0] $end
$var wire 1 R ve $end

$scope module i1 $end
$var wire 1 S gnd $end
$var wire 1 T vcc $end
$var wire 1 U unknown $end
$var tri1 1 V devclrn $end
$var tri1 1 W devpor $end
$var tri1 1 X devoe $end
$var wire 1 Y registrador_2|ff_1|q~regout $end
$var wire 1 Z comb_52|somador_subtrator_2|gate_5|WideOr0~30 $end
$var wire 1 [ pg~combout $end
$var wire 1 \ clock_50mhz~combout $end
$var wire 1 ] divisor_f|ff_1|q~regout $end
$var wire 1 ^ divisor_f|ff_2|q~regout $end
$var wire 1 _ divisor_f|ff_3|q~regout $end
$var wire 1 ` start_stop~combout $end
$var wire 1 a ch~combout $end
$var wire 1 b mef_1|jk_2|q~0_combout $end
$var wire 1 c estado_vedacao~combout $end
$var wire 1 d op~combout $end
$var wire 1 e comb_84|jk_1|q~regout $end
$var wire 1 f contador_3_buffer_secundario_controle_operador|ff_1|q_bar~0_combout $end
$var wire 1 g contador_1_buffer_secundario|ff_1|q~regout $end
$var wire 1 h op_c~combout $end
$var wire 1 i pulsador_3|ff_1|q~regout $end
$var wire 1 j pulsador_3|ff_1|nq~regout $end
$var wire 1 k pulsador_3|Pulse~combout $end
$var wire 1 l contador_entrada_rolhas|ff_1|q~regout $end
$var wire 1 m registrador_1|ff_7|q~regout $end
$var wire 1 n registrador_2|ff_7|q~regout $end
$var wire 1 o contador_3_buffer_secundario_controle_operador|gate_33|comb~0_combout $end
$var wire 1 p contador_3_buffer_secundario_controle_operador|ff_1|q~0_combout $end
$var wire 1 q contador_3_buffer_secundario_controle_operador|ff_1|q_bar~regout $end
$var wire 1 r contador_3_buffer_secundario_controle_operador|ff_2|q_bar~0_combout $end
$var wire 1 s contador_entrada_rolhas|ff_2|q~regout $end
$var wire 1 t comb_52|somador_subtrator_1|gate_8|WideAnd0 $end
$var wire 1 u contador_1_buffer_secundario|ff_1|q_bar~regout $end
$var wire 1 v contador_1_buffer_secundario|gate_3|S~0_combout $end
$var wire 1 w contador_1_buffer_secundario|ff_2|q~regout $end
$var wire 1 x registrador_1|ff_6|q~regout $end
$var wire 1 y comb_52|somador_subtrator_2|gate_5|WideOr0~32_cout0 $end
$var wire 1 z comb_52|somador_subtrator_2|gate_5|WideOr0~32COUT1_36 $end
$var wire 1 { registrador_2|ff_6|q~regout $end
$var wire 1 | contador_3_buffer_secundario_controle_operador|gate_32|comb~0_combout $end
$var wire 1 } contador_3_buffer_secundario_controle_operador|ff_2|q~0_combout $end
$var wire 1 ~ contador_3_buffer_secundario_controle_operador|ff_2|q_bar~regout $end
$var wire 1 !! contador_entrada_rolhas|ff_3|q~regout $end
$var wire 1 "! contador_1_buffer_secundario|ff_2|q_bar~regout $end
$var wire 1 #! contador_1_buffer_secundario|gate_4|S~combout $end
$var wire 1 $! contador_1_buffer_secundario|ff_3|q~0_combout $end
$var wire 1 %! contador_1_buffer_secundario|ff_3|q~regout $end
$var wire 1 &! registrador_1|ff_5|q~regout $end
$var wire 1 '! comb_52|somador_subtrator_2|gate_5|WideOr0~2 $end
$var wire 1 (! comb_52|somador_subtrator_2|gate_5|WideOr0~2COUT1_37 $end
$var wire 1 )! comb_52|somador_subtrator_2|gate_5|WideOr0~5_combout $end
$var wire 1 *! registrador_2|ff_5|q~regout $end
$var wire 1 +! contador_3_buffer_secundario_controle_operador|gate_31|comb~0_combout $end
$var wire 1 ,! contador_3_buffer_secundario_controle_operador|ff_3|q~0 $end
$var wire 1 -! contador_3_buffer_secundario_controle_operador|ff_3|q_bar~regout $end
$var wire 1 .! contador_3_buffer_secundario_controle_operador|ff_4|q_bar~0_combout $end
$var wire 1 /! contador_entrada_rolhas|ff_4|q~regout $end
$var wire 1 0! contador_1_buffer_secundario|gate_10|S~0_combout $end
$var wire 1 1! contador_1_buffer_secundario|ff_3|q_bar~regout $end
$var wire 1 2! contador_1_buffer_secundario|gate_8|S~combout $end
$var wire 1 3! contador_1_buffer_secundario|ff_4|q~regout $end
$var wire 1 4! registrador_1|ff_4|q~regout $end
$var wire 1 5! comb_52|somador_subtrator_2|gate_5|WideOr0~7 $end
$var wire 1 6! comb_52|somador_subtrator_2|gate_5|WideOr0~7COUT1_38 $end
$var wire 1 7! comb_52|somador_subtrator_2|gate_5|WideOr0~10_combout $end
$var wire 1 8! registrador_2|ff_4|q~regout $end
$var wire 1 9! contador_3_buffer_secundario_controle_operador|gate_30|comb~0_combout $end
$var wire 1 :! contador_3_buffer_secundario_controle_operador|ff_4|q~0 $end
$var wire 1 ;! contador_3_buffer_secundario_controle_operador|ff_4|q_bar~regout $end
$var wire 1 <! contador_3_buffer_secundario_controle_operador|ff_5|q_bar~0_combout $end
$var wire 1 =! contador_1_buffer_secundario|ff_4|q~2_combout $end
$var wire 1 >! contador_1_buffer_secundario|ff_4|q_bar~regout $end
$var wire 1 ?! contador_1_buffer_secundario|ff_5|q~0_combout $end
$var wire 1 @! contador_1_buffer_secundario|ff_5|q~regout $end
$var wire 1 A! registrador_1|ff_3|q~regout $end
$var wire 1 B! contador_entrada_rolhas|gate_3|S~combout $end
$var wire 1 C! contador_entrada_rolhas|ff_5|q~regout $end
$var wire 1 D! comb_52|somador_subtrator_2|gate_5|WideOr0~12 $end
$var wire 1 E! comb_52|somador_subtrator_2|gate_5|WideOr0~15_combout $end
$var wire 1 F! registrador_2|ff_3|q~regout $end
$var wire 1 G! contador_3_buffer_secundario_controle_operador|gate_29|comb~0_combout $end
$var wire 1 H! contador_3_buffer_secundario_controle_operador|ff_5|q~0 $end
$var wire 1 I! contador_3_buffer_secundario_controle_operador|ff_5|q_bar~regout $end
$var wire 1 J! contador_1_buffer_secundario|ff_5|q_bar~regout $end
$var wire 1 K! contador_1_buffer_secundario|gate_17|S~0_combout $end
$var wire 1 L! contador_1_buffer_secundario|ff_6|q~5_combout $end
$var wire 1 M! contador_1_buffer_secundario|ff_6|q~regout $end
$var wire 1 N! registrador_1|ff_2|q~regout $end
$var wire 1 O! contador_entrada_rolhas|ff_6|q~regout $end
$var wire 1 P! comb_52|somador_subtrator_2|gate_5|WideOr0~17 $end
$var wire 1 Q! comb_52|somador_subtrator_2|gate_5|WideOr0~17COUT1_39 $end
$var wire 1 R! registrador_2|ff_2|q~regout $end
$var wire 1 S! contador_3_buffer_secundario_controle_operador|gate_28|comb~0_combout $end
$var wire 1 T! contador_3_buffer_secundario_controle_operador|ff_6|q~0_combout $end
$var wire 1 U! contador_3_buffer_secundario_controle_operador|ff_6|q_bar~regout $end
$var wire 1 V! comb_84|jk_2|Mux0~0_combout $end
$var wire 1 W! contador_3_buffer_secundario_controle_operador|gate_27|comb~0 $end
$var wire 1 X! comb_84|gate_7|S~0_combout $end
$var wire 1 Y! contador_3_buffer_secundario_controle_operador|ff_7|q~regout $end
$var wire 1 Z! comb_84|jk_2|Mux0~1_combout $end
$var wire 1 [! comb_84|jk_2|q~regout $end
$var wire 1 \! contador_4_buffer_principal|ff_4|q~0_combout $end
$var wire 1 ]! contador_4_buffer_principal|ff_3|q_bar~regout $end
$var wire 1 ^! contador_4_buffer_principal|ff_1|q_bar~regout $end
$var wire 1 _! contador_4_buffer_principal|ff_4|q~1_combout $end
$var wire 1 `! contador_4_buffer_principal|ff_4|q~2_combout $end
$var wire 1 a! contador_4_buffer_principal|ff_4|q~regout $end
$var wire 1 b! contador_4_buffer_principal|ff_4|q_bar~regout $end
$var wire 1 c! contador_4_buffer_principal|ff_5|q~0_combout $end
$var wire 1 d! contador_4_buffer_principal|ff_5|q~regout $end
$var wire 1 e! WideAnd1~2_combout $end
$var wire 1 f! mux_3|gate_4|WideAnd0~0_combout $end
$var wire 1 g! WideAnd1~1_combout $end
$var wire 1 h! WideAnd1~3 $end
$var wire 1 i! pulsador_1|ff_1|q~regout $end
$var wire 1 j! pulsador_1|ff_1|nq~regout $end
$var wire 1 k! pulsador_1|Pulse~combout $end
$var wire 1 l! comb_83|gate_7|S~1_combout $end
$var wire 1 m! ff_1|q~regout $end
$var wire 1 n! comb_83|jk_1|q~regout $end
$var wire 1 o! comb_83|gate_7|S~0_combout $end
$var wire 1 p! contador_2_buffer_secundario_controle_rolhas|ff_1|q_bar~regout $end
$var wire 1 q! contador_2_buffer_secundario_controle_rolhas|ff_2|q_bar~regout $end
$var wire 1 r! contador_2_buffer_secundario_controle_rolhas|ff_3|q_bar~0_combout $end
$var wire 1 s! contador_2_buffer_secundario_controle_rolhas|ff_3|q_bar~regout $end
$var wire 1 t! contador_2_buffer_secundario_controle_rolhas|ff_3|q_bar~1_combout $end
$var wire 1 u! contador_2_buffer_secundario_controle_rolhas|ff_4|q_bar~regout $end
$var wire 1 v! contador_2_buffer_secundario_controle_rolhas|ff_5|q~regout $end
$var wire 1 w! comb_83|jk_2|Mux0~1_combout $end
$var wire 1 x! comb_83|jk_2|Mux0~0_combout $end
$var wire 1 y! comb_83|jk_2|q~regout $end
$var wire 1 z! WideAnd4~0_combout $end
$var wire 1 {! WideAnd4~combout $end
$var wire 1 |! enable_buffer_secundario~0_combout $end
$var wire 1 }! contador_1_buffer_secundario|ff_6|q_bar~regout $end
$var wire 1 ~! contador_1_buffer_secundario|gate_15|S~0_combout $end
$var wire 1 !" contador_1_buffer_secundario|gate_19|S~combout $end
$var wire 1 "" contador_1_buffer_secundario|ff_7|q~regout $end
$var wire 1 #" registrador_1|ff_1|q~regout $end
$var wire 1 $" contador_entrada_rolhas|ff_7|q~regout $end
$var wire 1 %" comb_52|somador_subtrator_2|gate_5|WideOr0~22 $end
$var wire 1 &" comb_52|somador_subtrator_2|gate_5|WideOr0~22COUT1_40 $end
$var wire 1 '" comb_52|somador_subtrator_2|gate_5|WideOr0~25_combout $end
$var wire 1 (" comb_52|somador_subtrator_2|gate_5|WideOr0~20 $end
$var wire 1 )" WideAnd0~0_combout $end
$var wire 1 *" pulsador_2|ff_1|q~regout $end
$var wire 1 +" pulsador_2|ff_1|nq~regout $end
$var wire 1 ," WideAnd0~1 $end
$var wire 1 -" pulsador_2|Pulse~combout $end
$var wire 1 ." comb_84|gate_7|S~1_combout $end
$var wire 1 /" ff_2|q~regout $end
$var wire 1 0" enable_buffer_principal~combout $end
$var wire 1 1" contador_4_buffer_principal|ff_1|q~regout $end
$var wire 1 2" contador_4_buffer_principal|ff_2|q~1_combout $end
$var wire 1 3" contador_4_buffer_principal|ff_2|q~regout $end
$var wire 1 4" contador_4_buffer_principal|ff_2|q_bar~regout $end
$var wire 1 5" contador_4_buffer_principal|ff_3|q~0_combout $end
$var wire 1 6" contador_4_buffer_principal|ff_2|q~0_combout $end
$var wire 1 7" contador_4_buffer_principal|ff_3|q~1_combout $end
$var wire 1 8" contador_4_buffer_principal|ff_3|q~regout $end
$var wire 1 9" WideAnd1~0_combout $end
$var wire 1 :" m_aus_rolhas|gate_1|WideOr0~combout $end
$var wire 1 ;" cq~combout $end
$var wire 1 <" gate_1|S~combout $end
$var wire 1 =" contador_duzias|ff_1|q~regout $end
$var wire 1 >" contador_duzias|ff_2|q~regout $end
$var wire 1 ?" contador_duzias|ff_3|q~regout $end
$var wire 1 @" contador_duzias|ff_4|q~regout $end
$var wire 1 A" reset_1|gate_1|S~combout $end
$var wire 1 B" mef_1|jk_2|q~1_combout $end
$var wire 1 C" mef_1|jk_2|q~regout $end
$var wire 1 D" mef_1|jk_1|q~regout $end
$var wire 1 E" mef_1|gate_11|WideAnd0~0_combout $end
$var wire 1 F" mef_1|gate_10|WideAnd0~combout $end
$var wire 1 G" mef_1|gate_9|WideAnd0~combout $end
$var wire 1 H" mef_1|gate_8|S~0_combout $end
$var wire 1 I" mef_1|gate_8|S~1_combout $end
$var wire 1 J" contador_display|ff_1|q~regout $end
$var wire 1 K" contador_display|ff_2|q~regout $end
$var wire 1 L" contador_dezenas_duzias|ff_3|q~regout $end
$var wire 1 M" contador_dezenas_duzias|ff_4|q~regout $end
$var wire 1 N" gate_2|S~combout $end
$var wire 1 O" contador_dezenas_duzias|ff_1|q~regout $end
$var wire 1 P" contador_dezenas_duzias|ff_2|q~regout $end
$var wire 1 Q" mux_3|gate_5|WideOr0~1_combout $end
$var wire 1 R" mux_3|gate_4|WideAnd0~5_combout $end
$var wire 1 S" mux_3|gate_4|WideAnd0~2_combout $end
$var wire 1 T" mux_3|gate_4|WideAnd0~3_combout $end
$var wire 1 U" mux_3|gate_4|WideAnd0~1_combout $end
$var wire 1 V" mux_3|gate_4|WideAnd0~4_combout $end
$var wire 1 W" mux_3|gate_4|WideAnd0~6_combout $end
$var wire 1 X" mux_3|gate_3|WideAnd0~0_combout $end
$var wire 1 Y" mux_3|gate_3|WideAnd0~1_combout $end
$var wire 1 Z" mux_3|gate_3|WideAnd0~2_combout $end
$var wire 1 [" mux_3|gate_5|WideOr0~0_combout $end
$var wire 1 \" mux_3|gate_5|WideOr0~2_combout $end
$var wire 1 ]" demux_1|gate_3|WideAnd0~0_combout $end
$var wire 1 ^" mux_1|gate_5|WideOr0~0_combout $end
$var wire 1 _" mux_1|gate_5|WideOr0~2_combout $end
$var wire 1 `" mux_1|gate_4|WideAnd0~8_combout $end
$var wire 1 a" mux_1|gate_4|WideAnd0~6_combout $end
$var wire 1 b" mux_1|gate_4|WideAnd0~7_combout $end
$var wire 1 c" mux_1|gate_4|WideAnd0~2_combout $end
$var wire 1 d" mux_1|gate_4|WideAnd0~3_combout $end
$var wire 1 e" mux_1|gate_4|WideAnd0~4_combout $end
$var wire 1 f" mux_1|gate_4|WideAnd0~5_combout $end
$var wire 1 g" mux_1|gate_5|WideOr0~1_combout $end
$var wire 1 h" mux_1|gate_5|WideOr0~3_combout $end
$var wire 1 i" mux_4|gate_3|WideAnd0~2_combout $end
$var wire 1 j" mux_4|gate_3|WideAnd0~1_combout $end
$var wire 1 k" mux_4|gate_3|WideAnd0~0_combout $end
$var wire 1 l" mux_4|gate_3|WideAnd0~4_combout $end
$var wire 1 m" mux_4|gate_3|WideAnd0~3_combout $end
$var wire 1 n" mux_4|gate_3|WideAnd0~5_combout $end
$var wire 1 o" codificador_garrafas_2|gate_1|S~0_combout $end
$var wire 1 p" mux_4|gate_5|WideOr0~0_combout $end
$var wire 1 q" mux_4|gate_5|WideOr0~1_combout $end
$var wire 1 r" mux_2|gate_4|WideAnd0~0_combout $end
$var wire 1 s" mux_2|gate_4|WideAnd0~1_combout $end
$var wire 1 t" mux_2|gate_4|WideAnd0~2_combout $end
$var wire 1 u" mux_2|gate_5|WideOr0~0_combout $end
$var wire 1 v" mux_2|gate_5|WideOr0~1_combout $end
$var wire 1 w" demux_1|gate_3|WideAnd0~1_combout $end
$var wire 1 x" mux_2|gate_4|WideAnd0~4_combout $end
$var wire 1 y" mux_2|gate_4|WideAnd0~3_combout $end
$var wire 1 z" mux_2|gate_4|WideAnd0~5_combout $end
$var wire 1 {" mux_2|gate_5|WideOr0~2_combout $end
$var wire 1 |" bcd_1|gate_23|WideOr0~combout $end
$var wire 1 }" bcd_1|gate_19|WideOr0~0_combout $end
$var wire 1 ~" bcd_1|gate_15|S~0_combout $end
$var wire 1 !# bcd_1|gate_12|WideOr0~0_combout $end
$var wire 1 "# bcd_1|gate_7|WideOr0~combout $end
$var wire 1 ## bcd_1|gate_6|WideOr0~combout $end
$var wire 1 $# bcd_1|gate_3|WideOr0~combout $end
$var wire 1 %# demux_1|gate_3|WideAnd0~2_combout $end
$var wire 1 &# demux_1|gate_1|WideAnd0~combout $end
$upscope $end
$upscope $end
$enddefinitions $end
#0
$dumpvars
1!
1"
1#
1$
1%
1&
1'
1+
1*
1)
0(
1,
14
13
02
01
00
0/
0.
0-
05
16
07
09
08
0>
0=
0<
0;
0:
0E
0D
0C
0B
0A
0@
0?
0J
0I
0H
0G
0F
0Q
0P
0O
0N
0M
0L
0K
0R
0S
1T
xU
1V
1W
1X
0Y
1Z
1[
1\
0]
0^
0_
1`
1a
0b
0c
1d
0e
1f
0g
1h
0i
0j
0k
0l
0m
0n
0o
0p
0q
0r
0s
0t
0u
1v
0w
0x
0y
0z
0{
0|
0}
0~
0!!
0"!
0#!
0$!
0%!
0&!
1'!
1(!
0)!
0*!
0+!
0,!
0-!
1.!
0/!
00!
01!
12!
03!
04!
05!
06!
07!
08!
09!
0:!
0;!
0<!
0=!
0>!
0?!
0@!
0A!
0B!
0C!
1D!
0E!
0F!
0G!
0H!
0I!
0J!
0K!
0L!
0M!
0N!
0O!
0P!
0Q!
0R!
0S!
0T!
0U!
0V!
0W!
0X!
0Y!
0Z!
0[!
0\!
0]!
0^!
0_!
0`!
0a!
0b!
0c!
0d!
1e!
1f!
0g!
0h!
0i!
0j!
1k!
0l!
0m!
0n!
0o!
0p!
0q!
1r!
0s!
0t!
0u!
0v!
0w!
0x!
0y!
0z!
0{!
0|!
0}!
1~!
1!"
0""
0#"
0$"
1%"
1&"
0'"
0("
1)"
0*"
0+"
0,"
1-"
0."
0/"
00"
01"
02"
03"
04"
05"
06"
07"
08"
19"
0:"
1;"
1<"
0="
0>"
0?"
0@"
0A"
1B"
0C"
0D"
0E"
0F"
0G"
1H"
1I"
0J"
0K"
0L"
0M"
0N"
0O"
0P"
0Q"
0R"
0S"
0T"
0U"
1V"
0W"
0X"
0Y"
0Z"
0["
0\"
0]"
0^"
0_"
0`"
0a"
0b"
1c"
0d"
0e"
0f"
0g"
0h"
0i"
0j"
0k"
0l"
0m"
0n"
0o"
0p"
0q"
0r"
1s"
0t"
0u"
0v"
0w"
0x"
0y"
0z"
0{"
0|"
1}"
1~"
1!#
1"#
1##
1$#
0%#
0&#
$end
#10000
0"
0\
1]
#20000
1"
1\
#30000
0"
0\
0]
1^
#40000
1"
1\
#50000
0"
0\
1]
#60000
1"
1\
#70000
0"
0\
0]
0^
1_
#80000
1"
1\
#90000
0"
0\
1]
#100000
1"
1\
#110000
0"
0\
0]
1^
#120000
0%
1"
0h
1\
#130000
0"
0\
1]
#140000
1"
1\
#150000
0"
0\
0]
0^
0_
1J"
1C"
1+"
1j!
1j
1i
1&#
1%#
0H"
1k
19
0I"
1(
0)
06
1l
#160000
1"
1\
#170000
0"
0\
1]
#180000
1"
1\
#190000
0"
0\
0]
1^
#200000
1"
1\
#210000
0"
0\
1]
#220000
1"
1\
#230000
0"
0\
0]
0^
1_
#240000
1%
1"
1h
1\
0k
#250000
0"
0\
1]
#260000
1"
1\
#270000
0"
0\
0]
1^
#280000
1"
1\
#290000
0"
0\
1]
#300000
1"
1\
#310000
0"
0\
0]
0^
0_
1K"
0J"
1D"
0C"
0j
0i
0%#
1]"
1G"
0B"
1H"
18
09
15
0,
0*
1)
#320000
1"
1\
#330000
0"
0\
1]
#340000
1"
1\
#350000
0"
0\
0]
1^
#360000
0%
1"
0h
1\
#370000
0"
0\
1]
#380000
1"
1\
#390000
0"
0\
0]
0^
1_
#400000
1"
1\
#410000
0"
0\
1]
#420000
1"
1\
#430000
0"
0\
0]
1^
#440000
1"
1\
#450000
0"
0\
1]
#460000
1"
1\
#470000
0"
0\
0]
0^
0_
1J"
1j
1i
1w"
1p"
0]"
1k
1*
0+
1s
0l
#480000
1%
1"
1h
1\
0k
#490000
0"
0\
1]
#500000
1"
1\
#510000
0"
0\
0]
1^
#520000
1"
1\
#530000
0"
0\
1]
#540000
1"
1\
#550000
0"
0\
0]
0^
1_
#560000
1"
1\
#570000
0"
0\
1]
#580000
1"
1\
#590000
0"
0\
0]
1^
#600000
0%
1"
0h
1\
1k
1l
#610000
0"
0\
1]
#620000
1"
1\
#630000
0"
0\
0]
0^
0_
0K"
0J"
0j
0&#
0w"
0p"
1q"
0k
0q"
0$#
0!#
0~"
0}"
0(
1+
1$#
1!#
1~"
1}"
12
11
10
1-
02
01
00
0-
#640000
1"
1\
#650000
0"
0\
1]
#660000
1"
1\
#670000
0"
0\
0]
1^
#680000
1"
1\
#690000
0"
0\
1]
#700000
1"
1\
#710000
0"
0\
0]
0^
1_
#720000
1%
1"
1h
1\
#730000
0"
0\
1]
#740000
1"
1\
#750000
0"
0\
0]
1^
#760000
1"
1\
#770000
0"
0\
1]
#780000
1"
1\
#790000
0"
0\
0]
0^
0_
1J"
0i
1&#
1%#
1(
0)
#800000
1"
1\
#810000
0"
0\
1]
#820000
1"
1\
#830000
0"
0\
0]
1^
#840000
0%
1"
0h
1\
#850000
0"
0\
1]
#860000
1"
1\
#870000
0"
0\
0]
0^
1_
#880000
1"
1\
#890000
0"
0\
1]
#900000
1"
1\
#910000
0"
0\
0]
1^
#920000
1"
1\
#930000
0"
0\
1]
#940000
1"
1\
#950000
0"
0\
0]
0^
0_
1K"
0J"
1j
1i
0%#
1]"
1k
0*
1)
1!!
0s
0l
1)!
#960000
1%
1"
1h
1\
0k
#970000
0"
0\
1]
#980000
1"
1\
#990000
0"
0\
0]
1^
#1000000
1"
1\
#1010000
0"
0\
1]
#1020000
1"
1\
#1030000
0"
0\
0]
0^
1_
#1040000
1"
1\
#1050000
0"
0\
1]
#1060000
1"
1\
#1070000
0"
0\
0]
1^
#1080000
0%
1"
0h
1\
1k
1l
#1090000
0"
0\
1]
#1100000
1"
1\
#1110000
0"
0\
0]
0^
0_
1J"
0j
1w"
1p"
0]"
0k
1*
0+
#1120000
1"
1\
#1130000
0"
0\
1]
#1140000
1"
1\
#1150000
0"
0\
0]
1^
#1160000
1"
1\
#1170000
0"
0\
1]
#1180000
1"
1\
#1190000
0"
0\
0]
0^
1_
#1200000
1%
1"
1h
1\
#1210000
0"
0\
1]
#1220000
1"
1\
#1230000
0"
0\
0]
1^
#1240000
1"
1\
#1250000
0"
0\
1]
#1260000
1"
1\
#1270000
0"
0\
0]
0^
0_
0K"
0J"
0i
0&#
0w"
0p"
1q"
0q"
0$#
0!#
0~"
0}"
0(
1+
1$#
1!#
1~"
1}"
12
11
10
1-
02
01
00
0-
#1280000
1"
1\
#1290000
0"
0\
1]
#1300000
1"
1\
#1310000
0"
0\
0]
1^
#1320000
0%
1"
0h
1\
#1330000
0"
0\
1]
#1340000
1"
1\
#1350000
0"
0\
0]
0^
1_
#1360000
1"
1\
#1370000
0"
0\
1]
#1380000
1"
1\
#1390000
0"
0\
0]
1^
#1400000
1"
1\
#1410000
0"
0\
1]
#1420000
1"
1\
#1430000
0"
0\
0]
0^
0_
1J"
1j
1i
1&#
1%#
1k
1(
0)
1s
0l
#1440000
1%
1"
1h
1\
0k
#1450000
0"
0\
1]
#1460000
1"
1\
#1470000
0"
0\
0]
1^
#1480000
1"
1\
#1490000
0"
0\
1]
#1500000
1"
1\
#1510000
0"
0\
0]
0^
1_
#1520000
1"
1\
#1530000
0"
0\
1]
#1540000
1"
1\
#1550000
0"
0\
0]
1^
#1560000
0%
1"
0h
1\
1k
1l
#1570000
0"
0\
1]
#1580000
1"
1\
#1590000
0"
0\
0]
0^
0_
1K"
0J"
0j
0%#
1]"
0k
0*
1)
#1600000
1"
1\
#1610000
0"
0\
1]
#1620000
1"
1\
#1630000
0"
0\
0]
1^
#1640000
1"
1\
#1650000
0"
0\
1]
#1660000
1"
1\
#1670000
0"
0\
0]
0^
1_
#1680000
1%
1"
1h
1\
#1690000
0"
0\
1]
#1700000
1"
1\
#1710000
0"
0\
0]
1^
#1720000
1"
1\
#1730000
0"
0\
1]
#1740000
1"
1\
#1750000
0"
0\
0]
0^
0_
1J"
0i
1w"
1p"
0]"
1*
0+
#1760000
1"
1\
#1770000
0"
0\
1]
#1780000
1"
1\
#1790000
0"
0\
0]
1^
#1800000
0%
1"
0h
1\
#1810000
0"
0\
1]
#1820000
1"
1\
#1830000
0"
0\
0]
0^
1_
#1840000
1"
1\
#1850000
0"
0\
1]
#1860000
1"
1\
#1870000
0"
0\
0]
1^
#1880000
1"
1\
#1890000
0"
0\
1]
#1900000
1"
1\
#1910000
0"
0\
0]
0^
0_
0K"
0J"
1j
1i
0&#
0w"
0p"
1q"
1k
0q"
0$#
0!#
0~"
0}"
0(
1+
1$#
1!#
1~"
1}"
12
11
10
1-
02
01
00
0-
1/!
0!!
0s
0l
17!
0)!
#1920000
1%
1"
1h
1\
0k
#1930000
0"
0\
1]
#1940000
1"
1\
#1950000
0"
0\
0]
1^
#1960000
1"
1\
#1970000
0"
0\
1]
#1980000
1"
1\
#1990000
0"
0\
0]
0^
1_
#2000000
1"
1\
#2010000
0"
0\
1]
#2020000
1"
1\
#2030000
0"
0\
0]
1^
#2040000
0%
1"
0h
1\
1k
1l
#2050000
0"
0\
1]
#2060000
1"
1\
#2070000
0"
0\
0]
0^
0_
1J"
0j
1&#
1%#
0k
1(
0)
#2080000
1"
1\
#2090000
0"
0\
1]
#2100000
1"
1\
#2110000
0"
0\
0]
1^
#2120000
1"
1\
#2130000
0"
0\
1]
#2140000
1"
1\
#2150000
0"
0\
0]
0^
1_
#2160000
1%
1"
1h
1\
#2170000
0"
0\
1]
#2180000
1"
1\
#2190000
0"
0\
0]
1^
#2200000
1"
1\
#2210000
0"
0\
1]
#2220000
1"
1\
#2230000
0"
0\
0]
0^
0_
1K"
0J"
0i
0%#
1]"
0*
1)
#2240000
1"
1\
#2250000
0"
0\
1]
#2260000
1"
1\
#2270000
0"
0\
0]
1^
#2280000
0%
1"
0h
1\
#2290000
0"
0\
1]
#2300000
1"
1\
#2310000
0"
0\
0]
0^
1_
#2320000
1"
1\
#2330000
0"
0\
1]
#2340000
1"
1\
#2350000
0"
0\
0]
1^
#2360000
1"
1\
#2370000
0"
0\
1]
#2380000
1"
1\
#2390000
0"
0\
0]
0^
0_
1J"
1j
1i
1w"
1p"
0]"
1k
1*
0+
1s
0l
#2400000
1%
1"
1h
1\
0k
#2410000
0"
0\
1]
#2420000
1"
1\
#2430000
0"
0\
0]
1^
#2440000
1"
1\
#2450000
0"
0\
1]
#2460000
1"
1\
#2470000
0"
0\
0]
0^
1_
#2480000
1"
1\
#2490000
0"
0\
1]
#2500000
1"
1\
#2510000
0"
0\
0]
1^
#2520000
0%
1"
0h
1\
1k
1l
#2530000
0"
0\
1]
#2540000
1"
1\
#2550000
0"
0\
0]
0^
0_
0K"
0J"
0j
0&#
0w"
0p"
1q"
0k
0q"
0$#
0!#
0~"
0}"
0(
1+
1$#
1!#
1~"
1}"
12
11
10
1-
02
01
00
0-
#2560000
1"
1\
#2570000
0"
0\
1]
#2580000
1"
1\
#2590000
0"
0\
0]
1^
#2600000
1"
1\
#2610000
0"
0\
1]
#2620000
1"
1\
#2630000
0"
0\
0]
0^
1_
#2640000
1%
1"
1h
1\
#2650000
0"
0\
1]
#2660000
1"
1\
#2670000
0"
0\
0]
1^
#2680000
1"
1\
#2690000
0"
0\
1]
#2700000
1"
1\
#2710000
0"
0\
0]
0^
0_
1J"
0i
1&#
1%#
1(
0)
#2720000
1"
1\
#2730000
0"
0\
1]
#2740000
1"
1\
#2750000
0"
0\
0]
1^
#2760000
0%
1"
0h
1\
#2770000
0"
0\
1]
#2780000
1"
1\
#2790000
0"
0\
0]
0^
1_
#2800000
1"
1\
#2810000
0"
0\
1]
#2820000
1"
1\
#2830000
0"
0\
0]
1^
#2840000
1"
1\
#2850000
0"
0\
1]
#2860000
1"
1\
#2870000
0"
0\
0]
0^
0_
1K"
0J"
1j
1i
0%#
1]"
1k
0*
1)
1!!
0s
0l
1)!
#2880000
1%
1"
1h
1\
0k
#2890000
0"
0\
1]
#2900000
1"
1\
