simulation/qsim/MI-CircuitosDigitais-Problema-3.msim.vcd
$comment
	File created using the following command:
		vcd file MI-CircuitosDigitais-Problema-3.msim.vcd -direction
$end
$date
	Sun Feb 18 02:31:56 2024
$end
$version
	ModelSim Version 10.5b
$end
$timescale
	1ps
$end

$scope module pbl_vlg_vec_tst $end
$var reg 1 ! ch $end
$var reg 1 " clock_50mhz $end
$var reg 1 # cq $end
$var reg 1 $ op_c_deboucing $end
$var reg 1 % op_deboucing $end
$var reg 1 & pg $end
$var reg 1 ' start_stop $end
$var wire 1 ( Nac_7segmentos [3] $end
$var wire 1 ) Nac_7segmentos [2] $end
$var wire 1 * Nac_7segmentos [1] $end
$var wire 1 + Nac_7segmentos [0] $end
$var wire 1 , Nal $end
$var wire 1 - Nout_7seg [7] $end
$var wire 1 . Nout_7seg [6] $end
$var wire 1 / Nout_7seg [5] $end
$var wire 1 0 Nout_7seg [4] $end
$var wire 1 1 Nout_7seg [3] $end
$var wire 1 2 Nout_7seg [2] $end
$var wire 1 3 Nout_7seg [1] $end
$var wire 1 4 Nout_7seg [0] $end
$var wire 1 5 al $end
$var wire 1 6 ev $end
$var wire 1 7 m $end
$var wire 1 8 mef_estado [1] $end
$var wire 1 9 mef_estado [0] $end
$var wire 1 : test_buffer_principal [4] $end
$var wire 1 ; test_buffer_principal [3] $end
$var wire 1 < test_buffer_principal [2] $end
$var wire 1 = test_buffer_principal [1] $end
$var wire 1 > test_buffer_principal [0] $end
$var wire 1 ? test_buffer_secundario [6] $end
$var wire 1 @ test_buffer_secundario [5] $end
$var wire 1 A test_buffer_secundario [4] $end
$var wire 1 B test_buffer_secundario [3] $end
$var wire 1 C test_buffer_secundario [2] $end
$var wire 1 D test_buffer_secundario [1] $end
$var wire 1 E test_buffer_secundario [0] $end
$var wire 1 F test_buffer_secundario_controle_min_rolhas [4] $end
$var wire 1 G test_buffer_secundario_controle_min_rolhas [3] $end
$var wire 1 H test_buffer_secundario_controle_min_rolhas [2] $end
$var wire 1 I test_buffer_secundario_controle_min_rolhas [1] $end
$var wire 1 J test_buffer_secundario_controle_min_rolhas [0] $end
$var wire 1 K test_buffer_secundario_controle_operador [6] $end
$var wire 1 L test_buffer_secundario_controle_operador [5] $end
$var wire 1 M test_buffer_secundario_controle_operador [4] $end
$var wire 1 N test_buffer_secundario_controle_operador [3] $end
$var wire 1 O test_buffer_secundario_controle_operador [2] $end
$var wire 1 P test_buffer_secundario_controle_operador [1] $end
$var wire 1 Q test_buffer_secundario_controle_operador [0] $end
$var wire 1 R test_conta_duzias $end
$var wire 1 S test_out_4_bits_dezena_duzias [3] $end
$var wire 1 T test_out_4_bits_dezena_duzias [2] $end
$var wire 1 U test_out_4_bits_dezena_duzias [1] $end
$var wire 1 V test_out_4_bits_dezena_duzias [0] $end
$var wire 1 W test_out_4_bits_duzias [3] $end
$var wire 1 X test_out_4_bits_duzias [2] $end
$var wire 1 Y test_out_4_bits_duzias [1] $end
$var wire 1 Z test_out_4_bits_duzias [0] $end
$var wire 1 [ ve $end

$scope module i1 $end
$var wire 1 \ gnd $end
$var wire 1 ] vcc $end
$var wire 1 ^ unknown $end
$var tri1 1 _ devclrn $end
$var tri1 1 ` devpor $end
$var tri1 1 a devoe $end
$var wire 1 b registrador_2|ff_6|q~4_cout $end
$var wire 1 c pg~combout $end
$var wire 1 d clock_50mhz~combout $end
$var wire 1 e divisor_f|ff_1|q~regout $end
$var wire 1 f divisor_f|ff_2|q~regout $end
$var wire 1 g divisor_f|ff_3|q~regout $end
$var wire 1 h start_stop~combout $end
$var wire 1 i ch~combout $end
$var wire 1 j mef_1|jk_1|q~regout $end
$var wire 1 k mef_1|jk_2|q~0_combout $end
$var wire 1 l op_deboucing~combout $end
$var wire 1 m op_c_deboucing~combout $end
$var wire 1 n contador_entrada_rolhas|ff_1|q~regout $end
$var wire 1 o contador_entrada_rolhas|ff_2|q~regout $end
$var wire 1 p contador_entrada_rolhas|ff_3|q~regout $end
$var wire 1 q contador_entrada_rolhas|ff_4|q~regout $end
$var wire 1 r contador_entrada_rolhas|gate_3|S~combout $end
$var wire 1 s contador_entrada_rolhas|ff_5|q~regout $end
$var wire 1 t contador_entrada_rolhas|ff_6|q~regout $end
$var wire 1 u contador_entrada_rolhas|ff_7|q~regout $end
$var wire 1 v registrador_1|ff_1|q~regout $end
$var wire 1 w registrador_1|ff_7|q~regout $end
$var wire 1 x registrador_2|ff_7|q~regout $end
$var wire 1 y contador_3_buffer_secundario_controle_operador|gate_33|comb~0_combout $end
$var wire 1 z contador_3_buffer_secundario_controle_operador|ff_1|q~0_combout $end
$var wire 1 { contador_3_buffer_secundario_controle_operador|ff_1|q_bar~regout $end
$var wire 1 | contador_3_buffer_secundario_controle_operador|ff_2|q_bar~0_combout $end
$var wire 1 } comb_57|somador_subtrator_1|gate_8|WideAnd0 $end
$var wire 1 ~ registrador_1|ff_6|q~regout $end
$var wire 1 !! registrador_2|ff_6|q~4COUT0_9 $end
$var wire 1 "! registrador_2|ff_6|q~4COUT1_10 $end
$var wire 1 #! registrador_2|ff_6|q~regout $end
$var wire 1 $! contador_3_buffer_secundario_controle_operador|gate_32|comb~0_combout $end
$var wire 1 %! contador_3_buffer_secundario_controle_operador|ff_2|q~0_combout $end
$var wire 1 &! contador_3_buffer_secundario_controle_operador|ff_2|q_bar~regout $end
$var wire 1 '! contador_3_buffer_secundario_controle_operador|ff_3|q_bar~0_combout $end
$var wire 1 (! estado_vedacao~combout $end
$var wire 1 )! enable_buffer_secundario~combout $end
$var wire 1 *! contador_1_buffer_secundario|ff_1|q_bar~regout $end
$var wire 1 +! contador_1_buffer_secundario|gate_4|S~combout $end
$var wire 1 ,! contador_1_buffer_secundario|ff_3|q~0_combout $end
$var wire 1 -! contador_1_buffer_secundario|ff_3|q~regout $end
$var wire 1 .! registrador_1|ff_5|q~regout $end
$var wire 1 /! registrador_2|ff_6|q~1 $end
$var wire 1 0! registrador_2|ff_6|q~1COUT1_11 $end
$var wire 1 1! registrador_2|ff_5|q~regout $end
$var wire 1 2! contador_3_buffer_secundario_controle_operador|gate_31|comb~0_combout $end
$var wire 1 3! contador_3_buffer_secundario_controle_operador|ff_3|q~0_combout $end
$var wire 1 4! contador_3_buffer_secundario_controle_operador|ff_3|q_bar~regout $end
$var wire 1 5! contador_3_buffer_secundario_controle_operador|ff_4|q_bar~0_combout $end
$var wire 1 6! registrador_2|ff_5|q~1 $end
$var wire 1 7! registrador_2|ff_5|q~1COUT1_3 $end
$var wire 1 8! registrador_2|ff_4|q~regout $end
$var wire 1 9! contador_3_buffer_secundario_controle_operador|gate_30|comb~0_combout $end
$var wire 1 :! contador_3_buffer_secundario_controle_operador|ff_4|q~0_combout $end
$var wire 1 ;! contador_3_buffer_secundario_controle_operador|ff_4|q_bar~regout $end
$var wire 1 <! contador_1_buffer_secundario|ff_4|q_bar~regout $end
$var wire 1 =! contador_1_buffer_secundario|gate_10|S~0_combout $end
$var wire 1 >! contador_1_buffer_secundario|ff_5|q~0_combout $end
$var wire 1 ?! contador_1_buffer_secundario|ff_5|q~regout $end
$var wire 1 @! registrador_1|ff_3|q~regout $end
$var wire 1 A! registrador_2|ff_3|q~regout $end
$var wire 1 B! contador_3_buffer_secundario_controle_operador|gate_29|comb~0_combout $end
$var wire 1 C! contador_3_buffer_secundario_controle_operador|ff_5|q~0_combout $end
$var wire 1 D! contador_3_buffer_secundario_controle_operador|ff_5|q_bar~regout $end
$var wire 1 E! contador_3_buffer_secundario_controle_operador|ff_6|q_bar~2_combout $end
$var wire 1 F! contador_1_buffer_secundario|ff_5|q_bar~regout $end
$var wire 1 G! contador_1_buffer_secundario|gate_17|S~0_combout $end
$var wire 1 H! contador_1_buffer_secundario|ff_6|q~5_combout $end
$var wire 1 I! contador_1_buffer_secundario|ff_6|q~regout $end
$var wire 1 J! registrador_1|ff_2|q~regout $end
$var wire 1 K! registrador_2|ff_3|q~1 $end
$var wire 1 L! registrador_2|ff_3|q~1COUT1_3 $end
$var wire 1 M! registrador_2|ff_2|q~regout $end
$var wire 1 N! contador_3_buffer_secundario_controle_operador|gate_28|comb~0_combout $end
$var wire 1 O! contador_3_buffer_secundario_controle_operador|ff_6|q~0_combout $end
$var wire 1 P! contador_3_buffer_secundario_controle_operador|ff_6|q_bar~regout $end
$var wire 1 Q! WideAnd2~0_combout $end
$var wire 1 R! contador_3_buffer_secundario_controle_operador|gate_27|comb~0_combout $end
$var wire 1 S! comb_89|gate_7|S~1_combout $end
$var wire 1 T! contador_3_buffer_secundario_controle_operador|ff_7|q~regout $end
$var wire 1 U! WideAnd2~1_combout $end
$var wire 1 V! WideAnd2~combout $end
$var wire 1 W! comb_89|jk_2|q~regout $end
$var wire 1 X! contador_1_buffer_secundario|ff_1|q~regout $end
$var wire 1 Y! contador_1_buffer_secundario|gate_3|S~0_combout $end
$var wire 1 Z! contador_1_buffer_secundario|ff_2|q~regout $end
$var wire 1 [! contador_1_buffer_secundario|ff_2|q_bar~regout $end
$var wire 1 \! contador_1_buffer_secundario|ff_3|q_bar~regout $end
$var wire 1 ]! contador_1_buffer_secundario|gate_8|S~combout $end
$var wire 1 ^! contador_1_buffer_secundario|ff_4|q~0_combout $end
$var wire 1 _! contador_1_buffer_secundario|ff_4|q~regout $end
$var wire 1 `! registrador_1|ff_4|q~regout $end
$var wire 1 a! registrador_2|ff_4|q~1 $end
$var wire 1 b! registrador_2|ff_2|q~1 $end
$var wire 1 c! registrador_2|ff_2|q~1COUT1_3 $end
$var wire 1 d! registrador_2|ff_1|q~regout $end
$var wire 1 e! load_aux[1]~0_combout $end
$var wire 1 f! load_aux[1]~1_combout $end
$var wire 1 g! pulsador_2|ff_1|q~regout $end
$var wire 1 h! pulsador_2|ff_1|nq~regout $end
$var wire 1 i! pulsador_2|Pulse~combout $end
$var wire 1 j! comb_89|gate_7|S~2_combout $end
$var wire 1 k! ff_2|q~regout $end
$var wire 1 l! comb_89|jk_1|q~regout $end
$var wire 1 m! comb_89|gate_7|S~0_combout $end
$var wire 1 n! contador_1_buffer_secundario|ff_6|q_bar~regout $end
$var wire 1 o! contador_1_buffer_secundario|gate_15|S~0_combout $end
$var wire 1 p! contador_1_buffer_secundario|gate_19|S~combout $end
$var wire 1 q! contador_1_buffer_secundario|ff_7|q~regout $end
$var wire 1 r! contador_4_buffer_principal|ff_1|q_bar~regout $end
$var wire 1 s! contador_4_buffer_principal|ff_2|q~0_combout $end
$var wire 1 t! contador_4_buffer_principal|ff_2|q_bar~regout $end
$var wire 1 u! contador_4_buffer_principal|ff_3|q~0_combout $end
$var wire 1 v! contador_4_buffer_principal|ff_3|q~1_combout $end
$var wire 1 w! contador_4_buffer_principal|ff_3|q~regout $end
$var wire 1 x! contador_4_buffer_principal|ff_3|q_bar~regout $end
$var wire 1 y! contador_4_buffer_principal|ff_4|q~1_combout $end
$var wire 1 z! contador_4_buffer_principal|ff_4|q~0_combout $end
$var wire 1 {! contador_4_buffer_principal|ff_4|q~2_combout $end
$var wire 1 |! contador_4_buffer_principal|ff_4|q~regout $end
$var wire 1 }! contador_4_buffer_principal|ff_4|q_bar~regout $end
$var wire 1 ~! contador_4_buffer_principal|ff_5|q~0_combout $end
$var wire 1 !" contador_4_buffer_principal|ff_5|q~regout $end
$var wire 1 "" WideAnd0~1_combout $end
$var wire 1 #" WideAnd0~2_combout $end
$var wire 1 $" WideAnd0~3 $end
$var wire 1 %" pulsador_1|ff_1|q~regout $end
$var wire 1 &" pulsador_1|ff_1|nq~regout $end
$var wire 1 '" pulsador_1|Pulse~combout $end
$var wire 1 (" comb_88|gate_7|S~1_combout $end
$var wire 1 )" ff_1|q~regout $end
$var wire 1 *" comb_88|jk_2|q~regout $end
$var wire 1 +" WideAnd3~combout $end
$var wire 1 ," comb_88|gate_7|S~0_combout $end
$var wire 1 -" contador_2_buffer_secundario_controle_rolhas|ff_1|q_bar~regout $end
$var wire 1 ." contador_2_buffer_secundario_controle_rolhas|ff_2|q_bar~regout $end
$var wire 1 /" contador_2_buffer_secundario_controle_rolhas|ff_3|q_bar~0_combout $end
$var wire 1 0" contador_2_buffer_secundario_controle_rolhas|ff_3|q_bar~regout $end
$var wire 1 1" contador_2_buffer_secundario_controle_rolhas|ff_2|q_bar~1_combout $end
$var wire 1 2" contador_2_buffer_secundario_controle_rolhas|ff_4|q_bar~regout $end
$var wire 1 3" WideAnd1~0_combout $end
$var wire 1 4" contador_2_buffer_secundario_controle_rolhas|ff_5|q~regout $end
$var wire 1 5" WideAnd1~combout $end
$var wire 1 6" comb_88|jk_1|q~regout $end
$var wire 1 7" enable_buffer_principal~combout $end
$var wire 1 8" contador_4_buffer_principal|ff_1|q~regout $end
$var wire 1 9" contador_4_buffer_principal|ff_2|q~1_combout $end
$var wire 1 :" contador_4_buffer_principal|ff_2|q~regout $end
$var wire 1 ;" WideAnd0~0_combout $end
$var wire 1 <" m_aus_rolhas|gate_1|WideOr0~combout $end
$var wire 1 =" cq~combout $end
$var wire 1 >" gate_1|S~combout $end
$var wire 1 ?" contador_duzias|ff_1|q~regout $end
$var wire 1 @" contador_duzias|ff_2|q~regout $end
$var wire 1 A" contador_duzias|ff_3|q~regout $end
$var wire 1 B" contador_duzias|ff_4|q~regout $end
$var wire 1 C" reset_1|gate_1|S~combout $end
$var wire 1 D" mef_1|jk_2|q~1_combout $end
$var wire 1 E" mef_1|jk_2|q~regout $end
$var wire 1 F" mef_1|gate_11|WideAnd0~0_combout $end
$var wire 1 G" mef_1|gate_10|WideAnd0~combout $end
$var wire 1 H" mef_1|gate_9|WideAnd0~combout $end
$var wire 1 I" mef_1|gate_8|S~0_combout $end
$var wire 1 J" mef_1|gate_8|S~1_combout $end
$var wire 1 K" contador_display|ff_1|q~regout $end
$var wire 1 L" contador_display|ff_2|q~regout $end
$var wire 1 M" contador_dezenas_duzias|ff_3|q~regout $end
$var wire 1 N" contador_dezenas_duzias|ff_4|q~regout $end
$var wire 1 O" gate_2|S~combout $end
$var wire 1 P" contador_dezenas_duzias|ff_1|q~regout $end
$var wire 1 Q" contador_dezenas_duzias|ff_2|q~regout $end
$var wire 1 R" bcd_1|gate_23|WideOr0~3_combout $end
$var wire 1 S" bcd_1|gate_23|WideOr0~6_combout $end
$var wire 1 T" bcd_1|gate_19|WideOr0~4_combout $end
$var wire 1 U" bcd_1|gate_19|WideOr0~3_combout $end
$var wire 1 V" bcd_1|gate_19|WideOr0~7_combout $end
$var wire 1 W" mux_38|gate_2|WideAnd0~0_combout $end
$var wire 1 X" mux_37|gate_2|WideAnd0~0_combout $end
$var wire 1 Y" mux_39|gate_5|WideOr0~0_combout $end
$var wire 1 Z" bcd_1|gate_15|S~0_combout $end
$var wire 1 [" bcd_1|gate_12|WideOr0~4_combout $end
$var wire 1 \" bcd_1|gate_12|WideOr0~3_combout $end
$var wire 1 ]" bcd_1|gate_12|WideOr0~7_combout $end
$var wire 1 ^" bcd_1|gate_7|WideOr0~combout $end
$var wire 1 _" bcd_1|gate_6|WideOr0~3_combout $end
$var wire 1 `" bcd_1|gate_6|WideOr0~combout $end
$var wire 1 a" bcd_1|gate_3|WideOr0~7_combout $end
$var wire 1 b" bcd_1|gate_3|WideOr0~8_combout $end
$var wire 1 c" demux_1|gate_3|WideAnd0~0_combout $end
$var wire 1 d" demux_1|gate_3|WideAnd0~1_combout $end
$var wire 1 e" mux_36|gate_2|WideAnd0~0_combout $end
$var wire 1 f" demux_1|gate_1|WideAnd0~combout $end
$upscope $end
$upscope $end
$enddefinitions $end
#0
$dumpvars
1!
1"
1#
1$
1%
1&
1'
1+
1*
1)
0(
1,
14
13
02
01
00
0/
0.
0-
05
16
07
09
08
0>
0=
0<
0;
0:
0E
0D
0C
0B
0A
0@
0?
0J
0I
0H
0G
0F
0Q
0P
0O
0N
0M
0L
0K
0R
0V
0U
0T
0S
0Z
0Y
0X
0W
0[
0\
1]
x^
1_
1`
1a
0b
1c
1d
0e
0f
0g
1h
1i
0j
0k
1l
1m
0n
0o
0p
0q
0r
0s
0t
0u
0v
0w
0x
0y
0z
0{
1|
0}
0~
0!!
0"!
0#!
0$!
0%!
0&!
1'!
0(!
0)!
0*!
0+!
0,!
0-!
0.!
1/!
10!
01!
02!
03!
04!
05!
06!
07!
08!
09!
0:!
0;!
0<!
0=!
0>!
0?!
0@!
0A!
0B!
0C!
0D!
1E!
0F!
0G!
0H!
0I!
0J!
0K!
0L!
0M!
0N!
0O!
0P!
1Q!
0R!
0S!
0T!
1U!
0V!
0W!
0X!
1Y!
0Z!
0[!
0\!
1]!
0^!
0_!
0`!
1a!
1b!
1c!
0d!
0e!
1f!
0g!
0h!
0i!
0j!
0k!
0l!
0m!
0n!
1o!
1p!
0q!
0r!
0s!
0t!
0u!
0v!
0w!
0x!
0y!
0z!
0{!
0|!
0}!
0~!
0!"
1""
0#"
0$"
0%"
0&"
0'"
0("
0)"
0*"
0+"
0,"
0-"
0."
1/"
00"
01"
02"
13"
04"
05"
06"
07"
08"
09"
0:"
1;"
0<"
1="
0>"
0?"
0@"
0A"
0B"
0C"
1D"
0E"
0F"
0G"
0H"
1I"
1J"
0K"
0L"
0M"
0N"
0O"
0P"
0Q"
0R"
0S"
1T"
1U"
1V"
0W"
0X"
0Y"
1Z"
1["
1\"
1]"
1^"
1_"
1`"
1a"
1b"
0c"
0d"
0e"
0f"
$end
#10000
0"
0$
0d
0m
1e
#20000
1"
1$
1d
1m
1n
#30000
0"
0$
0d
0m
0e
1f
#40000
1"
1$
1d
1m
1o
0n
#50000
0"
0$
0d
0m
1e
#60000
1"
1$
1d
1m
1n
#70000
0"
0$
0d
0m
0e
0f
1g
1&"
1h!
#80000
1"
1$
1d
1m
1p
0o
0n
#90000
0"
0$
0d
0m
1e
#100000
1"
1$
1d
1m
1n
#110000
0"
0$
0d
0m
0e
1f
#120000
1"
1$
1d
1m
1o
0n
#130000
0"
0$
0d
0m
1e
#140000
1"
1$
1d
1m
1n
#150000
0"
0$
0d
0m
0e
0f
0g
1K"
1E"
1f"
1e"
0["
0T"
0I"
19
0J"
1(
0)
06
#160000
1"
1$
1d
1m
1q
0p
0o
0n
#170000
0"
0$
0d
0m
1e
#180000
1"
1$
1d
1m
1n
#190000
0"
0$
0d
0m
0e
1f
#200000
1"
1$
1d
1m
1o
0n
#210000
0"
0$
0d
0m
1e
#220000
1"
1$
1d
1m
1n
#230000
0"
0$
0d
0m
0e
0f
1g
#240000
1"
1$
1d
1m
1p
0o
0n
#250000
0"
0$
0d
0m
1e
#260000
1"
1$
1d
1m
1n
#270000
0"
0$
0d
0m
0e
1f
#280000
1"
1$
1d
1m
1o
0n
#290000
0"
0$
0d
0m
1e
#300000
1"
1$
1d
1m
1n
1r
#310000
0"
0$
0d
0m
0e
0f
0g
1L"
0K"
0E"
1j
0e"
1d"
1["
1T"
1I"
1H"
0D"
09
18
15
0,
0*
1)
#320000
1"
1$
1d
1m
1s
0q
0p
0o
0n
1K!
0r
#330000
0"
0$
0d
0m
1e
#340000
1"
1$
1d
1m
1n
#350000
0"
0$
0d
0m
0e
1f
#360000
1"
1$
1d
1m
1o
0n
#370000
0"
0$
0d
0m
1e
#380000
1"
1$
1d
1m
1n
#390000
0"
0$
0d
0m
0e
0f
1g
#400000
1"
1d
#410000
0"
0d
1e
#420000
1"
1d
#430000
0"
0d
0e
1f
#440000
1"
1d
#450000
0"
0d
1e
#460000
1"
1d
#470000
0"
0d
0e
0f
0g
1K"
0d"
1c"
0["
0T"
0+
1*
#480000
1$
1"
1m
1d
1p
0o
0n
#490000
0"
0d
1e
#500000
1"
1d
#510000
0"
0d
0e
1f
#520000
1"
1d
#530000
0"
0d
1e
#540000
1"
1d
#550000
0"
0d
0e
0f
1g
#560000
0$
1"
0m
1d
#570000
0"
0d
1e
#580000
1"
1d
#590000
0"
0d
0e
1f
#600000
1"
1d
#610000
0"
0d
1e
#620000
1"
1d
#630000
0"
0d
0e
0f
0g
0L"
0K"
0f"
0c"
1["
1T"
0(
1+
#640000
0%
1"
0l
1d
0f!
1i!
1k!
1A!
11!
0]!
0Y!
1,!
1e!
0o!
1^!
1H!
1>!
0p!
#650000
0"
0d
1e
#660000
1"
1d
#670000
0"
0d
0e
1f
#680000
1"
1d
#690000
0"
0d
1e
#700000
1"
1d
#710000
0"
0d
0e
0f
1g
1g!
#720000
1%
1"
1l
1d
1f!
0i!
#730000
0"
0d
1e
#740000
1"
1d
#750000
0"
0d
0e
1f
#760000
1"
1d
#770000
0"
0d
1e
#780000
1"
1d
#790000
0"
0d
0e
0f
0g
1K"
1W!
1f"
1e"
0["
0T"
1S!
1R!
1N!
1C!
19!
13!
1$!
1y
1(
0)
1D!
14!
0Q!
0U!
0'!
1M
1O
#800000
1"
1d
#810000
0"
0d
1e
#820000
1"
1d
#830000
0"
0d
0e
1f
#840000
1"
1d
#850000
0"
0d
1e
#860000
1"
1d
#870000
0"
0d
0e
0f
1g
0h!
0g!
#880000
1"
1d
#890000
0"
0d
1e
#900000
1"
1d
#910000
0"
0d
0e
1f
#920000
1"
1d
#930000
0"
0d
1e
#940000
1"
1d
#950000
0"
0d
0e
0f
0g
1L"
0K"
1l!
0W!
0e"
1d"
1["
1T"
1m!
0S!
0R!
0N!
0C!
09!
03!
0$!
0|
0y
1)!
1'!
0*
1)
#960000
1"
1d
#970000
0"
0d
1e
#980000
1"
1d
#990000
0"
0d
0e
1f
#1000000
1"
1d
#1010000
0"
0d
1e
#1020000
1"
1d
#1030000
0"
0d
0e
0f
1g
1h!
#1040000
1"
1d
#1050000
0"
0d
1e
#1060000
1"
1d
#1070000
0"
0d
0e
1f
#1080000
1"
1d
#1090000
0"
0d
1e
#1100000
1"
1d
#1110000
0"
0d
0e
0f
0g
1K"
1X!
04!
1*!
1&!
1{
0d"
1c"
0["
0T"
1Y!
1U!
1E
0O
1P
1Q
0+
1*
#1120000
1"
1d
#1130000
0"
0d
1e
#1140000
1"
1d
#1150000
0"
0d
0e
1f
#1160000
1"
1d
#1170000
0"
0d
1e
#1180000
1"
1d
#1190000
0"
0d
0e
0f
1g
#1200000
1"
1d
#1210000
0"
0d
1e
#1220000
1"
1d
#1230000
0"
0d
0e
1f
#1240000
1"
1d
#1250000
0"
0d
1e
#1260000
1"
1d
#1270000
0"
0d
0e
0f
0g
0L"
0K"
1[!
1Z!
0X!
0*!
0{
0f"
0c"
1["
1T"
0Y!
1|
1D
0E
0Q
0(
1+
#1280000
1"
1d
#1290000
0"
0d
1e
#1300000
1"
1d
#1310000
0"
0d
0e
1f
#1320000
1"
1d
#1330000
0"
0d
1e
#1340000
1"
1d
#1350000
0"
0d
0e
0f
1g
#1360000
1"
1d
#1370000
0"
0d
1e
#1380000
1"
1d
#1390000
0"
0d
0e
1f
#1400000
1"
1d
#1410000
0"
0d
1e
#1420000
1"
1d
#1430000
0"
0d
0e
0f
0g
1K"
1X!
1*!
0&!
1{
1f"
1e"
0["
0T"
1Y!
1+!
1E
0P
1Q
0,!
1(
0)
#1440000
1"
1d
#1450000
0"
0d
1e
#1460000
1"
1d
#1470000
0"
0d
0e
1f
#1480000
1"
1d
#1490000
0"
0d
1e
#1500000
1"
1d
#1510000
0"
0d
0e
0f
1g
#1520000
1"
1d
#1530000
0"
0d
1e
#1540000
1"
1d
#1550000
0"
0d
0e
1f
#1560000
1"
1d
#1570000
0"
0d
1e
#1580000
1"
1d
#1590000
0"
0d
0e
0f
0g
1L"
0K"
1\!
0[!
0Z!
0X!
1-!
0*!
0{
0e"
1d"
1["
1T"
0+!
0Y!
15!
0'!
0|
0D
0E
1C
0Q
1,!
0*
1)
#1600000
1"
1d
#1610000
0"
0d
1e
#1620000
1"
1d
#1630000
0"
0d
0e
1f
#1640000
1"
1d
#1650000
0"
0d
1e
#1660000
1"
1d
#1670000
0"
0d
0e
0f
1g
#1680000
1"
1d
#1690000
0"
0d
1e
#1700000
1"
1d
#1710000
0"
0d
0e
1f
#1720000
1"
1d
#1730000
0"
0d
1e
#1740000
1"
1d
#1750000
0"
0d
0e
0f
0g
1K"
1X!
0D!
1;!
14!
1*!
1&!
1{
0d"
1c"
0["
0T"
1Y!
0U!
05!
1E
0M
1N
1O
1P
1Q
0+
1*
#1760000
1"
1d
#1770000
0"
0d
1e
#1780000
1"
1d
#1790000
0"
0d
0e
1f
#1800000
1"
1d
#1810000
0"
0d
1e
#1820000
1"
1d
#1830000
0"
0d
0e
0f
1g
#1840000
1"
1d
#1850000
0"
0d
1e
#1860000
1"
1d
#1870000
0"
0d
0e
1f
#1880000
1"
1d
#1890000
0"
0d
1e
#1900000
1"
1d
#1910000
0"
0d
0e
0f
0g
0L"
0K"
1[!
1Z!
0X!
0*!
0{
0f"
0c"
1["
1T"
0Y!
1|
1D
0E
0Q
0(
1+
#1920000
1"
1d
#1930000
0"
0d
1e
#1940000
1"
1d
#1950000
0"
0d
0e
1f
#1960000
1"
1d
#1970000
0"
0d
1e
#1980000
1"
1d
#1990000
0"
0d
0e
0f
1g
#2000000
1"
1d
#2010000
0"
0d
1e
#2020000
1"
1d
#2030000
0"
0d
0e
1f
#2040000
1"
1d
#2050000
0"
0d
1e
#2060000
1"
1d
#2070000
0"
0d
0e
0f
0g
1K"
1X!
1*!
0&!
1{
1f"
1e"
0["
0T"
1Y!
1=!
1+!
1E
0P
1Q
0^!
0,!
1(
0)
#2080000
1"
1d
#2090000
0"
0d
1e
#2100000
1"
1d
#2110000
0"
0d
0e
1f
#2120000
1"
1d
#2130000
0"
0d
1e
#2140000
1"
1d
#2150000
0"
0d
0e
0f
1g
#2160000
1"
1d
#2170000
0"
0d
1e
#2180000
1"
1d
#2190000
0"
0d
0e
1f
#2200000
1"
1d
#2210000
0"
0d
1e
#2220000
1"
1d
#2230000
0"
0d
0e
0f
0g
1L"
0K"
1_!
0\!
0[!
0Z!
0X!
1<!
0-!
0*!
0{
0e"
1d"
1["
1T"
0>!
0=!
0+!
0Y!
1'!
0|
1B
0D
0E
0C
0Q
1^!
1>!
1,!
0*
1)
#2240000
1"
1d
#2250000
0"
0d
1e
#2260000
1"
1d
#2270000
0"
0d
0e
1f
#2280000
1"
1d
#2290000
0"
0d
1e
#2300000
1"
1d
#2310000
0"
0d
0e
0f
1g
#2320000
1"
1d
#2330000
0"
0d
1e
#2340000
1"
1d
#2350000
0"
0d
0e
1f
#2360000
1"
1d
#2370000
0"
0d
1e
#2380000
1"
1d
#2390000
0"
0d
0e
0f
0g
1K"
1X!
04!
1*!
1&!
1{
0d"
1c"
0["
0T"
1Y!
1U!
1E
0O
1P
1Q
0+
1*
#2400000
1"
1d
#2410000
0"
0d
1e
#2420000
1"
1d
#2430000
0"
0d
0e
1f
#2440000
1"
1d
#2450000
0"
0d
1e
#2460000
1"
1d
#2470000
0"
0d
0e
0f
1g
#2480000
1"
1d
#2490000
0"
0d
1e
#2500000
1"
1d
#2510000
0"
0d
0e
1f
#2520000
1"
1d
#2530000
0"
0d
1e
#2540000
1"
1d
#2550000
0"
0d
0e
0f
0g
0L"
0K"
1[!
1Z!
0X!
0*!
0{
0f"
0c"
1["
1T"
0Y!
1|
1D
0E
0Q
0(
1+
#2560000
1"
1d
#2570000
0"
0d
1e
#2580000
1"
1d
#2590000
0"
0d
0e
1f
#2600000
1"
1d
#2610000
0"
0d
1e
#2620000
1"
1d
#2630000
0"
0d
0e
0f
1g
#2640000
1"
1d
#2650000
0"
0d
1e
#2660000
1"
1d
#2670000
0"
0d
0e
1f
#2680000
1"
1d
#2690000
0"
0d
1e
#2700000
1"
1d
#2710000
0"
0d
0e
0f
0g
1K"
1X!
1*!
0&!
1{
1f"
1e"
0["
0T"
1Y!
1+!
1E
0P
1Q
0,!
1(
0)
#2720000
1"
1d
#2730000
0"
0d
1e
#2740000
1"
1d
#2750000
0"
0d
0e
1f
#2760000
1"
1d
#2770000
0"
0d
1e
#2780000
1"
1d
#2790000
0"
0d
0e
0f
1g
#2800000
1"
1d
#2810000
0"
0d
1e
#2820000
1"
1d
#2830000
0"
0d
0e
1f
#2840000
1"
1d
#2850000
0"
0d
1e
#2860000
1"
1d
#2870000
0"
0d
0e
0f
0g
1L"
0K"
1\!
0[!
0Z!
0X!
1-!
0*!
0{
0e"
1d"
1["
1T"
0+!
0Y!
15!
0'!
0|
0D
0E
1C
0Q
1,!
0*
1)
#2880000
1"
1d
#2890000
0"
0d
1e
#2900000
1"
1d
#2910000
0"
0d
0e
1f
#2920000
1"
1d
#2930000
0"
0d
1e
#2940000
1"
1d
#2950000
0"
0d
0e
0f
1g
#2960000
1"
1d
#2970000
0"
0d
1e
#2980000
1"
1d
#2990000
0"
0d
0e
1f
#3000000
1"
1d
#3010000
0"
0d
1e
#3020000
1"
1d
#3030000
0"
0d
0e
0f
0g
1K"
1X!
0;!
14!
1*!
1&!
1{
0d"
1c"
0["
0T"
1Y!
1Q!
0E!
0U!
05!
1E
0N
1O
1P
1Q
1E!
0+
1*
#3040000
1"
1d
#3050000
0"
0d
1e
#3060000
1"
1d
#3070000
0"
0d
0e
1f
#3080000
1"
1d
#3090000
0"
0d
1e
#3100000
1"
1d
#3110000
0"
0d
0e
0f
1g
#3120000
1"
1d
#3130000
0"
0d
1e
#3140000
1"
1d
#3150000
0"
0d
0e
1f
#3160000
1"
1d
#3170000
0"
0d
1e
#3180000
1"
1d
#3190000
0"
0d
0e
0f
0g
0L"
0K"
1[!
1Z!
0X!
0*!
0{
0f"
0c"
1["
1T"
0Y!
1|
1D
0E
0Q
0(
1+
#3200000
1"
1d
#3210000
0"
0d
1e
#3220000
1"
1d
#3230000
0"
0d
0e
1f
#3240000
1"
1d
#3250000
0"
0d
1e
#3260000
1"
1d
#3270000
0"
0d
0e
0f
1g
#3280000
1"
1d
#3290000
0"
0d
1e
