simulation/qsim/MI-CircuitosDigitais-Problema-3.msim.vcd
$comment
	File created using the following command:
		vcd file MI-CircuitosDigitais-Problema-3.msim.vcd -direction
$end
$date
	Tue Feb 20 21:00:54 2024
$end
$version
	ModelSim Version 10.5b
$end
$timescale
	1ps
$end

$scope module pbl_vlg_vec_tst $end
$var reg 1 ! ch $end
$var reg 1 " clock_50mhz $end
$var reg 1 # cq $end
$var reg 1 $ op $end
$var reg 1 % op_c $end
$var reg 1 & op_clr $end
$var reg 1 ' pg $end
$var reg 1 ( start_stop $end
$var wire 1 ) Nac_7segmentos [3] $end
$var wire 1 * Nac_7segmentos [2] $end
$var wire 1 + Nac_7segmentos [1] $end
$var wire 1 , Nac_7segmentos [0] $end
$var wire 1 - Nal $end
$var wire 1 . Nout_7seg [7] $end
$var wire 1 / Nout_7seg [6] $end
$var wire 1 0 Nout_7seg [5] $end
$var wire 1 1 Nout_7seg [4] $end
$var wire 1 2 Nout_7seg [3] $end
$var wire 1 3 Nout_7seg [2] $end
$var wire 1 4 Nout_7seg [1] $end
$var wire 1 5 Nout_7seg [0] $end
$var wire 1 6 al $end
$var wire 1 7 ev $end
$var wire 1 8 m $end
$var wire 1 9 mef_estado [1] $end
$var wire 1 : mef_estado [0] $end
$var wire 1 ; test_buffer_principal [4] $end
$var wire 1 < test_buffer_principal [3] $end
$var wire 1 = test_buffer_principal [2] $end
$var wire 1 > test_buffer_principal [1] $end
$var wire 1 ? test_buffer_principal [0] $end
$var wire 1 @ test_buffer_secundario [6] $end
$var wire 1 A test_buffer_secundario [5] $end
$var wire 1 B test_buffer_secundario [4] $end
$var wire 1 C test_buffer_secundario [3] $end
$var wire 1 D test_buffer_secundario [2] $end
$var wire 1 E test_buffer_secundario [1] $end
$var wire 1 F test_buffer_secundario [0] $end
$var wire 1 G test_buffer_secundario_controle_min_rolhas [4] $end
$var wire 1 H test_buffer_secundario_controle_min_rolhas [3] $end
$var wire 1 I test_buffer_secundario_controle_min_rolhas [2] $end
$var wire 1 J test_buffer_secundario_controle_min_rolhas [1] $end
$var wire 1 K test_buffer_secundario_controle_min_rolhas [0] $end
$var wire 1 L test_buffer_secundario_controle_operador [6] $end
$var wire 1 M test_buffer_secundario_controle_operador [5] $end
$var wire 1 N test_buffer_secundario_controle_operador [4] $end
$var wire 1 O test_buffer_secundario_controle_operador [3] $end
$var wire 1 P test_buffer_secundario_controle_operador [2] $end
$var wire 1 Q test_buffer_secundario_controle_operador [1] $end
$var wire 1 R test_buffer_secundario_controle_operador [0] $end
$var wire 1 S test_clk_div $end
$var wire 1 T test_op_c_deboucing $end
$var wire 1 U test_op_clr_deboucing $end
$var wire 1 V test_op_deboucing $end
$var wire 1 W ve $end

$scope module i1 $end
$var wire 1 X gnd $end
$var wire 1 Y vcc $end
$var wire 1 Z unknown $end
$var tri1 1 [ devclrn $end
$var tri1 1 \ devpor $end
$var tri1 1 ] devoe $end
$var wire 1 ^ registrador_2|ff_1|q~regout $end
$var wire 1 _ somador_1|somador_subtrator_2|gate_5|WideOr0~30 $end
$var wire 1 ` cq~combout $end
$var wire 1 a clock_50mhz~combout $end
$var wire 1 b divisor_f|ff_1|q~regout $end
$var wire 1 c divisor_f|ff_2|q~regout $end
$var wire 1 d divisor_f|ff_3|q~regout $end
$var wire 1 e ch~combout $end
$var wire 1 f start_stop~combout $end
$var wire 1 g mef_1|jk_2|q~0_combout $end
$var wire 1 h pg~combout $end
$var wire 1 i estado_vedacao~combout $end
$var wire 1 j op_c~combout $end
$var wire 1 k pulsador_3|ff_1|q~regout $end
$var wire 1 l pulsador_3|ff_2|q~regout $end
$var wire 1 m pulsador_3|ff_2|nq~regout $end
$var wire 1 n pulsador_3|Pulse~combout $end
$var wire 1 o op_clr~combout $end
$var wire 1 p pulsador_5|ff_1|q~regout $end
$var wire 1 q pulsador_5|ff_2|q~regout $end
$var wire 1 r pulsador_5|ff_2|nq~regout $end
$var wire 1 s pulsador_5|Pulse~combout $end
$var wire 1 t contador_entrada_rolhas|ff_1|q~regout $end
$var wire 1 u contador_entrada_rolhas|ff_2|q~regout $end
$var wire 1 v contador_entrada_rolhas|ff_3|q~regout $end
$var wire 1 w contador_entrada_rolhas|ff_4|q~regout $end
$var wire 1 x contador_entrada_rolhas|gate_3|S~combout $end
$var wire 1 y contador_entrada_rolhas|ff_5|q~regout $end
$var wire 1 z contador_entrada_rolhas|ff_6|q~regout $end
$var wire 1 { contador_entrada_rolhas|ff_7|q~regout $end
$var wire 1 | contador_3_buffer_secundario_controle_operador|ff_1|q_bar~0_combout $end
$var wire 1 } contador_1_buffer_secundario|ff_1|q~regout $end
$var wire 1 ~ registrador_1|ff_7|q~regout $end
$var wire 1 !! registrador_2|ff_7|q~regout $end
$var wire 1 "! contador_3_buffer_secundario_controle_operador|gate_33|comb~0_combout $end
$var wire 1 #! contador_3_buffer_secundario_controle_operador|ff_1|q~0_combout $end
$var wire 1 $! contador_3_buffer_secundario_controle_operador|ff_1|q_bar~regout $end
$var wire 1 %! contador_3_buffer_secundario_controle_operador|ff_2|q_bar~0_combout $end
$var wire 1 &! somador_1|somador_subtrator_1|gate_8|WideAnd0 $end
$var wire 1 '! contador_1_buffer_secundario|ff_1|q_bar~regout $end
$var wire 1 (! contador_1_buffer_secundario|gate_3|S~0_combout $end
$var wire 1 )! contador_1_buffer_secundario|ff_2|q~regout $end
$var wire 1 *! registrador_1|ff_6|q~regout $end
$var wire 1 +! somador_1|somador_subtrator_2|gate_5|WideOr0~32_cout0 $end
$var wire 1 ,! somador_1|somador_subtrator_2|gate_5|WideOr0~32COUT1_36 $end
$var wire 1 -! registrador_2|ff_6|q~regout $end
$var wire 1 .! contador_3_buffer_secundario_controle_operador|gate_32|comb~0_combout $end
$var wire 1 /! contador_3_buffer_secundario_controle_operador|ff_2|q~0_combout $end
$var wire 1 0! contador_3_buffer_secundario_controle_operador|ff_2|q_bar~regout $end
$var wire 1 1! contador_1_buffer_secundario|ff_2|q_bar~regout $end
$var wire 1 2! contador_1_buffer_secundario|gate_4|S~combout $end
$var wire 1 3! contador_1_buffer_secundario|ff_3|q~0_combout $end
$var wire 1 4! contador_1_buffer_secundario|ff_3|q~regout $end
$var wire 1 5! registrador_1|ff_5|q~regout $end
$var wire 1 6! somador_1|somador_subtrator_2|gate_5|WideOr0~2 $end
$var wire 1 7! somador_1|somador_subtrator_2|gate_5|WideOr0~2COUT1_37 $end
$var wire 1 8! somador_1|somador_subtrator_2|gate_5|WideOr0~5_combout $end
$var wire 1 9! registrador_2|ff_5|q~regout $end
$var wire 1 :! contador_3_buffer_secundario_controle_operador|gate_31|comb~0_combout $end
$var wire 1 ;! contador_3_buffer_secundario_controle_operador|ff_3|q~0 $end
$var wire 1 <! contador_3_buffer_secundario_controle_operador|ff_3|q_bar~regout $end
$var wire 1 =! contador_3_buffer_secundario_controle_operador|ff_4|q_bar~0_combout $end
$var wire 1 >! contador_1_buffer_secundario|gate_10|S~0_combout $end
$var wire 1 ?! contador_1_buffer_secundario|ff_3|q_bar~regout $end
$var wire 1 @! contador_1_buffer_secundario|gate_8|S~combout $end
$var wire 1 A! contador_1_buffer_secundario|ff_4|q~regout $end
$var wire 1 B! registrador_1|ff_4|q~regout $end
$var wire 1 C! somador_1|somador_subtrator_2|gate_5|WideOr0~7 $end
$var wire 1 D! somador_1|somador_subtrator_2|gate_5|WideOr0~7COUT1_38 $end
$var wire 1 E! somador_1|somador_subtrator_2|gate_5|WideOr0~10_combout $end
$var wire 1 F! registrador_2|ff_4|q~regout $end
$var wire 1 G! contador_3_buffer_secundario_controle_operador|gate_30|comb~0_combout $end
$var wire 1 H! contador_3_buffer_secundario_controle_operador|ff_4|q~0 $end
$var wire 1 I! contador_3_buffer_secundario_controle_operador|ff_4|q_bar~regout $end
$var wire 1 J! contador_3_buffer_secundario_controle_operador|ff_5|q_bar~0_combout $end
$var wire 1 K! contador_1_buffer_secundario|ff_4|q~2_combout $end
$var wire 1 L! contador_1_buffer_secundario|ff_4|q_bar~regout $end
$var wire 1 M! contador_1_buffer_secundario|ff_5|q~0_combout $end
$var wire 1 N! contador_1_buffer_secundario|ff_5|q~regout $end
$var wire 1 O! registrador_1|ff_3|q~regout $end
$var wire 1 P! somador_1|somador_subtrator_2|gate_5|WideOr0~12 $end
$var wire 1 Q! somador_1|somador_subtrator_2|gate_5|WideOr0~15_combout $end
$var wire 1 R! registrador_2|ff_3|q~regout $end
$var wire 1 S! contador_3_buffer_secundario_controle_operador|gate_29|comb~0_combout $end
$var wire 1 T! contador_3_buffer_secundario_controle_operador|ff_5|q~0 $end
$var wire 1 U! contador_3_buffer_secundario_controle_operador|ff_5|q_bar~regout $end
$var wire 1 V! contador_1_buffer_secundario|ff_5|q_bar~regout $end
$var wire 1 W! contador_1_buffer_secundario|gate_17|S~0_combout $end
$var wire 1 X! contador_1_buffer_secundario|ff_6|q~5_combout $end
$var wire 1 Y! contador_1_buffer_secundario|ff_6|q~regout $end
$var wire 1 Z! registrador_1|ff_2|q~regout $end
$var wire 1 [! somador_1|somador_subtrator_2|gate_5|WideOr0~17 $end
$var wire 1 \! somador_1|somador_subtrator_2|gate_5|WideOr0~17COUT1_39 $end
$var wire 1 ]! registrador_2|ff_2|q~regout $end
$var wire 1 ^! contador_3_buffer_secundario_controle_operador|gate_28|comb~0_combout $end
$var wire 1 _! contador_3_buffer_secundario_controle_operador|ff_6|q~0_combout $end
$var wire 1 `! contador_3_buffer_secundario_controle_operador|ff_6|q_bar~regout $end
$var wire 1 a! contador_3_buffer_secundario_controle_operador|gate_27|comb~0 $end
$var wire 1 b! mef_contador_controle_2|gate_7|S~0_combout $end
$var wire 1 c! contador_3_buffer_secundario_controle_operador|ff_7|q~regout $end
$var wire 1 d! mef_contador_controle_2|jk_2|Mux0~0_combout $end
$var wire 1 e! mef_contador_controle_2|jk_2|Mux0~1_combout $end
$var wire 1 f! mef_contador_controle_2|jk_2|q~regout $end
$var wire 1 g! mef_contador_controle_2|jk_1|q~regout $end
$var wire 1 h! contador_4_buffer_principal|ff_3|q_bar~regout $end
$var wire 1 i! contador_4_buffer_principal|ff_4|q~1_combout $end
$var wire 1 j! contador_4_buffer_principal|ff_4|q~0_combout $end
$var wire 1 k! contador_4_buffer_principal|ff_4|q~2_combout $end
$var wire 1 l! contador_4_buffer_principal|ff_4|q~regout $end
$var wire 1 m! contador_4_buffer_principal|ff_4|q_bar~regout $end
$var wire 1 n! contador_4_buffer_principal|ff_5|q~0_combout $end
$var wire 1 o! contador_4_buffer_principal|ff_5|q~regout $end
$var wire 1 p! WideAnd1~0_combout $end
$var wire 1 q! op~combout $end
$var wire 1 r! pulsador_4|ff_1|q~regout $end
$var wire 1 s! pulsador_4|ff_2|q~regout $end
$var wire 1 t! pulsador_4|ff_2|nq~regout $end
$var wire 1 u! WideAnd1~2_combout $end
$var wire 1 v! mux_3|gate_4|WideAnd0~0_combout $end
$var wire 1 w! WideAnd1~1_combout $end
$var wire 1 x! pulsador_1|ff_1|q~regout $end
$var wire 1 y! WideAnd1~3 $end
$var wire 1 z! pulsador_1|ff_2|q~regout $end
$var wire 1 {! pulsador_1|ff_2|nq~regout $end
$var wire 1 |! pulsador_1|Pulse~combout $end
$var wire 1 }! mef_contador_controle_1|gate_7|S~1_combout $end
$var wire 1 ~! ff_1|q~regout $end
$var wire 1 !" mef_contador_controle_1|jk_1|q~regout $end
$var wire 1 "" mef_contador_controle_1|gate_7|S~0_combout $end
$var wire 1 #" contador_2_buffer_secundario_controle_rolhas|ff_1|q_bar~regout $end
$var wire 1 $" contador_2_buffer_secundario_controle_rolhas|ff_2|q_bar~regout $end
$var wire 1 %" contador_2_buffer_secundario_controle_rolhas|ff_3|q_bar~0_combout $end
$var wire 1 &" contador_2_buffer_secundario_controle_rolhas|ff_3|q_bar~regout $end
$var wire 1 '" contador_2_buffer_secundario_controle_rolhas|ff_3|q_bar~1_combout $end
$var wire 1 (" contador_2_buffer_secundario_controle_rolhas|ff_4|q_bar~regout $end
$var wire 1 )" mef_contador_controle_1|jk_2|Mux0~1_combout $end
$var wire 1 *" contador_2_buffer_secundario_controle_rolhas|ff_5|q~regout $end
$var wire 1 +" mef_contador_controle_1|jk_2|Mux0~0_combout $end
$var wire 1 ," mef_contador_controle_1|jk_2|q~regout $end
$var wire 1 -" WideAnd4~0_combout $end
$var wire 1 ." WideAnd4~combout $end
$var wire 1 /" enable_buffer_secundario~0_combout $end
$var wire 1 0" contador_1_buffer_secundario|ff_6|q_bar~regout $end
$var wire 1 1" contador_1_buffer_secundario|gate_15|S~0_combout $end
$var wire 1 2" contador_1_buffer_secundario|gate_19|S~combout $end
$var wire 1 3" contador_1_buffer_secundario|ff_7|q~regout $end
$var wire 1 4" registrador_1|ff_1|q~regout $end
$var wire 1 5" somador_1|somador_subtrator_2|gate_5|WideOr0~22 $end
$var wire 1 6" somador_1|somador_subtrator_2|gate_5|WideOr0~22COUT1_40 $end
$var wire 1 7" somador_1|somador_subtrator_2|gate_5|WideOr0~25_combout $end
$var wire 1 8" pulsador_4|Pulse~combout $end
$var wire 1 9" somador_1|somador_subtrator_2|gate_5|WideOr0~20 $end
$var wire 1 :" WideAnd0~0_combout $end
$var wire 1 ;" pulsador_2|ff_1|q~regout $end
$var wire 1 <" WideAnd0~1 $end
$var wire 1 =" pulsador_2|ff_2|q~regout $end
$var wire 1 >" pulsador_2|ff_2|nq~regout $end
$var wire 1 ?" pulsador_2|Pulse~combout $end
$var wire 1 @" mef_contador_controle_2|gate_7|S~1_combout $end
$var wire 1 A" ff_2|q~regout $end
$var wire 1 B" enable_buffer_principal~combout $end
$var wire 1 C" contador_4_buffer_principal|ff_1|q~regout $end
$var wire 1 D" contador_4_buffer_principal|ff_1|q_bar~regout $end
$var wire 1 E" contador_4_buffer_principal|ff_2|q~1_combout $end
$var wire 1 F" contador_4_buffer_principal|ff_2|q~regout $end
$var wire 1 G" contador_4_buffer_principal|ff_2|q_bar~regout $end
$var wire 1 H" contador_4_buffer_principal|ff_3|q~0_combout $end
$var wire 1 I" contador_4_buffer_principal|ff_2|q~0_combout $end
$var wire 1 J" contador_4_buffer_principal|ff_3|q~1_combout $end
$var wire 1 K" contador_4_buffer_principal|ff_3|q~regout $end
$var wire 1 L" m_aus_rolhas|gate_1|WideOr0~combout $end
$var wire 1 M" mef_1|jk_2|q~1_combout $end
$var wire 1 N" mef_1|jk_2|q~regout $end
$var wire 1 O" mef_1|jk_1|q~regout $end
$var wire 1 P" gate_1|S~combout $end
$var wire 1 Q" contador_duzias|ff_1|q~regout $end
$var wire 1 R" contador_duzias|ff_2|q~regout $end
$var wire 1 S" contador_duzias|ff_3|q~regout $end
$var wire 1 T" contador_duzias|ff_4|q~regout $end
$var wire 1 U" reset_1|gate_1|S~combout $end
$var wire 1 V" mef_1|gate_11|WideAnd0~0_combout $end
$var wire 1 W" mef_1|gate_10|WideAnd0~combout $end
$var wire 1 X" mef_1|gate_9|WideAnd0~combout $end
$var wire 1 Y" mef_1|gate_8|S~0_combout $end
$var wire 1 Z" mef_1|gate_8|S~1_combout $end
$var wire 1 [" mux_1|gate_4|WideAnd0~8_combout $end
$var wire 1 \" mux_1|gate_4|WideAnd0~6_combout $end
$var wire 1 ]" mux_1|gate_4|WideAnd0~7_combout $end
$var wire 1 ^" mux_1|gate_4|WideAnd0~2_combout $end
$var wire 1 _" mux_1|gate_4|WideAnd0~3_combout $end
$var wire 1 `" mux_1|gate_4|WideAnd0~4_combout $end
$var wire 1 a" mux_1|gate_4|WideAnd0~5_combout $end
$var wire 1 b" contador_display|ff_1|q~regout $end
$var wire 1 c" contador_display|ff_2|q~regout $end
$var wire 1 d" mux_1|gate_5|WideOr0~1_combout $end
$var wire 1 e" demux_1|gate_3|WideAnd0~0_combout $end
$var wire 1 f" mux_1|gate_5|WideOr0~0_combout $end
$var wire 1 g" gate_2|S~combout $end
$var wire 1 h" contador_dezenas_duzias|ff_1|q~regout $end
$var wire 1 i" contador_dezenas_duzias|ff_2|q~regout $end
$var wire 1 j" contador_dezenas_duzias|ff_3|q~regout $end
$var wire 1 k" contador_dezenas_duzias|ff_4|q~regout $end
$var wire 1 l" mux_1|gate_5|WideOr0~2_combout $end
$var wire 1 m" mux_1|gate_5|WideOr0~3_combout $end
$var wire 1 n" mux_3|gate_4|WideAnd0~1_combout $end
$var wire 1 o" mux_4|gate_3|WideAnd0~1_combout $end
$var wire 1 p" mux_4|gate_3|WideAnd0~0_combout $end
$var wire 1 q" mux_4|gate_3|WideAnd0~2_combout $end
$var wire 1 r" mux_4|gate_3|WideAnd0~3_combout $end
$var wire 1 s" mux_4|gate_3|WideAnd0~4_combout $end
$var wire 1 t" mux_4|gate_3|WideAnd0~5_combout $end
$var wire 1 u" codificador_garrafas_2|gate_1|S~0_combout $end
$var wire 1 v" mux_4|gate_5|WideOr0~0_combout $end
$var wire 1 w" mux_4|gate_5|WideOr0~1_combout $end
$var wire 1 x" mux_3|gate_5|WideOr0~1_combout $end
$var wire 1 y" mux_3|gate_4|WideAnd0~2_combout $end
$var wire 1 z" mux_3|gate_4|WideAnd0~3_combout $end
$var wire 1 {" mux_3|gate_4|WideAnd0~4_combout $end
$var wire 1 |" mux_3|gate_4|WideAnd0~5_combout $end
$var wire 1 }" mux_3|gate_4|WideAnd0~6_combout $end
$var wire 1 ~" mux_3|gate_3|WideAnd0~0_combout $end
$var wire 1 !# mux_3|gate_3|WideAnd0~1_combout $end
$var wire 1 "# mux_3|gate_3|WideAnd0~2_combout $end
$var wire 1 ## mux_3|gate_5|WideOr0~0_combout $end
$var wire 1 $# mux_3|gate_5|WideOr0~2_combout $end
$var wire 1 %# mux_2|gate_5|WideOr0~0_combout $end
$var wire 1 &# mux_2|gate_5|WideOr0~1_combout $end
$var wire 1 '# mux_2|gate_4|WideAnd0~1_combout $end
$var wire 1 (# mux_2|gate_4|WideAnd0~0_combout $end
$var wire 1 )# mux_2|gate_4|WideAnd0~2_combout $end
$var wire 1 *# demux_1|gate_3|WideAnd0~1_combout $end
$var wire 1 +# mux_2|gate_4|WideAnd0~4_combout $end
$var wire 1 ,# mux_2|gate_4|WideAnd0~3_combout $end
$var wire 1 -# mux_2|gate_4|WideAnd0~5_combout $end
$var wire 1 .# mux_2|gate_5|WideOr0~2_combout $end
$var wire 1 /# bcd_1|gate_23|WideOr0~combout $end
$var wire 1 0# bcd_1|gate_19|WideOr0~0_combout $end
$var wire 1 1# bcd_1|gate_15|S~0_combout $end
$var wire 1 2# bcd_1|gate_12|WideOr0~0_combout $end
$var wire 1 3# bcd_1|gate_7|WideOr0~combout $end
$var wire 1 4# bcd_1|gate_6|WideOr0~combout $end
$var wire 1 5# bcd_1|gate_3|WideOr0~combout $end
$var wire 1 6# demux_1|gate_3|WideAnd0~2_combout $end
$var wire 1 7# demux_1|gate_1|WideAnd0~combout $end
$upscope $end
$upscope $end
$enddefinitions $end
#0
$dumpvars
1!
1"
1#
1$
1%
1&
1'
1(
1,
1+
1*
0)
1-
15
14
03
02
01
00
0/
0.
06
17
08
0:
09
0?
0>
0=
0<
0;
0F
0E
0D
0C
0B
0A
0@
0K
0J
0I
0H
0G
0R
0Q
0P
0O
0N
0M
0L
0S
0T
0U
0V
0W
0X
1Y
xZ
1[
1\
1]
0^
1_
1`
1a
0b
0c
0d
1e
1f
0g
1h
0i
1j
0k
0l
0m
0n
1o
0p
0q
0r
0s
0t
0u
0v
0w
0x
0y
0z
0{
1|
0}
0~
0!!
0"!
0#!
0$!
0%!
0&!
0'!
1(!
0)!
0*!
0+!
0,!
0-!
0.!
0/!
00!
01!
02!
03!
04!
05!
16!
17!
08!
09!
0:!
0;!
0<!
1=!
0>!
0?!
1@!
0A!
0B!
0C!
0D!
0E!
0F!
0G!
0H!
0I!
0J!
0K!
0L!
0M!
0N!
0O!
1P!
0Q!
0R!
0S!
0T!
0U!
0V!
0W!
0X!
0Y!
0Z!
0[!
0\!
0]!
0^!
0_!
0`!
0a!
0b!
0c!
0d!
0e!
0f!
0g!
0h!
0i!
0j!
0k!
0l!
0m!
0n!
0o!
1p!
1q!
0r!
0s!
0t!
1u!
1v!
0w!
0x!
0y!
0z!
0{!
0|!
0}!
0~!
0!"
0""
0#"
0$"
1%"
0&"
0'"
0("
0)"
0*"
0+"
0,"
0-"
0."
0/"
00"
11"
12"
03"
04"
15"
16"
07"
08"
09"
1:"
0;"
0<"
0="
0>"
0?"
0@"
0A"
0B"
0C"
0D"
0E"
0F"
0G"
0H"
0I"
0J"
0K"
0L"
1M"
0N"
0O"
1P"
0Q"
0R"
0S"
0T"
0U"
0V"
0W"
0X"
1Y"
1Z"
0["
0\"
0]"
1^"
0_"
0`"
0a"
0b"
0c"
0d"
0e"
0f"
0g"
0h"
0i"
0j"
0k"
0l"
0m"
0n"
0o"
0p"
0q"
0r"
0s"
0t"
0u"
0v"
0w"
0x"
0y"
0z"
1{"
0|"
0}"
0~"
0!#
0"#
0##
0$#
0%#
0&#
1'#
0(#
0)#
0*#
0+#
0,#
0-#
0.#
0/#
10#
11#
12#
13#
14#
15#
06#
07#
$end
#10000
0"
0a
1b
#20000
1"
1a
#30000
0"
0a
0b
1c
#40000
1"
1a
#50000
0"
0a
1b
#60000
1"
1a
#70000
0"
0a
0b
0c
1d
1S
1>"
1{!
1t!
1r
1m
#80000
1"
1a
#90000
0"
0a
1b
#100000
1"
1a
#110000
0"
0a
0b
1c
#120000
0%
1"
0j
1a
#130000
0"
0a
1b
#140000
1"
1a
#150000
0"
0a
0b
0c
0d
0S
1b"
1N"
17#
16#
0Y"
1:
0Z"
1)
0*
07
#160000
1"
1a
#170000
0"
0a
1b
#180000
1"
1a
#190000
0"
0a
0b
1c
#200000
1"
1a
#210000
0"
0a
1b
#220000
1"
1a
#230000
0"
0a
0b
0c
1d
1S
1k
1n
1T
#240000
1%
1"
1j
1a
#250000
0"
0a
1b
#260000
1"
1a
#270000
0"
0a
0b
1c
#280000
1"
1a
#290000
0"
0a
1b
#300000
1"
1a
#310000
0"
0a
0b
0c
0d
0S
1c"
0b"
1O"
0N"
06#
1e"
1X"
0M"
1Y"
19
0:
16
0-
0+
1*
#320000
1"
1a
#330000
0"
0a
1b
#340000
1"
1a
#350000
0"
0a
0b
1c
#360000
0%
1"
0j
1a
#370000
0"
0a
1b
#380000
1"
1a
#390000
0"
0a
0b
0c
1d
1S
1l
#400000
1"
1a
#410000
0"
0a
1b
#420000
1"
1a
#430000
0"
0a
0b
1c
#440000
1"
1a
#450000
0"
0a
1b
#460000
1"
1a
#470000
0"
0a
0b
0c
0d
0S
1b"
1*#
1v"
0e"
1+
0,
#480000
1%
1"
1j
1a
#490000
0"
0a
1b
#500000
1"
1a
#510000
0"
0a
0b
1c
#520000
1"
1a
#530000
0"
0a
1b
#540000
1"
1a
#550000
0"
0a
0b
0c
1d
1S
0m
0l
0k
0n
0T
1t
#560000
1"
1a
#570000
0"
0a
1b
#580000
1"
1a
#590000
0"
0a
0b
1c
#600000
0%
1"
0j
1a
#610000
0"
0a
1b
#620000
1"
1a
#630000
0"
0a
0b
0c
0d
0S
0c"
0b"
07#
0*#
0v"
1w"
0w"
05#
02#
01#
00#
0)
1,
15#
12#
11#
10#
13
12
11
1.
03
02
01
0.
#640000
1"
1a
#650000
0"
0a
1b
#660000
1"
1a
#670000
0"
0a
0b
1c
#680000
1"
1a
#690000
0"
0a
1b
#700000
1"
1a
#710000
0"
0a
0b
0c
1d
1S
1m
1k
1n
1T
#720000
1%
1"
1j
1a
#730000
0"
0a
1b
#740000
1"
1a
#750000
0"
0a
0b
1c
#760000
1"
1a
#770000
0"
0a
1b
#780000
1"
1a
#790000
0"
0a
0b
0c
0d
0S
1b"
17#
16#
1)
0*
#800000
1"
1a
#810000
0"
0a
1b
#820000
1"
1a
#830000
0"
0a
0b
1c
#840000
0%
1"
0j
1a
#850000
0"
0a
1b
#860000
1"
1a
#870000
0"
0a
0b
0c
1d
1S
1l
#880000
1"
1a
#890000
0"
0a
1b
#900000
1"
1a
#910000
0"
0a
0b
1c
#920000
1"
1a
#930000
0"
0a
1b
#940000
1"
1a
#950000
0"
0a
0b
0c
0d
0S
1c"
0b"
06#
1e"
0+
1*
#960000
1%
1"
1j
1a
#970000
0"
0a
1b
#980000
1"
1a
#990000
0"
0a
0b
1c
#1000000
1"
1a
#1010000
0"
0a
1b
#1020000
1"
1a
#1030000
0"
0a
0b
0c
1d
1S
0m
0l
0k
0n
0T
1u
0t
#1040000
1"
1a
#1050000
0"
0a
1b
#1060000
1"
1a
#1070000
0"
0a
0b
1c
#1080000
0%
1"
0j
1a
#1090000
0"
0a
1b
#1100000
1"
1a
#1110000
0"
0a
0b
0c
0d
0S
1b"
1*#
1v"
0e"
1+
0,
#1120000
1"
1a
#1130000
0"
0a
1b
#1140000
1"
1a
#1150000
0"
0a
0b
1c
#1160000
1"
1a
#1170000
0"
0a
1b
#1180000
1"
1a
#1190000
0"
0a
0b
0c
1d
1S
1m
1k
1n
1T
#1200000
1%
1"
1j
1a
#1210000
0"
0a
1b
#1220000
1"
1a
#1230000
0"
0a
0b
1c
#1240000
1"
1a
#1250000
0"
0a
1b
#1260000
1"
1a
#1270000
0"
0a
0b
0c
0d
0S
0c"
0b"
07#
0*#
0v"
1w"
0w"
05#
02#
01#
00#
0)
1,
15#
12#
11#
10#
13
12
11
1.
03
02
01
0.
#1280000
1"
1a
#1290000
0"
0a
1b
#1300000
1"
1a
#1310000
0"
0a
0b
1c
#1320000
0%
1"
0j
1a
#1330000
0"
0a
1b
#1340000
1"
1a
#1350000
0"
0a
0b
0c
1d
1S
1l
#1360000
1"
1a
#1370000
0"
0a
1b
#1380000
1"
1a
#1390000
0"
0a
0b
1c
#1400000
1"
1a
#1410000
0"
0a
1b
#1420000
1"
1a
#1430000
0"
0a
0b
0c
0d
0S
1b"
17#
16#
1)
0*
#1440000
1%
1"
1j
1a
#1450000
0"
0a
1b
#1460000
1"
1a
#1470000
0"
0a
0b
1c
#1480000
1"
1a
#1490000
0"
0a
1b
#1500000
1"
1a
#1510000
0"
0a
0b
0c
1d
1S
0m
0l
0k
0n
0T
1t
#1520000
1"
1a
#1530000
0"
0a
1b
#1540000
1"
1a
#1550000
0"
0a
0b
1c
#1560000
0%
1"
0j
1a
#1570000
0"
0a
1b
#1580000
1"
1a
#1590000
0"
0a
0b
0c
0d
0S
1c"
0b"
06#
1e"
0+
1*
#1600000
1"
1a
#1610000
0"
0a
1b
#1620000
1"
1a
#1630000
0"
0a
0b
1c
#1640000
1"
1a
#1650000
0"
0a
1b
#1660000
1"
1a
#1670000
0"
0a
0b
0c
1d
1S
1m
1k
1n
1T
#1680000
1%
1"
1j
1a
#1690000
0"
0a
1b
#1700000
1"
1a
#1710000
0"
0a
0b
1c
#1720000
1"
1a
#1730000
0"
0a
1b
#1740000
1"
1a
#1750000
0"
0a
0b
0c
0d
0S
1b"
1*#
1v"
0e"
1+
0,
#1760000
1"
1a
#1770000
0"
0a
1b
#1780000
1"
1a
#1790000
0"
0a
0b
1c
#1800000
0%
1"
0j
1a
#1810000
0"
0a
1b
#1820000
1"
1a
#1830000
0"
0a
0b
0c
1d
1S
1l
#1840000
1"
1a
#1850000
0"
0a
1b
#1860000
1"
1a
#1870000
0"
0a
0b
1c
#1880000
1"
1a
#1890000
0"
0a
1b
#1900000
1"
1a
#1910000
0"
0a
0b
0c
0d
0S
0c"
0b"
07#
0*#
0v"
1w"
0w"
05#
02#
01#
00#
0)
1,
15#
12#
11#
10#
13
12
11
1.
03
02
01
0.
#1920000
1%
1"
1j
1a
#1930000
0"
0a
1b
#1940000
1"
1a
#1950000
0"
0a
0b
1c
#1960000
1"
1a
#1970000
0"
0a
1b
#1980000
1"
1a
#1990000
0"
0a
0b
0c
1d
1S
0m
0l
0k
0n
0T
1v
0u
0t
18!
#2000000
1"
1a
#2010000
0"
0a
1b
#2020000
1"
1a
#2030000
0"
0a
0b
1c
#2040000
0%
1"
0j
1a
#2050000
0"
0a
1b
#2060000
1"
1a
#2070000
0"
0a
0b
0c
0d
0S
1b"
17#
16#
1)
0*
#2080000
1"
1a
#2090000
0"
0a
1b
#2100000
1"
1a
#2110000
0"
0a
0b
1c
#2120000
1"
1a
#2130000
0"
0a
1b
#2140000
1"
1a
#2150000
0"
0a
0b
0c
1d
1S
1m
1k
1n
1T
#2160000
1%
1"
1j
1a
#2170000
0"
0a
1b
#2180000
1"
1a
#2190000
0"
0a
0b
1c
#2200000
1"
1a
#2210000
0"
0a
1b
#2220000
1"
1a
#2230000
0"
0a
0b
0c
0d
0S
1c"
0b"
06#
1e"
0+
1*
#2240000
1"
1a
#2250000
0"
0a
1b
#2260000
1"
1a
#2270000
0"
0a
0b
1c
#2280000
0%
1"
0j
1a
#2290000
0"
0a
1b
#2300000
1"
1a
#2310000
0"
0a
0b
0c
1d
1S
1l
#2320000
1"
1a
#2330000
0"
0a
1b
#2340000
1"
1a
#2350000
0"
0a
0b
1c
#2360000
1"
1a
#2370000
0"
0a
1b
#2380000
1"
1a
#2390000
0"
0a
0b
0c
0d
0S
1b"
1*#
1v"
0e"
1+
0,
#2400000
1%
1"
1j
1a
#2410000
0"
0a
1b
#2420000
1"
1a
#2430000
0"
0a
0b
1c
#2440000
1"
1a
#2450000
0"
0a
1b
#2460000
1"
1a
#2470000
0"
0a
0b
0c
1d
1S
0m
0l
0k
0n
0T
1t
#2480000
1"
1a
#2490000
0"
0a
1b
#2500000
1"
1a
#2510000
0"
0a
0b
1c
#2520000
0%
1"
0j
1a
#2530000
0"
0a
1b
#2540000
1"
1a
