simulation/qsim/MI-CircuitosDigitais-Problema-3.msim.vcd
$comment
	File created using the following command:
		vcd file MI-CircuitosDigitais-Problema-3.msim.vcd -direction
$end
$date
	Sat Feb 17 22:05:21 2024
$end
$version
	ModelSim Version 10.5b
$end
$timescale
	1ps
$end

$scope module pbl_vlg_vec_tst $end
$var reg 1 ! ch $end
$var reg 1 " clock_50mhz $end
$var reg 1 # cq $end
$var reg 1 $ op_c_deboucing $end
$var reg 1 % op_deboucing $end
$var reg 1 & pg $end
$var reg 1 ' start_stop $end
$var wire 1 ( Nac_7segmentos [3] $end
$var wire 1 ) Nac_7segmentos [2] $end
$var wire 1 * Nac_7segmentos [1] $end
$var wire 1 + Nac_7segmentos [0] $end
$var wire 1 , Nal $end
$var wire 1 - Nout_7seg [7] $end
$var wire 1 . Nout_7seg [6] $end
$var wire 1 / Nout_7seg [5] $end
$var wire 1 0 Nout_7seg [4] $end
$var wire 1 1 Nout_7seg [3] $end
$var wire 1 2 Nout_7seg [2] $end
$var wire 1 3 Nout_7seg [1] $end
$var wire 1 4 Nout_7seg [0] $end
$var wire 1 5 al $end
$var wire 1 6 ev $end
$var wire 1 7 m $end
$var wire 1 8 mef_estado [1] $end
$var wire 1 9 mef_estado [0] $end
$var wire 1 : test_buffer_principal [4] $end
$var wire 1 ; test_buffer_principal [3] $end
$var wire 1 < test_buffer_principal [2] $end
$var wire 1 = test_buffer_principal [1] $end
$var wire 1 > test_buffer_principal [0] $end
$var wire 1 ? test_buffer_secundario [6] $end
$var wire 1 @ test_buffer_secundario [5] $end
$var wire 1 A test_buffer_secundario [4] $end
$var wire 1 B test_buffer_secundario [3] $end
$var wire 1 C test_buffer_secundario [2] $end
$var wire 1 D test_buffer_secundario [1] $end
$var wire 1 E test_buffer_secundario [0] $end
$var wire 1 F test_buffer_secundario_controle_min_rolhas [4] $end
$var wire 1 G test_buffer_secundario_controle_min_rolhas [3] $end
$var wire 1 H test_buffer_secundario_controle_min_rolhas [2] $end
$var wire 1 I test_buffer_secundario_controle_min_rolhas [1] $end
$var wire 1 J test_buffer_secundario_controle_min_rolhas [0] $end
$var wire 1 K test_buffer_secundario_controle_operador [6] $end
$var wire 1 L test_buffer_secundario_controle_operador [5] $end
$var wire 1 M test_buffer_secundario_controle_operador [4] $end
$var wire 1 N test_buffer_secundario_controle_operador [3] $end
$var wire 1 O test_buffer_secundario_controle_operador [2] $end
$var wire 1 P test_buffer_secundario_controle_operador [1] $end
$var wire 1 Q test_buffer_secundario_controle_operador [0] $end
$var wire 1 R ve $end

$scope module i1 $end
$var wire 1 S gnd $end
$var wire 1 T vcc $end
$var wire 1 U unknown $end
$var tri1 1 V devclrn $end
$var tri1 1 W devpor $end
$var tri1 1 X devoe $end
$var wire 1 Y registrador_2|ff_6|q~4_cout $end
$var wire 1 Z clock_50mhz~combout $end
$var wire 1 [ divisor_f|ff_1|q~regout $end
$var wire 1 \ divisor_f|ff_2|q~regout $end
$var wire 1 ] divisor_f|ff_3|q~regout $end
$var wire 1 ^ start_stop~combout $end
$var wire 1 _ ch~combout $end
$var wire 1 ` mef_1|jk_1|q~regout $end
$var wire 1 a mef_1|jk_2|q~0_combout $end
$var wire 1 b pg~combout $end
$var wire 1 c cq~combout $end
$var wire 1 d estado_vedacao~combout $end
$var wire 1 e enable_buffer_secundario~combout $end
$var wire 1 f contador_1_buffer_secundario|ff_5|q_bar~regout $end
$var wire 1 g contador_1_buffer_secundario|ff_1|q~regout $end
$var wire 1 h contador_1_buffer_secundario|ff_1|q_bar~regout $end
$var wire 1 i comb_81|gate_7|S~2_combout $end
$var wire 1 j ff_2|q~regout $end
$var wire 1 k contador_1_buffer_secundario|gate_3|S~0_combout $end
$var wire 1 l contador_1_buffer_secundario|ff_2|q~regout $end
$var wire 1 m contador_1_buffer_secundario|ff_2|q_bar~regout $end
$var wire 1 n contador_1_buffer_secundario|gate_4|S~combout $end
$var wire 1 o contador_1_buffer_secundario|ff_3|q~0_combout $end
$var wire 1 p contador_1_buffer_secundario|ff_3|q~regout $end
$var wire 1 q contador_1_buffer_secundario|gate_10|S~0_combout $end
$var wire 1 r contador_1_buffer_secundario|ff_3|q_bar~regout $end
$var wire 1 s contador_1_buffer_secundario|gate_8|S~combout $end
$var wire 1 t contador_1_buffer_secundario|ff_4|q~0_combout $end
$var wire 1 u contador_1_buffer_secundario|ff_4|q_bar~regout $end
$var wire 1 v contador_1_buffer_secundario|gate_17|S~0_combout $end
$var wire 1 w contador_1_buffer_secundario|ff_6|q~5_combout $end
$var wire 1 x contador_1_buffer_secundario|ff_6|q~regout $end
$var wire 1 y registrador_1|ff_2|q~regout $end
$var wire 1 z op_c_deboucing~combout $end
$var wire 1 { contador_entrada_rolhas|ff_1|q~regout $end
$var wire 1 | contador_entrada_rolhas|ff_2|q~regout $end
$var wire 1 } contador_entrada_rolhas|ff_3|q~regout $end
$var wire 1 ~ contador_entrada_rolhas|ff_4|q~regout $end
$var wire 1 !! contador_entrada_rolhas|gate_3|S~combout $end
$var wire 1 "! contador_entrada_rolhas|ff_5|q~regout $end
$var wire 1 #! contador_entrada_rolhas|ff_6|q~regout $end
$var wire 1 $! registrador_1|ff_4|q~regout $end
$var wire 1 %! registrador_1|ff_5|q~regout $end
$var wire 1 &! comb_50|somador_subtrator_1|gate_8|WideAnd0 $end
$var wire 1 '! registrador_1|ff_6|q~regout $end
$var wire 1 (! registrador_2|ff_6|q~4COUT0_9 $end
$var wire 1 )! registrador_2|ff_6|q~4COUT1_10 $end
$var wire 1 *! registrador_2|ff_6|q~1 $end
$var wire 1 +! registrador_2|ff_6|q~1COUT1_11 $end
$var wire 1 ,! registrador_2|ff_5|q~1 $end
$var wire 1 -! registrador_2|ff_5|q~1COUT1_3 $end
$var wire 1 .! registrador_2|ff_4|q~1 $end
$var wire 1 /! registrador_1|ff_3|q~regout $end
$var wire 1 0! registrador_2|ff_3|q~1 $end
$var wire 1 1! registrador_2|ff_3|q~1COUT1_3 $end
$var wire 1 2! registrador_2|ff_2|q~regout $end
$var wire 1 3! op_deboucing~combout $end
$var wire 1 4! contador_entrada_rolhas|ff_7|q~regout $end
$var wire 1 5! contador_1_buffer_secundario|ff_6|q_bar~regout $end
$var wire 1 6! contador_1_buffer_secundario|gate_15|S~0_combout $end
$var wire 1 7! contador_1_buffer_secundario|gate_19|S~combout $end
$var wire 1 8! contador_1_buffer_secundario|ff_7|q~regout $end
$var wire 1 9! registrador_1|ff_1|q~regout $end
$var wire 1 :! registrador_2|ff_2|q~1 $end
$var wire 1 ;! registrador_2|ff_2|q~1COUT1_3 $end
$var wire 1 <! registrador_2|ff_1|q~regout $end
$var wire 1 =! registrador_2|ff_5|q~regout $end
$var wire 1 >! registrador_2|ff_3|q~regout $end
$var wire 1 ?! registrador_2|ff_4|q~regout $end
$var wire 1 @! load_aux[1]~0_combout $end
$var wire 1 A! load_aux[1]~1_combout $end
$var wire 1 B! pulsador_2|ff_1|q~regout $end
$var wire 1 C! pulsador_2|ff_1|nq~regout $end
$var wire 1 D! pulsador_2|Pulse~combout $end
$var wire 1 E! registrador_1|ff_7|q~regout $end
$var wire 1 F! registrador_2|ff_7|q~regout $end
$var wire 1 G! contador_3_buffer_secundario_controle_operador|gate_33|comb~0_combout $end
$var wire 1 H! contador_3_buffer_secundario_controle_operador|ff_1|q~0_combout $end
$var wire 1 I! contador_3_buffer_secundario_controle_operador|ff_1|q_bar~regout $end
$var wire 1 J! contador_3_buffer_secundario_controle_operador|ff_2|q_bar~0_combout $end
$var wire 1 K! registrador_2|ff_6|q~regout $end
$var wire 1 L! contador_3_buffer_secundario_controle_operador|gate_32|comb~0_combout $end
$var wire 1 M! contador_3_buffer_secundario_controle_operador|ff_2|q~0_combout $end
$var wire 1 N! contador_3_buffer_secundario_controle_operador|ff_2|q_bar~regout $end
$var wire 1 O! contador_3_buffer_secundario_controle_operador|ff_3|q_bar~0_combout $end
$var wire 1 P! contador_3_buffer_secundario_controle_operador|gate_31|comb~0_combout $end
$var wire 1 Q! contador_3_buffer_secundario_controle_operador|ff_3|q~0_combout $end
$var wire 1 R! contador_3_buffer_secundario_controle_operador|ff_3|q_bar~regout $end
$var wire 1 S! contador_3_buffer_secundario_controle_operador|ff_4|q_bar~0_combout $end
$var wire 1 T! contador_3_buffer_secundario_controle_operador|gate_30|comb~0_combout $end
$var wire 1 U! contador_3_buffer_secundario_controle_operador|ff_4|q~0_combout $end
$var wire 1 V! contador_3_buffer_secundario_controle_operador|ff_4|q_bar~regout $end
$var wire 1 W! contador_3_buffer_secundario_controle_operador|gate_29|comb~0_combout $end
$var wire 1 X! contador_3_buffer_secundario_controle_operador|ff_5|q~0_combout $end
$var wire 1 Y! contador_3_buffer_secundario_controle_operador|ff_5|q_bar~regout $end
$var wire 1 Z! contador_3_buffer_secundario_controle_operador|ff_6|q_bar~2_combout $end
$var wire 1 [! contador_3_buffer_secundario_controle_operador|gate_28|comb~0_combout $end
$var wire 1 \! contador_3_buffer_secundario_controle_operador|ff_6|q~0_combout $end
$var wire 1 ]! contador_3_buffer_secundario_controle_operador|ff_6|q_bar~regout $end
$var wire 1 ^! WideAnd2~0_combout $end
$var wire 1 _! contador_3_buffer_secundario_controle_operador|gate_27|comb~0_combout $end
$var wire 1 `! comb_81|gate_7|S~1_combout $end
$var wire 1 a! contador_3_buffer_secundario_controle_operador|ff_7|q~regout $end
$var wire 1 b! WideAnd2~1_combout $end
$var wire 1 c! WideAnd2~combout $end
$var wire 1 d! comb_81|jk_1|q~regout $end
$var wire 1 e! comb_81|jk_2|q~regout $end
$var wire 1 f! comb_81|gate_7|S~0_combout $end
$var wire 1 g! contador_1_buffer_secundario|ff_4|q~regout $end
$var wire 1 h! contador_1_buffer_secundario|ff_5|q~0_combout $end
$var wire 1 i! contador_1_buffer_secundario|ff_5|q~regout $end
$var wire 1 j! contador_4_buffer_principal|ff_2|q~2_combout $end
$var wire 1 k! contador_4_buffer_principal|ff_2|q~regout $end
$var wire 1 l! contador_4_buffer_principal|ff_3|q~1_combout $end
$var wire 1 m! contador_4_buffer_principal|ff_2|q_bar~regout $end
$var wire 1 n! contador_4_buffer_principal|ff_3|q~0_combout $end
$var wire 1 o! contador_4_buffer_principal|ff_3|q~2_combout $end
$var wire 1 p! contador_4_buffer_principal|ff_3|q~regout $end
$var wire 1 q! contador_4_buffer_principal|ff_4|q~0_combout $end
$var wire 1 r! contador_4_buffer_principal|ff_3|q_bar~regout $end
$var wire 1 s! contador_4_buffer_principal|ff_4|q~1_combout $end
$var wire 1 t! contador_4_buffer_principal|ff_4|q~2_combout $end
$var wire 1 u! contador_4_buffer_principal|ff_4|q~regout $end
$var wire 1 v! contador_4_buffer_principal|ff_4|q_bar~regout $end
$var wire 1 w! contador_4_buffer_principal|ff_5|q~0_combout $end
$var wire 1 x! contador_4_buffer_principal|ff_5|q~regout $end
$var wire 1 y! WideAnd0~0_combout $end
$var wire 1 z! WideAnd0~1_combout $end
$var wire 1 {! WideAnd0~2 $end
$var wire 1 |! pulsador_1|ff_1|q~regout $end
$var wire 1 }! pulsador_1|ff_1|nq~regout $end
$var wire 1 ~! pulsador_1|Pulse~combout $end
$var wire 1 !" comb_80|gate_7|S~1_combout $end
$var wire 1 "" ff_1|q~regout $end
$var wire 1 #" comb_80|jk_2|q~regout $end
$var wire 1 $" comb_80|gate_7|S~0_combout $end
$var wire 1 %" contador_2_buffer_secundario_controle_rolhas|ff_1|q_bar~regout $end
$var wire 1 &" contador_2_buffer_secundario_controle_rolhas|ff_2|q_bar~regout $end
$var wire 1 '" contador_2_buffer_secundario_controle_rolhas|ff_3|q_bar~0_combout $end
$var wire 1 (" contador_2_buffer_secundario_controle_rolhas|ff_3|q_bar~regout $end
$var wire 1 )" contador_2_buffer_secundario_controle_rolhas|ff_2|q_bar~1_combout $end
$var wire 1 *" contador_2_buffer_secundario_controle_rolhas|ff_4|q_bar~regout $end
$var wire 1 +" WideAnd1~0_combout $end
$var wire 1 ," contador_2_buffer_secundario_controle_rolhas|ff_5|q~regout $end
$var wire 1 -" WideAnd1~combout $end
$var wire 1 ." comb_80|jk_1|q~regout $end
$var wire 1 /" WideAnd3~combout $end
$var wire 1 0" contador_4_buffer_principal|ff_1|q_bar~regout $end
$var wire 1 1" m_aus_rolhas|gate_1|WideOr0~combout $end
$var wire 1 2" mef_1|gate_10|WideAnd0~combout $end
$var wire 1 3" contador_duzias|ff_1|q~regout $end
$var wire 1 4" contador_duzias|ff_2|q~regout $end
$var wire 1 5" contador_duzias|ff_3|q~regout $end
$var wire 1 6" contador_duzias|ff_4|q~regout $end
$var wire 1 7" reset_1|gate_1|S~combout $end
$var wire 1 8" mef_1|jk_2|q~1_combout $end
$var wire 1 9" mef_1|jk_2|q~regout $end
$var wire 1 :" mef_1|gate_11|WideAnd0~combout $end
$var wire 1 ;" mef_1|gate_9|WideAnd0~combout $end
$var wire 1 <" mef_1|gate_8|S~0_combout $end
$var wire 1 =" mef_1|gate_8|S~1_combout $end
$var wire 1 >" contador_display|ff_1|q~regout $end
$var wire 1 ?" contador_display|ff_2|q~regout $end
$var wire 1 @" mux_36|gate_5|WideOr0~0_combout $end
$var wire 1 A" contador_dezenas_duzias|ff_3|q~regout $end
$var wire 1 B" contador_dezenas_duzias|ff_4|q~regout $end
$var wire 1 C" gate_2|S~combout $end
$var wire 1 D" contador_dezenas_duzias|ff_1|q~regout $end
$var wire 1 E" contador_dezenas_duzias|ff_2|q~regout $end
$var wire 1 F" mux_36|gate_5|WideOr0~1_combout $end
$var wire 1 G" mux_36|gate_4|WideAnd0~3_combout $end
$var wire 1 H" mux_36|gate_4|WideAnd0~4_combout $end
$var wire 1 I" mux_36|gate_4|WideAnd0~11_combout $end
$var wire 1 J" mux_36|gate_4|WideAnd0~7_combout $end
$var wire 1 K" mux_36|gate_4|WideAnd0~8_combout $end
$var wire 1 L" mux_36|gate_4|WideAnd0~9_combout $end
$var wire 1 M" mux_36|gate_4|WideAnd0~10_combout $end
$var wire 1 N" mux_36|gate_5|WideOr0~2_combout $end
$var wire 1 O" mux_36|gate_5|WideOr0~3_combout $end
$var wire 1 P" mux_38|gate_3|WideAnd0~0_combout $end
$var wire 1 Q" mux_37|gate_4|WideAnd0~3_combout $end
$var wire 1 R" mux_37|gate_4|WideAnd0~4_combout $end
$var wire 1 S" mux_37|gate_4|WideAnd0~5_combout $end
$var wire 1 T" demux_1|gate_3|WideAnd0~0_combout $end
$var wire 1 U" mux_37|gate_4|WideAnd0~1_combout $end
$var wire 1 V" mux_37|gate_4|WideAnd0~0_combout $end
$var wire 1 W" mux_37|gate_4|WideAnd0~2_combout $end
$var wire 1 X" mux_37|gate_5|WideOr0~0_combout $end
$var wire 1 Y" mux_37|gate_5|WideOr0~1_combout $end
$var wire 1 Z" mux_37|gate_5|WideOr0~2_combout $end
$var wire 1 [" codificador_garrafas_2|gate_1|S~0_combout $end
$var wire 1 \" mux_39|gate_3|WideAnd0~1_combout $end
$var wire 1 ]" mux_39|gate_3|WideAnd0~0_combout $end
$var wire 1 ^" mux_38|gate_4|WideAnd0~1_combout $end
$var wire 1 _" mux_39|gate_3|WideAnd0~2_combout $end
$var wire 1 `" mux_39|gate_3|WideAnd0~3_combout $end
$var wire 1 a" mux_38|gate_4|WideAnd0~0_combout $end
$var wire 1 b" mux_39|gate_3|WideAnd0~4_combout $end
$var wire 1 c" mux_39|gate_5|WideOr0~0_combout $end
$var wire 1 d" mux_39|gate_5|WideOr0~1_combout $end
$var wire 1 e" mux_38|gate_3|WideAnd0~1_combout $end
$var wire 1 f" mux_38|gate_3|WideAnd0~2_combout $end
$var wire 1 g" mux_38|gate_4|WideAnd0~2_combout $end
$var wire 1 h" mux_38|gate_4|WideAnd0~3_combout $end
$var wire 1 i" mux_38|gate_4|WideAnd0~4_combout $end
$var wire 1 j" mux_38|gate_4|WideAnd0~5_combout $end
$var wire 1 k" mux_38|gate_4|WideAnd0~6_combout $end
$var wire 1 l" mux_38|gate_5|WideOr0~0_combout $end
$var wire 1 m" mux_38|gate_5|WideOr0~1_combout $end
$var wire 1 n" mux_38|gate_5|WideOr0~2_combout $end
$var wire 1 o" bcd_1|gate_23|WideOr0~combout $end
$var wire 1 p" bcd_1|gate_19|WideOr0~0_combout $end
$var wire 1 q" bcd_1|gate_15|S~0_combout $end
$var wire 1 r" bcd_1|gate_12|WideOr0~0_combout $end
$var wire 1 s" bcd_1|gate_7|WideOr0~combout $end
$var wire 1 t" bcd_1|gate_6|WideOr0~combout $end
$var wire 1 u" bcd_1|gate_3|WideOr0~combout $end
$var wire 1 v" demux_1|gate_3|WideAnd0~1_combout $end
$var wire 1 w" demux_1|gate_3|WideAnd0~2_combout $end
$var wire 1 x" demux_1|gate_1|WideAnd0~combout $end
$upscope $end
$upscope $end
$enddefinitions $end
#0
$dumpvars
1!
1"
0#
1$
1%
1&
1'
1+
1*
1)
0(
1,
04
13
02
01
00
0/
0.
0-
05
16
07
09
08
0>
0=
0<
0;
0:
0E
0D
0C
0B
0A
0@
0?
0J
0I
0H
0G
0F
0Q
0P
0O
0N
0M
0L
0K
0R
0S
1T
xU
1V
1W
1X
0Y
1Z
0[
0\
0]
1^
1_
0`
0a
1b
0c
0d
0e
0f
0g
0h
0i
0j
1k
0l
0m
0n
0o
0p
0q
0r
1s
0t
0u
0v
0w
0x
0y
1z
0{
0|
0}
0~
0!!
0"!
0#!
0$!
0%!
0&!
0'!
0(!
0)!
1*!
1+!
0,!
0-!
1.!
0/!
00!
01!
02!
13!
04!
05!
16!
17!
08!
09!
1:!
1;!
0<!
0=!
0>!
0?!
0@!
1A!
0B!
0C!
0D!
0E!
0F!
0G!
0H!
0I!
1J!
0K!
0L!
0M!
0N!
1O!
0P!
0Q!
0R!
0S!
0T!
0U!
0V!
0W!
0X!
0Y!
1Z!
0[!
0\!
0]!
1^!
0_!
0`!
0a!
1b!
0c!
0d!
0e!
0f!
0g!
0h!
0i!
0j!
0k!
0l!
0m!
0n!
0o!
0p!
0q!
0r!
0s!
0t!
0u!
0v!
0w!
0x!
1y!
0z!
0{!
0|!
0}!
0~!
0!"
0""
0#"
0$"
0%"
0&"
1'"
0("
0)"
0*"
1+"
0,"
0-"
0."
0/"
00"
01"
02"
03"
04"
05"
06"
07"
18"
09"
0:"
0;"
1<"
1="
0>"
0?"
0@"
0A"
0B"
1C"
0D"
0E"
0F"
0G"
0H"
0I"
1J"
0K"
0L"
0M"
0N"
0O"
0P"
0Q"
0R"
0S"
0T"
1U"
0V"
0W"
0X"
0Y"
0Z"
0["
0\"
0]"
0^"
0_"
0`"
0a"
0b"
0c"
0d"
0e"
0f"
0g"
0h"
1i"
0j"
0k"
0l"
0m"
0n"
0o"
1p"
1q"
1r"
1s"
1t"
1u"
0v"
0w"
0x"
$end
#10000
0"
0$
0Z
0z
1[
#20000
1"
1$
1Z
1z
1{
#30000
0"
0$
0Z
0z
0[
1\
#40000
1"
1$
1Z
1z
1|
0{
#50000
0"
0$
0Z
0z
1[
#60000
1"
1$
1Z
1z
1{
#70000
0"
0$
0Z
0z
0[
0\
1]
1}!
1C!
#80000
1"
1$
1Z
1z
1}
0|
0{
#90000
0"
0$
0Z
0z
1[
#100000
1"
1$
1Z
1z
1{
#110000
0"
0$
0Z
0z
0[
1\
#120000
1"
1$
1Z
1z
1|
0{
#130000
0"
0$
0Z
0z
1[
#140000
1"
1$
1Z
1z
1{
#150000
0"
0$
0Z
0z
0[
0\
0]
1>"
19"
1x"
1w"
0<"
19
0="
1(
0)
06
#160000
1"
1$
1Z
1z
1~
0}
0|
0{
#170000
0"
0$
0Z
0z
1[
#180000
1"
1$
1Z
1z
1{
#190000
0"
0$
0Z
0z
0[
1\
#200000
1"
1$
1Z
1z
1|
0{
#210000
0"
0$
0Z
0z
1[
#220000
1"
1$
1Z
1z
1{
#230000
0"
0$
0Z
0z
0[
0\
1]
#240000
1"
1$
1Z
1z
1}
0|
0{
#250000
0"
0$
0Z
0z
1[
#260000
1"
1$
1Z
1z
1{
#270000
0"
0$
0Z
0z
0[
1\
#280000
1"
1$
1Z
1z
1|
0{
#290000
0"
0$
0Z
0z
1[
#300000
1"
1$
1Z
1z
1{
1!!
#310000
0"
0$
0Z
0z
0[
0\
0]
1?"
0>"
09"
1`
0w"
1v"
1<"
1;"
08"
09
18
15
0,
0*
1)
#320000
1"
1$
1Z
1z
1"!
0~
0}
0|
0{
10!
0!!
#330000
0"
0$
0Z
0z
1[
#340000
1"
1$
1Z
1z
1{
#350000
0"
0$
0Z
0z
0[
1\
#360000
1"
1$
1Z
1z
1|
0{
#370000
0"
0$
0Z
0z
1[
#380000
1"
1$
1Z
1z
1{
#390000
0"
0$
0Z
0z
0[
0\
1]
#400000
1"
1Z
#410000
0"
0Z
1[
#420000
1"
1Z
#430000
0"
0Z
0[
1\
#440000
1"
1Z
#450000
0"
0Z
1[
#460000
1"
1Z
#470000
0"
0Z
0[
0\
0]
1>"
0v"
1c"
1T"
0+
1*
#480000
1$
1"
1z
1Z
1}
0|
0{
#490000
0"
0Z
1[
#500000
1"
1Z
#510000
0"
0Z
0[
1\
#520000
1"
1Z
#530000
0"
0Z
1[
#540000
1"
1Z
#550000
0"
0Z
0[
0\
1]
#560000
0$
1"
0z
1Z
#570000
0"
0Z
1[
#580000
1"
1Z
#590000
0"
0Z
0[
1\
#600000
1"
1Z
#610000
0"
0Z
1[
#620000
1"
1Z
#630000
0"
0Z
0[
0\
0]
0?"
0>"
0x"
0c"
0T"
1d"
0d"
0u"
0r"
0q"
0p"
0(
1+
1u"
1r"
1q"
1p"
12
11
10
1-
02
01
00
0-
#640000
0%
1"
03!
1Z
0A!
1D!
1>!
1=!
1j
1@!
0s
1o
0k
1h!
06!
1w
1t
07!
#650000
0"
0Z
1[
#660000
1"
1Z
#670000
0"
0Z
0[
1\
#680000
1"
1Z
#690000
0"
0Z
1[
#700000
1"
1Z
#710000
0"
0Z
0[
0\
1]
1B!
#720000
1%
1"
13!
1Z
1A!
0D!
#730000
0"
0Z
1[
#740000
1"
1Z
#750000
0"
0Z
0[
1\
#760000
1"
1Z
#770000
0"
0Z
1[
#780000
1"
1Z
#790000
0"
0Z
0[
0\
0]
1>"
1e!
1x"
1w"
1`!
1_!
1[!
1X!
1T!
1Q!
1L!
1G!
1(
0)
1Y!
1R!
0^!
0b!
0O!
1M
1O
#800000
1"
1Z
#810000
0"
0Z
1[
#820000
1"
1Z
#830000
0"
0Z
0[
1\
#840000
1"
1Z
#850000
0"
0Z
1[
#860000
1"
1Z
#870000
0"
0Z
0[
0\
1]
0C!
0B!
#880000
1"
1Z
#890000
0"
0Z
1[
#900000
1"
1Z
#910000
0"
0Z
0[
1\
#920000
1"
1Z
#930000
0"
0Z
1[
#940000
1"
1Z
#950000
0"
0Z
0[
0\
0]
1?"
0>"
0e!
1d!
0w"
1v"
1f!
0`!
0_!
0[!
0X!
0T!
0Q!
0L!
0J!
0G!
1O!
1e
0*
1)
#960000
1"
1Z
#970000
0"
0Z
1[
#980000
1"
1Z
#990000
0"
0Z
0[
1\
#1000000
1"
1Z
#1010000
0"
0Z
1[
#1020000
1"
1Z
#1030000
0"
0Z
0[
0\
1]
1C!
#1040000
1"
1Z
#1050000
0"
0Z
1[
#1060000
1"
1Z
#1070000
0"
0Z
0[
1\
#1080000
1"
1Z
#1090000
0"
0Z
1[
#1100000
1"
1Z
#1110000
0"
0Z
0[
0\
0]
1>"
0R!
1N!
1I!
1h
1g
0v"
1c"
1T"
1b!
1k
0O
1P
1Q
1E
1d"
0+
1*
0u"
0r"
0q"
0p"
12
11
10
1-
#1120000
1"
1Z
#1130000
0"
0Z
1[
#1140000
1"
1Z
#1150000
0"
0Z
0[
1\
#1160000
1"
1Z
#1170000
0"
0Z
1[
#1180000
1"
1Z
#1190000
0"
0Z
0[
0\
1]
#1200000
1"
1Z
#1210000
0"
0Z
1[
#1220000
1"
1Z
#1230000
0"
0Z
0[
1\
#1240000
1"
1Z
#1250000
0"
0Z
1[
#1260000
1"
1Z
#1270000
0"
0Z
0[
0\
0]
0?"
0>"
0I!
1m
1l
0h
0g
0x"
0c"
0T"
1J!
0i"
1h"
0k
0Q
1D
0E
0d"
1k"
0(
1+
1u"
1r"
1q"
1p"
02
01
00
0-
#1280000
1"
1Z
#1290000
0"
0Z
1[
#1300000
1"
1Z
#1310000
0"
0Z
0[
1\
#1320000
1"
1Z
#1330000
0"
0Z
1[
#1340000
1"
1Z
#1350000
0"
0Z
0[
0\
1]
#1360000
1"
1Z
#1370000
0"
0Z
1[
#1380000
1"
1Z
#1390000
0"
0Z
0[
1\
#1400000
1"
1Z
#1410000
0"
0Z
1[
#1420000
1"
1Z
#1430000
0"
0Z
0[
0\
0]
1>"
0N!
1I!
1h
1g
1x"
1w"
1l"
1k
1n
0P
1Q
1E
0o
1(
0)
#1440000
1"
1Z
#1450000
0"
0Z
1[
#1460000
1"
1Z
#1470000
0"
0Z
0[
1\
#1480000
1"
1Z
#1490000
0"
0Z
1[
#1500000
1"
1Z
#1510000
0"
0Z
0[
0\
1]
#1520000
1"
1Z
#1530000
0"
0Z
1[
#1540000
1"
1Z
#1550000
0"
0Z
0[
1\
#1560000
1"
1Z
#1570000
0"
0Z
1[
#1580000
1"
1Z
#1590000
0"
0Z
0[
0\
0]
1?"
0>"
0I!
1r
1p
0m
0l
0h
0g
0w"
1v"
1n"
0l"
1S!
0O!
0J!
1^"
1W"
1z!
1i"
0h"
0n
0k
0Q
1C
0D
0E
0s"
0p"
1o"
0n"
0k"
1o
0*
1)
1s"
1p"
0o"
03
12
1/
13
02
0/
#1600000
1"
1Z
#1610000
0"
0Z
1[
#1620000
1"
1Z
#1630000
0"
0Z
0[
1\
#1640000
1"
1Z
#1650000
0"
0Z
1[
#1660000
1"
1Z
#1670000
0"
0Z
0[
0\
1]
#1680000
1"
1Z
#1690000
0"
0Z
1[
#1700000
1"
1Z
#1710000
0"
0Z
0[
1\
#1720000
1"
1Z
#1730000
0"
0Z
1[
#1740000
1"
1Z
#1750000
0"
0Z
0[
0\
0]
1>"
0Y!
1V!
1R!
1N!
1I!
1h
1g
0v"
1c"
1T"
0b!
0S!
1k
0M
1N
1O
1P
1Q
1E
1d"
1Z"
0+
1*
0t"
0q"
1o"
03
11
1.
#1760000
1"
1Z
#1770000
0"
0Z
1[
#1780000
1"
1Z
#1790000
0"
0Z
0[
1\
#1800000
1"
1Z
#1810000
0"
0Z
1[
#1820000
1"
1Z
#1830000
0"
0Z
0[
0\
1]
#1840000
1"
1Z
#1850000
0"
0Z
1[
#1860000
1"
1Z
#1870000
0"
0Z
0[
1\
#1880000
1"
1Z
#1890000
0"
0Z
1[
#1900000
1"
1Z
#1910000
0"
0Z
0[
0\
0]
0?"
0>"
0I!
1m
1l
0h
0g
0x"
0c"
0T"
1J!
0i"
1h"
0k
0Q
1D
0E
0d"
0Z"
1k"
0(
1+
1t"
1q"
0o"
13
01
0.
#1920000
1"
1Z
#1930000
0"
0Z
1[
#1940000
1"
1Z
#1950000
0"
0Z
0[
1\
#1960000
1"
1Z
#1970000
0"
0Z
1[
#1980000
1"
1Z
#1990000
0"
0Z
0[
0\
1]
#2000000
1"
1Z
#2010000
0"
0Z
1[
#2020000
1"
1Z
#2030000
0"
0Z
0[
1\
#2040000
1"
1Z
#2050000
0"
0Z
1[
#2060000
1"
1Z
#2070000
0"
0Z
0[
0\
0]
1>"
0N!
1I!
1h
1g
1x"
1w"
1l"
1k
1q
1n
0P
1Q
1E
0t
0o
1(
0)
#2080000
1"
1Z
#2090000
0"
0Z
1[
#2100000
1"
1Z
#2110000
0"
0Z
0[
1\
#2120000
1"
1Z
#2130000
0"
0Z
1[
#2140000
1"
1Z
#2150000
0"
0Z
0[
0\
1]
#2160000
1"
1Z
#2170000
0"
0Z
1[
#2180000
1"
1Z
#2190000
0"
0Z
0[
1\
#2200000
1"
1Z
#2210000
0"
0Z
1[
#2220000
1"
1Z
#2230000
0"
0Z
0[
0\
0]
1?"
0>"
1g!
0I!
1u
0r
0p
0m
0l
0h
0g
0w"
1v"
1n"
0l"
0h"
1]"
0U"
0J"
1G"
0h!
1O!
0J!
0^"
0W"
0q
0n
0k
1B
0Q
0C
0D
0E
0s"
0p"
1o"
0n"
0k"
1I"
1h!
1t
1o
0*
1)
1s"
1p"
0o"
1N"
03
12
1/
13
02
0/
#2240000
1"
1Z
#2250000
0"
0Z
1[
#2260000
1"
1Z
#2270000
0"
0Z
0[
1\
#2280000
1"
1Z
#2290000
0"
0Z
1[
#2300000
1"
1Z
#2310000
0"
0Z
0[
0\
1]
#2320000
1"
1Z
#2330000
0"
0Z
1[
#2340000
1"
1Z
#2350000
0"
0Z
0[
1\
#2360000
1"
1Z
#2370000
0"
0Z
1[
#2380000
1"
1Z
#2390000
0"
0Z
0[
0\
0]
1>"
0R!
1N!
1I!
1h
1g
0v"
1c"
1T"
1O"
1b!
1k
0O
1P
1Q
1E
1d"
1o"
0+
1*
0q"
03
11
#2400000
1"
1Z
#2410000
0"
0Z
1[
#2420000
1"
1Z
#2430000
0"
0Z
0[
1\
#2440000
1"
1Z
#2450000
0"
0Z
1[
#2460000
1"
1Z
#2470000
0"
0Z
0[
0\
1]
#2480000
1"
1Z
#2490000
0"
0Z
1[
#2500000
1"
1Z
#2510000
0"
0Z
0[
1\
#2520000
1"
1Z
#2530000
0"
0Z
1[
#2540000
1"
1Z
