simulation/qsim/MI-CircuitosDigitais-Problema-3.msim.vcd
$comment
	File created using the following command:
		vcd file MI-CircuitosDigitais-Problema-3.msim.vcd -direction
$end
$date
	Sun Feb 04 05:08:15 2024
$end
$version
	ModelSim Version 10.5b
$end
$timescale
	1ps
$end

$scope module pbl_vlg_vec_tst $end
$var reg 1 ! ch $end
$var reg 1 " clock_50mhz $end
$var reg 1 # cq $end
$var reg 1 $ hh_load $end
$var reg 1 % op_c_deboucing $end
$var reg 1 & op_deboucing $end
$var reg 1 ' pg $end
$var reg 1 ( start_stop $end
$var wire 1 ) Nac_7segmentos [3] $end
$var wire 1 * Nac_7segmentos [2] $end
$var wire 1 + Nac_7segmentos [1] $end
$var wire 1 , Nac_7segmentos [0] $end
$var wire 1 - Nal $end
$var wire 1 . Nout_7seg [7] $end
$var wire 1 / Nout_7seg [6] $end
$var wire 1 0 Nout_7seg [5] $end
$var wire 1 1 Nout_7seg [4] $end
$var wire 1 2 Nout_7seg [3] $end
$var wire 1 3 Nout_7seg [2] $end
$var wire 1 4 Nout_7seg [1] $end
$var wire 1 5 Nout_7seg [0] $end
$var wire 1 6 al $end
$var wire 1 7 ev $end
$var wire 1 8 m $end
$var wire 1 9 mef_estado [1] $end
$var wire 1 : mef_estado [0] $end
$var wire 1 ; test_buffer_entrada_aux_secundario_in [6] $end
$var wire 1 < test_buffer_entrada_aux_secundario_in [5] $end
$var wire 1 = test_buffer_entrada_aux_secundario_in [4] $end
$var wire 1 > test_buffer_entrada_aux_secundario_in [3] $end
$var wire 1 ? test_buffer_entrada_aux_secundario_in [2] $end
$var wire 1 @ test_buffer_entrada_aux_secundario_in [1] $end
$var wire 1 A test_buffer_entrada_aux_secundario_in [0] $end
$var wire 1 B test_buffer_entrada_aux_secundario_in_aux [6] $end
$var wire 1 C test_buffer_entrada_aux_secundario_in_aux [5] $end
$var wire 1 D test_buffer_entrada_aux_secundario_in_aux [4] $end
$var wire 1 E test_buffer_entrada_aux_secundario_in_aux [3] $end
$var wire 1 F test_buffer_entrada_aux_secundario_in_aux [2] $end
$var wire 1 G test_buffer_entrada_aux_secundario_in_aux [1] $end
$var wire 1 H test_buffer_entrada_aux_secundario_in_aux [0] $end
$var wire 1 I test_buffer_entrada_aux_secundario_out [6] $end
$var wire 1 J test_buffer_entrada_aux_secundario_out [5] $end
$var wire 1 K test_buffer_entrada_aux_secundario_out [4] $end
$var wire 1 L test_buffer_entrada_aux_secundario_out [3] $end
$var wire 1 M test_buffer_entrada_aux_secundario_out [2] $end
$var wire 1 N test_buffer_entrada_aux_secundario_out [1] $end
$var wire 1 O test_buffer_entrada_aux_secundario_out [0] $end
$var wire 1 P test_buffer_secundario [6] $end
$var wire 1 Q test_buffer_secundario [5] $end
$var wire 1 R test_buffer_secundario [4] $end
$var wire 1 S test_buffer_secundario [3] $end
$var wire 1 T test_buffer_secundario [2] $end
$var wire 1 U test_buffer_secundario [1] $end
$var wire 1 V test_buffer_secundario [0] $end
$var wire 1 W test_buffer_secundario_aux [6] $end
$var wire 1 X test_buffer_secundario_aux [5] $end
$var wire 1 Y test_buffer_secundario_aux [4] $end
$var wire 1 Z test_buffer_secundario_aux [3] $end
$var wire 1 [ test_buffer_secundario_aux [2] $end
$var wire 1 \ test_buffer_secundario_aux [1] $end
$var wire 1 ] test_buffer_secundario_aux [0] $end
$var wire 1 ^ test_load_input $end
$var wire 1 _ test_load_input_pulse $end
$var wire 1 ` test_out_comparador_controle $end
$var wire 1 a ve $end

$scope module i1 $end
$var wire 1 b gnd $end
$var wire 1 c vcc $end
$var wire 1 d unknown $end
$var tri1 1 e devclrn $end
$var tri1 1 f devpor $end
$var tri1 1 g devoe $end
$var wire 1 h contador_1_buffer_secundario|ff_5|q_bar~regout $end
$var wire 1 i pg~combout $end
$var wire 1 j clock_50mhz~combout $end
$var wire 1 k divisor_f|ff_1|q~regout $end
$var wire 1 l ch~combout $end
$var wire 1 m start_stop~combout $end
$var wire 1 n mef_1|jk_1|q~regout $end
$var wire 1 o mef_1|jk_2|q~0_combout $end
$var wire 1 p mef_1|jk_2|q~regout $end
$var wire 1 q mef_1|gate_11|WideAnd0~combout $end
$var wire 1 r mef_1|gate_9|WideAnd0~combout $end
$var wire 1 s mef_1|gate_8|S~0_combout $end
$var wire 1 t contador_display|ff_2|q~regout $end
$var wire 1 u op_deboucing~combout $end
$var wire 1 v contador_1_buffer_secundario|ff_3|q_bar~regout $end
$var wire 1 w contador_1_buffer_secundario|ff_2|q_bar~regout $end
$var wire 1 x contador_1_buffer_secundario|ff_1|q_bar~regout $end
$var wire 1 y contador_1_buffer_secundario|gate_3|S~0_combout $end
$var wire 1 z contador_1_buffer_secundario|ff_2|q~regout $end
$var wire 1 { contador_1_buffer_secundario|gate_5|WideAnd0~0 $end
$var wire 1 | contador_1_buffer_secundario|gate_6|S~combout $end
$var wire 1 } contador_1_buffer_secundario|ff_3|q~regout $end
$var wire 1 ~ contador_1_buffer_secundario|gate_7|WideAnd0~0_combout $end
$var wire 1 !! contador_1_buffer_secundario|gate_8|WideAnd0~0 $end
$var wire 1 "! contador_1_buffer_secundario|gate_9|S~combout $end
$var wire 1 #! contador_1_buffer_secundario|ff_4|q~regout $end
$var wire 1 $! mux_14|OUT~1 $end
$var wire 1 %! registrador_1|ff_7|q~regout $end
$var wire 1 &! comb_62|somador_subtrator_1|gate_11|WideOr0~0_combout $end
$var wire 1 '! mux_13|OUT~1 $end
$var wire 1 (! registrador_1|ff_6|q~regout $end
$var wire 1 )! comb_62|somador_subtrator_2|gate_11|WideOr0~0_combout $end
$var wire 1 *! comb_62|somador_subtrator_2|gate_11|WideOr0~1_combout $end
$var wire 1 +! comb_62|somador_subtrator_2|gate_11|WideOr0~2_combout $end
$var wire 1 ,! mux_12|OUT $end
$var wire 1 -! registrador_1|ff_5|q~regout $end
$var wire 1 .! comb_62|somador_subtrator_3|gate_11|WideOr0~0_combout $end
$var wire 1 /! mux_11|OUT~1 $end
$var wire 1 0! registrador_1|ff_4|q~regout $end
$var wire 1 1! comb_62|somador_subtrator_4|gate_11|WideOr0~0_combout $end
$var wire 1 2! contador_1_buffer_secundario|gate_13|S $end
$var wire 1 3! contador_1_buffer_secundario|ff_5|q~regout $end
$var wire 1 4! mux_10|OUT $end
$var wire 1 5! registrador_1|ff_3|q~regout $end
$var wire 1 6! registrador_2|ff_3|q~regout $end
$var wire 1 7! contador_1_buffer_secundario|ff_4|q_bar~regout $end
$var wire 1 8! contador_1_buffer_secundario|gate_15|WideAnd0~0 $end
$var wire 1 9! contador_1_buffer_secundario|gate_16|S~combout $end
$var wire 1 :! contador_1_buffer_secundario|ff_6|q~regout $end
$var wire 1 ;! comb_62|somador_subtrator_5|gate_11|WideOr0~0 $end
$var wire 1 <! mux_9|OUT~1 $end
$var wire 1 =! registrador_1|ff_2|q~regout $end
$var wire 1 >! comb_62|somador_subtrator_6|gate_11|WideOr0~0_combout $end
$var wire 1 ?! contador_1_buffer_secundario|ff_6|q_bar~regout $end
$var wire 1 @! contador_1_buffer_secundario|gate_17|WideAnd0~combout $end
$var wire 1 A! contador_1_buffer_secundario|ff_7|q~regout $end
$var wire 1 B! registrador_1|ff_1|q~regout $end
$var wire 1 C! mux_8|OUT~1 $end
$var wire 1 D! registrador_2|ff_1|q~regout $end
$var wire 1 E! contador_2_buffer_secundario_controle|ff_4|q~regout $end
$var wire 1 F! comparador_2|comparador_7|gate_4|S~2 $end
$var wire 1 G! contador_2_buffer_secundario_controle|ff_6|q~regout $end
$var wire 1 H! contador_2_buffer_secundario_controle|ff_7|q~regout $end
$var wire 1 I! comparador_2|comparador_7|gate_4|S~0 $end
$var wire 1 J! registrador_2|ff_7|q~regout $end
$var wire 1 K! registrador_2|ff_6|q~regout $end
$var wire 1 L! registrador_2|ff_5|q~regout $end
$var wire 1 M! comparador_2|comparador_7|gate_4|S~1_combout $end
$var wire 1 N! registrador_2|ff_2|q~regout $end
$var wire 1 O! comparador_2|comparador_2|gate_4|S~0_combout $end
$var wire 1 P! comparador_2|comparador_7|gate_4|S~3_combout $end
$var wire 1 Q! contador_2_buffer_secundario_controle|ff_1|q~regout $end
$var wire 1 R! contador_2_buffer_secundario_controle|ff_2|q~regout $end
$var wire 1 S! contador_2_buffer_secundario_controle|ff_3|q~regout $end
$var wire 1 T! contador_2_buffer_secundario_controle|gate_3|S~combout $end
$var wire 1 U! contador_2_buffer_secundario_controle|ff_5|q~regout $end
$var wire 1 V! registrador_2|ff_4|q~regout $end
$var wire 1 W! m_out_range|gate_4|WideOr0~0 $end
$var wire 1 X! m_out_range|gate_4|WideOr0~1 $end
$var wire 1 Y! comparator_aux~0 $end
$var wire 1 Z! comparator_aux~1_combout $end
$var wire 1 [! comparator_aux~2_combout $end
$var wire 1 \! comparator_aux~3_combout $end
$var wire 1 ]! comparator_aux~4_combout $end
$var wire 1 ^! comparator_aux~5_combout $end
$var wire 1 _! load_input $end
$var wire 1 `! ff_1|q~regout $end
$var wire 1 a! contador_1_buffer_secundario|ff_1|q~regout $end
$var wire 1 b! op_c_deboucing~combout $end
$var wire 1 c! contador_entrada_rolhas|ff_1|q~regout $end
$var wire 1 d! mux_7|NSEL_and_A~combout $end
$var wire 1 e! contador_entrada_rolhas|ff_2|q~regout $end
$var wire 1 f! mux_6|NSEL_and_A~combout $end
$var wire 1 g! contador_entrada_rolhas|ff_3|q~regout $end
$var wire 1 h! mux_5|OUT~combout $end
$var wire 1 i! contador_entrada_rolhas|ff_4|q~regout $end
$var wire 1 j! mux_4|NSEL_and_A~combout $end
$var wire 1 k! contador_entrada_rolhas|gate_3|S~combout $end
$var wire 1 l! contador_entrada_rolhas|ff_5|q~regout $end
$var wire 1 m! mux_3|OUT~combout $end
$var wire 1 n! contador_entrada_rolhas|ff_6|q~regout $end
$var wire 1 o! mux_2|NSEL_and_A~combout $end
$var wire 1 p! contador_entrada_rolhas|ff_7|q~regout $end
$var wire 1 q! mux_1|NSEL_and_A~combout $end
$var wire 1 r! pulsador_1|ff_1|q~regout $end
$var wire 1 s! pulsador_1|ff_1|nq~regout $end
$var wire 1 t! pulsador_1|Pulse~combout $end
$var wire 1 u! load_aux [1] $end
$var wire 1 v! load_aux [0] $end
$upscope $end
$upscope $end
$enddefinitions $end
#0
$dumpvars
1!
1"
0#
0$
0%
0&
1'
0(
1,
1+
0*
1)
1-
05
14
03
02
01
00
0/
0.
06
17
08
0:
09
0A
0@
1?
0>
1=
0<
0;
0H
0G
1F
0E
1D
0C
0B
0O
0N
0M
0L
0K
0J
0I
0V
0U
0T
0S
0R
0Q
0P
0]
0\
0[
0Z
0Y
0X
0W
1^
0_
1`
0a
0b
1c
xd
1e
1f
1g
0h
1i
1j
0k
1l
0m
0n
0o
0p
0q
0r
1s
0t
0u
0v
0w
0x
0y
0z
0{
0|
0}
0~
0!!
0"!
0#!
0$!
0%!
0&!
0'!
0(!
0)!
0*!
0+!
1,!
0-!
1.!
0/!
00!
11!
02!
03!
14!
05!
06!
07!
08!
09!
0:!
1;!
0<!
0=!
0>!
0?!
0@!
0A!
0B!
0C!
0D!
0E!
1F!
0G!
0H!
1I!
0J!
0K!
0L!
1M!
0N!
0O!
1P!
0Q!
0R!
0S!
0T!
0U!
0V!
0W!
0X!
1Y!
1Z!
1[!
1\!
1]!
1^!
1_!
0`!
0a!
0b!
0c!
0d!
0e!
0f!
0g!
1h!
0i!
0j!
0k!
0l!
1m!
0n!
0o!
0p!
0q!
0r!
0s!
0t!
zv!
0u!
$end
#10000
0"
0j
1k
#20000
1"
1j
#30000
0"
0j
0k
1s!
1r!
1t
1t!
1*
0,
1_
#40000
1"
1j
#50000
0"
0j
1k
#60000
1"
1j
#70000
0"
0j
0k
0s!
0t
0t!
0*
1,
0_
#80000
1"
1j
#90000
0"
0j
1k
#100000
1"
1j
#110000
0"
0j
0k
1t
1*
0,
#120000
1"
1j
#130000
0"
0j
1k
#140000
1"
1j
#150000
0"
0j
0k
0t
0*
1,
#160000
1"
1j
#170000
0"
0j
1k
#180000
1"
1j
#190000
0"
0j
0k
1t
1*
0,
#200000
1"
1j
#210000
0"
0j
1k
#220000
1"
1j
#230000
0"
0j
0k
0t
0*
1,
#240000
1"
1j
#250000
0"
0j
1k
#260000
1"
1j
#270000
0"
0j
0k
1t
1*
0,
#280000
1"
1j
#290000
0"
0j
1k
#300000
1"
1j
#310000
0"
0j
0k
0t
0*
1,
#320000
1"
1j
#330000
0"
0j
1k
#340000
1"
1j
#350000
0"
0j
0k
1t
1*
0,
#360000
1"
1j
#370000
0"
0j
1k
#380000
1"
1j
#390000
0"
0j
0k
0t
0*
1,
#400000
1"
1j
#410000
0"
0j
1k
#420000
1"
1j
#430000
0"
0j
0k
1t
1*
0,
#440000
1"
1j
#450000
0"
0j
1k
#460000
1"
1j
#470000
0"
0j
0k
0t
0*
1,
#480000
1"
1j
#490000
0"
0j
1k
#500000
1"
1j
#510000
0"
0j
0k
1t
1*
0,
#520000
1"
1j
#530000
0"
0j
1k
#540000
1"
1j
#550000
0"
0j
0k
0t
0*
1,
#560000
1"
1j
#570000
0"
0j
1k
#580000
1"
1j
#590000
0"
0j
0k
1t
1*
0,
#600000
1"
1j
#610000
0"
0j
1k
#620000
1"
1j
#630000
0"
0j
0k
0t
0*
1,
#640000
1"
1j
#650000
0"
0j
1k
#660000
1"
1j
#670000
0"
0j
0k
1t
1*
0,
#680000
1"
1j
#690000
0"
0j
1k
#700000
1"
1j
#710000
0"
0j
0k
0t
0*
1,
#720000
1"
1j
#730000
0"
0j
1k
#740000
1"
1j
#750000
0"
0j
0k
1t
1*
0,
#760000
1"
1j
#770000
0"
0j
1k
#780000
1"
1j
#790000
0"
0j
0k
0t
0*
1,
#800000
1"
1j
#810000
0"
0j
1k
#820000
1"
1j
#830000
0"
0j
0k
1t
1*
0,
#840000
1"
1j
#850000
0"
0j
1k
#860000
1"
1j
#870000
0"
0j
0k
0t
0*
1,
#880000
1"
1j
#890000
0"
0j
1k
#900000
1"
1j
#910000
0"
0j
0k
1t
1*
0,
#920000
1"
1j
#930000
0"
0j
1k
#940000
1"
1j
#950000
0"
0j
0k
0t
0*
1,
#960000
1"
1j
#970000
0"
0j
1k
#980000
1"
1j
#990000
0"
0j
0k
1t
1*
0,
#1000000
1"
1j
#1010000
0"
0j
1k
#1020000
1"
1j
#1030000
0"
0j
0k
0t
0*
1,
#1040000
1"
1j
#1050000
0"
0j
1k
#1060000
1"
1j
#1070000
0"
0j
0k
1t
1*
0,
#1080000
1"
1j
#1090000
0"
0j
1k
#1100000
1"
1j
#1110000
0"
0j
0k
0t
0*
1,
#1120000
1"
1j
#1130000
0"
0j
1k
#1140000
1"
1j
#1150000
0"
0j
0k
1t
1*
0,
#1160000
1"
1j
#1170000
0"
0j
1k
#1180000
1"
1j
#1190000
0"
0j
0k
0t
0*
1,
#1200000
1"
1j
#1210000
0"
0j
1k
#1220000
1"
1j
#1230000
0"
0j
0k
1t
1*
0,
#1240000
1"
1j
#1250000
0"
0j
1k
#1260000
1"
1j
#1270000
0"
0j
0k
0t
0*
1,
#1280000
1"
1j
#1290000
0"
0j
1k
#1300000
1"
1j
#1310000
0"
0j
0k
1t
1*
0,
#1320000
1"
1j
#1330000
0"
0j
1k
#1340000
1"
1j
#1350000
0"
0j
0k
0t
0*
1,
#1360000
1"
1j
#1370000
0"
0j
1k
#1380000
1"
1j
#1390000
0"
0j
0k
1t
1*
0,
#1400000
1"
1j
#1410000
0"
0j
1k
#1420000
1"
1j
#1430000
0"
0j
0k
0t
0*
1,
#1440000
1"
1j
#1450000
0"
0j
1k
#1460000
1"
1j
#1470000
0"
0j
0k
1t
1*
0,
#1480000
1"
1j
#1490000
0"
0j
1k
#1500000
1"
1j
#1510000
0"
0j
0k
0t
0*
1,
#1520000
1"
1j
#1530000
0"
0j
1k
#1540000
1"
1j
#1550000
0"
0j
0k
1t
1*
0,
#1560000
1"
1j
#1570000
0"
0j
1k
#1580000
1"
1j
#1590000
0"
0j
0k
0t
0*
1,
#1600000
1"
1j
#1610000
0"
0j
1k
#1620000
1"
1j
#1630000
0"
0j
0k
1t
1*
0,
#1640000
1"
1j
#1650000
0"
0j
1k
#1660000
1"
1j
#1670000
0"
0j
0k
0t
0*
1,
#1680000
1"
1j
#1690000
0"
0j
1k
#1700000
1"
1j
#1710000
0"
0j
0k
1t
1*
0,
#1720000
1"
1j
#1730000
0"
0j
1k
#1740000
1"
1j
#1750000
0"
0j
0k
0t
0*
1,
#1760000
1"
1j
#1770000
0"
0j
1k
#1780000
1"
1j
#1790000
0"
0j
0k
1t
1*
0,
#1800000
1"
1j
#1810000
0"
0j
1k
#1820000
1"
1j
#1830000
0"
0j
0k
0t
0*
1,
#1840000
1"
1j
#1850000
0"
0j
1k
#1860000
1"
1j
#1870000
0"
0j
0k
1t
1*
0,
#1880000
1"
1j
#1890000
0"
0j
1k
#1900000
1"
1j
#1910000
0"
0j
0k
0t
0*
1,
#1920000
1"
1j
#1930000
0"
0j
1k
#1940000
1"
1j
#1950000
0"
0j
0k
1t
1*
0,
#1960000
1"
1j
#1970000
0"
0j
1k
#1980000
1"
1j
#1990000
0"
0j
0k
0t
0*
1,
#2000000
1"
1j
#2010000
0"
0j
1k
#2020000
1"
1j
#2030000
0"
0j
0k
1t
1*
0,
#2040000
1"
1j
#2050000
0"
0j
1k
#2060000
1"
1j
#2070000
0"
0j
0k
0t
0*
1,
#2080000
1"
1j
#2090000
0"
0j
1k
#2100000
1"
1j
#2110000
0"
0j
0k
1t
1*
0,
#2120000
1"
1j
#2130000
0"
0j
1k
#2140000
1"
1j
#2150000
0"
0j
0k
0t
0*
1,
#2160000
1"
1j
#2170000
0"
0j
1k
#2180000
1"
1j
#2190000
0"
0j
0k
1t
1*
0,
#2200000
1"
1j
#2210000
0"
0j
1k
#2220000
1"
1j
#2230000
0"
0j
0k
0t
0*
1,
#2240000
1"
1j
#2250000
0"
0j
1k
#2260000
1"
1j
#2270000
0"
0j
0k
1t
1*
0,
#2280000
1"
1j
#2290000
0"
0j
1k
#2300000
1"
1j
#2310000
0"
0j
0k
0t
0*
1,
#2320000
1"
1j
#2330000
0"
0j
1k
#2340000
1"
1j
#2350000
0"
0j
0k
1t
1*
0,
#2360000
1"
1j
#2370000
0"
0j
1k
#2380000
1"
1j
#2390000
0"
0j
0k
0t
0*
1,
#2400000
1"
1j
#2410000
0"
0j
1k
#2420000
1"
1j
#2430000
0"
0j
0k
1t
1*
0,
#2440000
1"
1j
#2450000
0"
0j
1k
#2460000
1"
1j
#2470000
0"
0j
0k
0t
0*
1,
#2480000
1"
1j
#2490000
0"
0j
1k
#2500000
1"
1j
#2510000
0"
0j
0k
1t
1*
0,
#2520000
1"
1j
#2530000
0"
0j
1k
#2540000
1"
1j
#2550000
0"
0j
0k
0t
0*
1,
#2560000
1"
1j
#2570000
0"
0j
1k
#2580000
1"
1j
#2590000
0"
0j
0k
1t
1*
0,
#2600000
1"
1j
#2610000
0"
0j
1k
#2620000
1"
1j
#2630000
0"
0j
0k
0t
0*
1,
#2640000
1"
1j
#2650000
0"
0j
1k
#2660000
1"
1j
#2670000
0"
0j
0k
1t
1*
0,
#2680000
1"
1j
#2690000
0"
0j
1k
#2700000
1"
1j
#2710000
0"
0j
0k
0t
0*
1,
#2720000
1"
1j
#2730000
0"
0j
1k
#2740000
1"
1j
#2750000
0"
0j
0k
1t
1*
0,
#2760000
1"
1j
#2770000
0"
0j
1k
#2780000
1"
1j
#2790000
0"
0j
0k
0t
0*
1,
#2800000
1"
1j
#2810000
0"
0j
1k
#2820000
1"
1j
#2830000
0"
0j
0k
1t
1*
0,
#2840000
1"
1j
#2850000
0"
0j
1k
#2860000
1"
1j
#2870000
0"
0j
0k
0t
0*
1,
#2880000
1"
1j
#2890000
0"
0j
1k
#2900000
1"
1j
#2910000
0"
0j
0k
1t
1*
0,
#2920000
1"
1j
#2930000
0"
0j
1k
#2940000
1"
1j
#2950000
0"
0j
0k
0t
0*
1,
#2960000
1"
1j
#2970000
0"
0j
1k
#2980000
1"
1j
#2990000
0"
0j
0k
1t
1*
0,
#3000000
1"
1j
#3010000
0"
0j
1k
#3020000
1"
1j
#3030000
0"
0j
0k
0t
0*
1,
#3040000
1"
1j
#3050000
0"
0j
1k
#3060000
1"
1j
#3070000
0"
0j
0k
1t
1*
0,
#3080000
1"
1j
#3090000
0"
0j
1k
#3100000
1"
1j
#3110000
0"
0j
0k
0t
0*
1,
#3120000
1"
1j
#3130000
0"
0j
1k
#3140000
1"
1j
#3150000
0"
0j
0k
1t
1*
0,
#3160000
1"
1j
#3170000
0"
0j
1k
#3180000
1"
1j
#3190000
0"
0j
0k
0t
0*
1,
#3200000
1"
1j
#3210000
0"
0j
1k
#3220000
1"
1j
#3230000
0"
0j
0k
1t
1*
0,
#3240000
1"
1j
#3250000
0"
0j
1k
#3260000
1"
1j
#3270000
0"
0j
0k
0t
0*
1,
#3280000
1"
1j
#3290000
0"
0j
1k
#3300000
1"
1j
#3310000
0"
0j
0k
1t
1*
0,
#3320000
1"
1j
#3330000
0"
0j
1k
#3340000
1"
1j
#3350000
0"
0j
0k
0t
0*
1,
#3360000
1"
1j
#3370000
0"
0j
1k
#3380000
1"
1j
#3390000
0"
0j
0k
1t
1*
0,
#3400000
1"
1j
#3410000
0"
0j
1k
#3420000
1"
1j
#3430000
0"
0j
0k
0t
0*
1,
#3440000
1"
1j
#3450000
0"
0j
1k
#3460000
1"
1j
#3470000
0"
0j
0k
1t
1*
0,
#3480000
1"
1j
#3490000
0"
0j
1k
#3500000
1"
1j
#3510000
0"
0j
0k
0t
0*
1,
#3520000
1"
1j
#3530000
0"
0j
1k
#3540000
1"
1j
#3550000
0"
0j
0k
1t
1*
0,
#3560000
1"
1j
#3570000
0"
0j
1k
#3580000
1"
1j
#3590000
0"
0j
0k
0t
0*
1,
#3600000
1"
1j
#3610000
0"
0j
1k
#3620000
1"
1j
#3630000
0"
0j
0k
1t
1*
0,
#3640000
1"
1j
#3650000
0"
0j
1k
#3660000
1"
1j
#3670000
0"
0j
0k
0t
0*
1,
#3680000
1"
1j
#3690000
0"
0j
1k
#3700000
1"
1j
#3710000
0"
0j
0k
1t
1*
0,
#3720000
1"
1j
#3730000
0"
0j
1k
#3740000
1"
1j
#3750000
0"
0j
0k
0t
0*
1,
#3760000
1"
1j
#3770000
0"
0j
1k
#3780000
1"
1j
#3790000
0"
0j
0k
1t
1*
0,
#3800000
1"
1j
#3810000
0"
0j
1k
#3820000
1"
1j
#3830000
0"
0j
0k
0t
0*
1,
#3840000
1"
1j
#3850000
0"
0j
1k
#3860000
1"
1j
#3870000
0"
0j
0k
1t
1*
0,
#3880000
1"
1j
#3890000
0"
0j
1k
#3900000
1"
1j
#3910000
0"
0j
0k
0t
0*
1,
#3920000
1"
1j
#3930000
0"
0j
1k
#3940000
1"
1j
#3950000
0"
0j
0k
1t
1*
0,
#3960000
1"
1j
#3970000
0"
0j
1k
#3980000
1"
1j
#3990000
0"
0j
0k
0t
0*
1,
#4000000
1"
1j
#4010000
0"
0j
1k
#4020000
1"
1j
#4030000
0"
0j
0k
1t
1*
0,
#4040000
1"
1j
#4050000
0"
0j
1k
#4060000
1"
1j
#4070000
0"
0j
0k
0t
0*
1,
#4080000
1"
1j
#4090000
0"
0j
1k
#4100000
1"
1j
#4110000
0"
0j
0k
1t
1*
0,
#4120000
1"
1j
#4130000
0"
0j
1k
#4140000
1"
1j
#4150000
0"
0j
0k
0t
0*
1,
#4160000
1"
1j
#4170000
0"
0j
1k
#4180000
1"
1j
#4190000
0"
0j
0k
1t
1*
0,
#4200000
1"
1j
#4210000
0"
0j
1k
#4220000
1"
1j
#4230000
0"
0j
0k
0t
0*
1,
#4240000
1"
1j
#4250000
0"
0j
1k
#4260000
1"
1j
#4270000
0"
0j
0k
1t
1*
0,
#4280000
1"
1j
#4290000
0"
0j
1k
#4300000
1"
1j
#4310000
0"
0j
0k
0t
0*
1,
#4320000
1"
1j
#4330000
0"
0j
1k
#4340000
1"
1j
#4350000
0"
0j
0k
1t
1*
0,
#4360000
1"
1j
#4370000
0"
0j
1k
#4380000
1"
1j
#4390000
0"
0j
0k
0t
0*
1,
#4400000
1"
1j
#4410000
0"
0j
1k
#4420000
1"
1j
#4430000
0"
0j
0k
1t
1*
0,
#4440000
1"
1j
#4450000
0"
0j
1k
#4460000
1"
1j
#4470000
0"
0j
0k
0t
0*
1,
#4480000
1"
1j
#4490000
0"
0j
1k
#4500000
1"
1j
#4510000
0"
0j
0k
1t
1*
0,
#4520000
1"
1j
#4530000
0"
0j
1k
#4540000
1"
1j
#4550000
0"
0j
0k
0t
0*
1,
#4560000
1"
1j
#4570000
0"
0j
1k
#4580000
1"
1j
#4590000
0"
0j
0k
1t
1*
0,
#4600000
1"
1j
#4610000
0"
0j
1k
#4620000
1"
1j
#4630000
0"
0j
0k
0t
0*
1,
#4640000
1"
1j
#4650000
0"
0j
1k
#4660000
1"
1j
#4670000
0"
0j
0k
1t
1*
0,
#4680000
1"
1j
#4690000
0"
0j
1k
#4700000
1"
1j
#4710000
0"
0j
0k
0t
0*
1,
#4720000
1"
1j
#4730000
0"
0j
1k
#4740000
1"
1j
#4750000
0"
0j
0k
1t
1*
0,
#4760000
1"
1j
#4770000
0"
0j
1k
#4780000
1"
1j
#4790000
0"
0j
0k
0t
0*
1,
#4800000
1"
1j
#4810000
0"
0j
1k
#4820000
1"
1j
#4830000
0"
0j
0k
1t
1*
0,
#4840000
1"
1j
#4850000
0"
0j
1k
#4860000
1"
1j
#4870000
0"
0j
0k
0t
0*
1,
#4880000
1"
1j
#4890000
0"
0j
1k
#4900000
1"
1j
#4910000
0"
0j
0k
1t
1*
0,
#4920000
1"
1j
#4930000
0"
0j
1k
#4940000
1"
1j
#4950000
0"
0j
0k
0t
0*
1,
#4960000
1"
1j
#4970000
0"
0j
1k
#4980000
1"
1j
#4990000
0"
0j
0k
1t
1*
0,
#5000000
1"
1j
#5010000
0"
0j
1k
#5020000
1"
1j
#5030000
0"
0j
0k
0t
0*
1,
#5040000
1"
1j
#5050000
0"
0j
1k
#5060000
1"
1j
#5070000
0"
0j
0k
1t
1*
0,
#5080000
1"
1j
#5090000
0"
0j
1k
#5100000
1"
1j
#5110000
0"
0j
0k
0t
0*
1,
#5120000
1"
1j
#5130000
0"
0j
1k
#5140000
1"
1j
#5150000
0"
0j
0k
1t
1*
0,
#5160000
1"
1j
#5170000
0"
0j
1k
#5180000
1"
1j
#5190000
0"
0j
0k
0t
0*
1,
#5200000
1"
1j
#5210000
0"
0j
1k
#5220000
1"
1j
#5230000
0"
0j
0k
1t
1*
0,
#5240000
1"
1j
#5250000
0"
0j
1k
#5260000
1"
1j
#5270000
0"
0j
0k
0t
0*
1,
#5280000
1"
1j
#5290000
0"
0j
1k
#5300000
1"
1j
#5310000
0"
0j
0k
1t
1*
0,
#5320000
1"
1j
#5330000
0"
0j
1k
#5340000
1"
1j
#5350000
0"
0j
0k
0t
0*
1,
#5360000
1"
1j
#5370000
0"
0j
1k
#5380000
1"
1j
#5390000
0"
0j
0k
1t
1*
0,
#5400000
1"
1j
#5410000
0"
0j
1k
#5420000
1"
1j
#5430000
0"
0j
0k
0t
0*
1,
#5440000
1"
1j
#5450000
0"
0j
1k
#5460000
1"
1j
#5470000
0"
0j
0k
1t
1*
0,
#5480000
1"
1j
#5490000
0"
0j
1k
#5500000
1"
1j
#5510000
0"
0j
0k
0t
0*
1,
#5520000
1"
1j
#5530000
0"
0j
1k
#5540000
1"
1j
#5550000
0"
0j
0k
1t
1*
0,
#5560000
1"
1j
#5570000
0"
0j
1k
#5580000
1"
1j
#5590000
0"
0j
0k
0t
0*
1,
#5600000
1"
1j
#5610000
0"
0j
1k
#5620000
1"
1j
#5630000
0"
0j
0k
1t
1*
0,
#5640000
1"
1j
#5650000
0"
0j
1k
#5660000
1"
1j
#5670000
0"
0j
0k
0t
0*
1,
#5680000
1"
1j
#5690000
0"
0j
1k
#5700000
1"
1j
#5710000
0"
0j
0k
1t
1*
0,
#5720000
1"
1j
#5730000
0"
0j
1k
#5740000
1"
1j
#5750000
0"
0j
0k
0t
0*
1,
#5760000
1"
1j
#5770000
0"
0j
1k
#5780000
1"
1j
#5790000
0"
0j
0k
1t
1*
0,
#5800000
1"
1j
#5810000
0"
0j
1k
#5820000
1"
1j
#5830000
0"
0j
0k
0t
0*
1,
#5840000
1"
1j
#5850000
0"
0j
1k
#5860000
1"
1j
#5870000
0"
0j
0k
1t
1*
0,
#5880000
1"
1j
#5890000
0"
0j
1k
#5900000
1"
1j
#5910000
0"
0j
0k
0t
0*
1,
#5920000
1"
1j
#5930000
0"
0j
1k
#5940000
1"
1j
#5950000
0"
0j
0k
1t
1*
0,
#5960000
1"
1j
#5970000
0"
0j
1k
#5980000
1"
1j
#5990000
0"
0j
0k
0t
0*
1,
#6000000
1"
1j
#6010000
0"
0j
1k
#6020000
1"
1j
#6030000
0"
0j
0k
1t
1*
0,
#6040000
1"
1j
#6050000
0"
0j
1k
#6060000
1"
1j
#6070000
0"
0j
0k
0t
0*
1,
#6080000
1"
1j
#6090000
0"
0j
1k
#6100000
1"
1j
#6110000
0"
0j
0k
1t
1*
0,
#6120000
1"
1j
#6130000
0"
0j
1k
#6140000
1"
1j
#6150000
0"
0j
0k
0t
0*
1,
#6160000
1"
1j
#6170000
0"
0j
1k
#6180000
1"
1j
#6190000
0"
0j
0k
1t
1*
0,
#6200000
1"
1j
#6210000
0"
0j
1k
#6220000
1"
1j
#6230000
0"
0j
0k
0t
0*
1,
#6240000
1"
1j
#6250000
0"
0j
1k
#6260000
1"
1j
#6270000
0"
0j
0k
1t
1*
0,
#6280000
1"
1j
